T15,T70,date,sensorName
17,43,2023-01-12 00:00:00.163,Lband
17,43,2023-01-12 00:01:00.198,Lband
17,43,2023-01-12 00:02:00.205,Lband
17,43,2023-01-12 00:03:00.290,Lband
17,43,2023-01-12 00:04:00.294,Lband
17,43,2023-01-12 00:05:00.372,Lband
17,43,2023-01-12 00:06:00.188,Lband
17,43,2023-01-12 00:07:00.251,Lband
17,43,2023-01-12 00:08:00.244,Lband
17,43,2023-01-12 00:09:00.309,Lband
17,43,2023-01-12 00:10:00.253,Lband
17,43,2023-01-12 00:11:00.312,Lband
17,43,2023-01-12 00:12:00.256,Lband
17,43,2023-01-12 00:13:00.260,Lband
17,43,2023-01-12 00:14:00.307,Lband
17,43,2023-01-12 00:15:00.260,Lband
17,43,2023-01-12 00:16:00.253,Lband
17,43,2023-01-12 00:17:00.405,Lband
17,43,2023-01-12 00:18:00.261,Lband
17,43,2023-01-12 00:19:00.252,Lband
17,43,2023-01-12 00:20:00.256,Lband
17,43,2023-01-12 00:21:00.250,Lband
17,43,2023-01-12 00:22:00.251,Lband
17,43,2023-01-12 00:23:00.270,Lband
17,43,2023-01-12 00:24:00.315,Lband
17,43,2023-01-12 00:25:00.205,Lband
17,43,2023-01-12 00:26:00.251,Lband
17,43,2023-01-12 00:27:00.297,Lband
17,43,2023-01-12 00:28:00.315,Lband
17,43,2023-01-12 00:29:00.187,Lband
17,43,2023-01-12 00:30:00.265,Lband
17,43,2023-01-12 00:31:00.257,Lband
17,43,2023-01-12 00:32:00.273,Lband
17,43,2023-01-12 00:33:00.304,Lband
17,43,2023-01-12 00:34:00.276,Lband
17,43,2023-01-12 00:35:00.249,Lband
17,43,2023-01-12 00:36:00.305,Lband
17,43,2023-01-12 00:37:00.266,Lband
17,43,2023-01-12 00:38:00.208,Lband
17,43,2023-01-12 00:39:00.216,Lband
17,43,2023-01-12 00:40:00.189,Lband
17,43,2023-01-12 00:41:00.276,Lband
17,43,2023-01-12 00:42:00.312,Lband
17,43,2023-01-12 00:43:00.225,Lband
17,43,2023-01-12 00:44:00.193,Lband
17,43,2023-01-12 00:45:00.365,Lband
17,43,2023-01-12 00:46:00.205,Lband
17,43,2023-01-12 00:47:00.252,Lband
18,43,2023-01-12 00:48:00.351,Lband
17,43,2023-01-12 00:49:00.239,Lband
17,43,2023-01-12 00:50:00.296,Lband
17,43,2023-01-12 00:51:00.222,Lband
17,43,2023-01-12 00:52:00.246,Lband
17,43,2023-01-12 00:53:00.201,Lband
17,43,2023-01-12 00:54:00.249,Lband
17,43,2023-01-12 00:55:00.213,Lband
17,43,2023-01-12 00:56:00.358,Lband
17,43,2023-01-12 00:57:00.252,Lband
17,43,2023-01-12 00:58:00.274,Lband
17,43,2023-01-12 00:59:00.253,Lband
17,43,2023-01-12 01:00:00.201,Lband
17,43,2023-01-12 01:01:00.234,Lband
18,43,2023-01-12 01:02:00.308,Lband
17,43,2023-01-12 01:03:00.281,Lband
17,43,2023-01-12 01:04:00.260,Lband
17,43,2023-01-12 01:05:00.241,Lband
17,43,2023-01-12 01:06:00.288,Lband
17,43,2023-01-12 01:07:00.222,Lband
17,43,2023-01-12 01:08:00.300,Lband
17,43,2023-01-12 01:09:00.243,Lband
17,43,2023-01-12 01:10:00.302,Lband
17,43,2023-01-12 01:11:00.143,Lband
17,43,2023-01-12 01:12:00.288,Lband
17,43,2023-01-12 01:13:00.258,Lband
17,43,2023-01-12 01:14:00.218,Lband
17,43,2023-01-12 01:15:00.236,Lband
17,43,2023-01-12 01:16:00.313,Lband
17,43,2023-01-12 01:17:00.245,Lband
17,43,2023-01-12 01:18:00.271,Lband
17,43,2023-01-12 01:19:00.319,Lband
17,43,2023-01-12 01:20:00.251,Lband
17,43,2023-01-12 01:21:00.298,Lband
17,43,2023-01-12 01:22:00.309,Lband
17,43,2023-01-12 01:23:00.258,Lband
17,43,2023-01-12 01:24:00.287,Lband
17,43,2023-01-12 01:25:00.247,Lband
17,43,2023-01-12 01:26:00.340,Lband
17,43,2023-01-12 01:27:00.258,Lband
17,43,2023-01-12 01:28:00.208,Lband
17,43,2023-01-12 01:29:00.253,Lband
17,43,2023-01-12 01:30:00.221,Lband
17,43,2023-01-12 01:31:00.251,Lband
17,43,2023-01-12 01:32:00.274,Lband
17,43,2023-01-12 01:33:00.264,Lband
17,43,2023-01-12 01:34:00.268,Lband
17,43,2023-01-12 01:35:00.250,Lband
17,43,2023-01-12 01:36:00.301,Lband
17,43,2023-01-12 01:37:00.262,Lband
17,43,2023-01-12 01:38:00.275,Lband
17,43,2023-01-12 01:39:00.302,Lband
17,43,2023-01-12 01:40:00.268,Lband
17,43,2023-01-12 01:41:00.241,Lband
17,43,2023-01-12 01:42:00.239,Lband
17,43,2023-01-12 01:43:00.258,Lband
17,43,2023-01-12 01:44:00.310,Lband
17,43,2023-01-12 01:45:00.254,Lband
17,43,2023-01-12 01:46:00.257,Lband
17,43,2023-01-12 01:47:00.277,Lband
17,43,2023-01-12 01:48:00.263,Lband
17,43,2023-01-12 01:49:00.316,Lband
17,43,2023-01-12 01:50:00.285,Lband
17,43,2023-01-12 01:51:00.254,Lband
17,43,2023-01-12 01:52:00.186,Lband
17,43,2023-01-12 01:53:00.298,Lband
17,43,2023-01-12 01:54:00.274,Lband
17,43,2023-01-12 01:55:00.237,Lband
17,42,2023-01-12 01:56:00.258,Lband
17,43,2023-01-12 01:57:00.243,Lband
17,43,2023-01-12 01:58:00.218,Lband
17,43,2023-01-12 01:59:00.242,Lband
17,42,2023-01-12 02:00:00.227,Lband
17,42,2023-01-12 02:01:00.294,Lband
17,43,2023-01-12 02:02:00.218,Lband
17,42,2023-01-12 02:03:00.201,Lband
17,43,2023-01-12 02:04:00.164,Lband
17,42,2023-01-12 02:05:00.199,Lband
17,43,2023-01-12 02:06:00.268,Lband
17,43,2023-01-12 02:07:00.197,Lband
17,42,2023-01-12 02:08:00.250,Lband
17,42,2023-01-12 02:09:00.225,Lband
17,42,2023-01-12 02:10:00.222,Lband
17,42,2023-01-12 02:11:00.188,Lband
17,42,2023-01-12 02:12:00.207,Lband
17,42,2023-01-12 02:13:00.402,Lband
17,43,2023-01-12 02:14:00.298,Lband
18,43,2023-01-12 02:15:00.233,Lband
18,43,2023-01-12 02:16:00.191,Lband
17,42,2023-01-12 02:17:00.302,Lband
17,42,2023-01-12 02:18:00.218,Lband
18,42,2023-01-12 02:19:00.238,Lband
18,42,2023-01-12 02:20:00.274,Lband
17,43,2023-01-12 02:21:00.302,Lband
18,43,2023-01-12 02:22:00.300,Lband
17,43,2023-01-12 02:23:00.294,Lband
17,43,2023-01-12 02:24:00.252,Lband
17,43,2023-01-12 02:25:00.307,Lband
18,43,2023-01-12 02:26:00.231,Lband
18,43,2023-01-12 02:27:00.310,Lband
18,43,2023-01-12 02:28:00.243,Lband
17,43,2023-01-12 02:29:00.264,Lband
17,43,2023-01-12 02:30:00.313,Lband
17,43,2023-01-12 02:31:00.273,Lband
17,43,2023-01-12 02:32:00.305,Lband
17,43,2023-01-12 02:33:00.300,Lband
17,43,2023-01-12 02:34:00.274,Lband
17,43,2023-01-12 02:35:00.214,Lband
17,43,2023-01-12 02:36:00.308,Lband
17,43,2023-01-12 02:37:00.289,Lband
17,43,2023-01-12 02:38:00.211,Lband
17,43,2023-01-12 02:39:00.194,Lband
17,43,2023-01-12 02:40:00.252,Lband
17,43,2023-01-12 02:41:00.263,Lband
17,43,2023-01-12 02:42:00.226,Lband
17,43,2023-01-12 02:43:00.204,Lband
17,43,2023-01-12 02:44:00.254,Lband
17,43,2023-01-12 02:45:00.200,Lband
17,43,2023-01-12 02:46:00.250,Lband
17,43,2023-01-12 02:47:00.262,Lband
17,43,2023-01-12 02:48:00.195,Lband
17,43,2023-01-12 02:49:00.245,Lband
17,43,2023-01-12 02:50:00.260,Lband
17,43,2023-01-12 02:51:00.258,Lband
17,43,2023-01-12 02:52:00.219,Lband
17,43,2023-01-12 02:53:00.249,Lband
17,43,2023-01-12 02:54:00.191,Lband
17,43,2023-01-12 02:55:00.267,Lband
17,43,2023-01-12 02:56:00.199,Lband
17,43,2023-01-12 02:57:00.254,Lband
17,43,2023-01-12 02:58:00.322,Lband
17,43,2023-01-12 02:59:00.270,Lband
17,42,2023-01-12 03:00:00.301,Lband
17,43,2023-01-12 03:01:00.253,Lband
17,43,2023-01-12 03:02:00.315,Lband
17,43,2023-01-12 03:03:00.247,Lband
17,43,2023-01-12 03:04:00.263,Lband
18,42,2023-01-12 03:05:00.294,Lband
18,43,2023-01-12 03:06:00.193,Lband
18,43,2023-01-12 03:07:00.262,Lband
17,42,2023-01-12 03:08:00.231,Lband
17,42,2023-01-12 03:09:00.246,Lband
17,42,2023-01-12 03:10:00.308,Lband
17,42,2023-01-12 03:11:00.250,Lband
17,42,2023-01-12 03:12:00.360,Lband
17,43,2023-01-12 03:13:00.284,Lband
17,42,2023-01-12 03:14:00.214,Lband
17,42,2023-01-12 03:15:00.251,Lband
17,42,2023-01-12 03:16:00.283,Lband
17,42,2023-01-12 03:17:00.188,Lband
17,42,2023-01-12 03:18:00.282,Lband
17,42,2023-01-12 03:19:00.302,Lband
17,42,2023-01-12 03:20:00.253,Lband
17,42,2023-01-12 03:21:00.306,Lband
17,43,2023-01-12 03:22:00.243,Lband
17,42,2023-01-12 03:23:00.307,Lband
17,42,2023-01-12 03:24:00.250,Lband
17,42,2023-01-12 03:25:00.263,Lband
17,42,2023-01-12 03:26:00.256,Lband
17,42,2023-01-12 03:27:00.264,Lband
17,42,2023-01-12 03:28:00.248,Lband
17,42,2023-01-12 03:29:00.252,Lband
17,43,2023-01-12 03:30:00.242,Lband
17,42,2023-01-12 03:31:00.155,Lband
17,42,2023-01-12 03:32:00.284,Lband
17,42,2023-01-12 03:33:00.236,Lband
17,42,2023-01-12 03:34:00.187,Lband
17,42,2023-01-12 03:35:00.237,Lband
17,42,2023-01-12 03:36:00.206,Lband
17,42,2023-01-12 03:37:00.269,Lband
17,42,2023-01-12 03:38:00.225,Lband
17,42,2023-01-12 03:39:00.194,Lband
17,42,2023-01-12 03:40:00.273,Lband
17,42,2023-01-12 03:41:00.350,Lband
17,42,2023-01-12 03:42:00.362,Lband
17,42,2023-01-12 03:43:00.239,Lband
17,42,2023-01-12 03:44:00.250,Lband
17,42,2023-01-12 03:45:00.173,Lband
17,42,2023-01-12 03:46:00.199,Lband
17,42,2023-01-12 03:47:00.224,Lband
17,42,2023-01-12 03:48:00.200,Lband
17,42,2023-01-12 03:49:00.190,Lband
17,42,2023-01-12 03:50:00.260,Lband
17,42,2023-01-12 03:51:00.256,Lband
17,42,2023-01-12 03:52:00.251,Lband
17,42,2023-01-12 03:53:00.251,Lband
17,42,2023-01-12 03:54:00.303,Lband
17,42,2023-01-12 03:55:00.280,Lband
17,42,2023-01-12 03:56:00.279,Lband
17,42,2023-01-12 03:57:00.310,Lband
17,42,2023-01-12 03:58:00.171,Lband
17,42,2023-01-12 03:59:00.269,Lband
17,42,2023-01-12 04:00:00.298,Lband
17,42,2023-01-12 04:01:00.211,Lband
17,42,2023-01-12 04:02:00.290,Lband
17,42,2023-01-12 04:03:00.281,Lband
17,42,2023-01-12 04:04:00.248,Lband
17,42,2023-01-12 04:05:00.176,Lband
17,42,2023-01-12 04:06:00.288,Lband
17,42,2023-01-12 04:07:00.213,Lband
17,42,2023-01-12 04:08:00.186,Lband
17,42,2023-01-12 04:09:00.280,Lband
17,42,2023-01-12 04:10:00.181,Lband
17,42,2023-01-12 04:11:00.176,Lband
17,42,2023-01-12 04:12:00.276,Lband
17,42,2023-01-12 04:13:00.282,Lband
17,42,2023-01-12 04:14:00.282,Lband
17,42,2023-01-12 04:15:00.161,Lband
17,42,2023-01-12 04:16:00.305,Lband
17,42,2023-01-12 04:17:00.230,Lband
17,42,2023-01-12 04:18:00.244,Lband
17,42,2023-01-12 04:19:00.265,Lband
17,42,2023-01-12 04:20:00.189,Lband
17,42,2023-01-12 04:21:00.216,Lband
17,42,2023-01-12 04:22:00.259,Lband
17,42,2023-01-12 04:23:00.170,Lband
17,42,2023-01-12 04:24:00.267,Lband
17,42,2023-01-12 04:25:00.203,Lband
17,42,2023-01-12 04:26:00.187,Lband
17,42,2023-01-12 04:27:00.203,Lband
17,42,2023-01-12 04:28:00.240,Lband
17,42,2023-01-12 04:29:00.313,Lband
17,42,2023-01-12 04:30:00.250,Lband
17,42,2023-01-12 04:31:00.309,Lband
17,42,2023-01-12 04:32:00.257,Lband
17,42,2023-01-12 04:33:00.182,Lband
17,42,2023-01-12 04:34:00.251,Lband
17,42,2023-01-12 04:35:00.309,Lband
17,42,2023-01-12 04:36:00.359,Lband
17,42,2023-01-12 04:37:00.319,Lband
17,42,2023-01-12 04:38:00.172,Lband
17,42,2023-01-12 04:39:00.252,Lband
17,42,2023-01-12 04:40:00.273,Lband
17,42,2023-01-12 04:41:00.341,Lband
17,42,2023-01-12 04:42:00.219,Lband
17,42,2023-01-12 04:43:00.242,Lband
17,42,2023-01-12 04:44:00.230,Lband
17,42,2023-01-12 04:45:00.259,Lband
17,42,2023-01-12 04:46:00.262,Lband
17,42,2023-01-12 04:47:00.243,Lband
17,42,2023-01-12 04:48:00.214,Lband
17,42,2023-01-12 04:49:00.323,Lband
17,42,2023-01-12 04:50:00.253,Lband
17,42,2023-01-12 04:51:00.187,Lband
17,42,2023-01-12 04:52:00.194,Lband
17,42,2023-01-12 04:53:00.239,Lband
17,42,2023-01-12 04:54:00.311,Lband
17,42,2023-01-12 04:55:00.246,Lband
17,42,2023-01-12 04:56:00.254,Lband
17,42,2023-01-12 04:57:00.260,Lband
17,42,2023-01-12 04:58:00.284,Lband
17,42,2023-01-12 04:59:00.249,Lband
17,42,2023-01-12 05:00:00.252,Lband
17,42,2023-01-12 05:01:00.229,Lband
17,42,2023-01-12 05:02:00.321,Lband
17,42,2023-01-12 05:03:00.242,Lband
17,42,2023-01-12 05:04:00.303,Lband
17,42,2023-01-12 05:05:00.270,Lband
17,42,2023-01-12 05:06:00.219,Lband
17,42,2023-01-12 05:07:00.384,Lband
17,42,2023-01-12 05:08:00.306,Lband
17,42,2023-01-12 05:09:00.279,Lband
17,42,2023-01-12 05:10:00.309,Lband
17,42,2023-01-12 05:11:00.271,Lband
17,42,2023-01-12 05:12:00.246,Lband
17,42,2023-01-12 05:13:00.243,Lband
17,42,2023-01-12 05:14:00.261,Lband
17,42,2023-01-12 05:15:00.208,Lband
17,42,2023-01-12 05:16:00.224,Lband
17,42,2023-01-12 05:17:00.213,Lband
17,42,2023-01-12 05:18:00.191,Lband
17,42,2023-01-12 05:19:00.314,Lband
17,42,2023-01-12 05:20:00.247,Lband
17,42,2023-01-12 05:21:00.265,Lband
17,42,2023-01-12 05:22:00.211,Lband
17,42,2023-01-12 05:23:00.295,Lband
17,42,2023-01-12 05:24:00.222,Lband
17,42,2023-01-12 05:25:00.225,Lband
17,42,2023-01-12 05:26:00.253,Lband
17,42,2023-01-12 05:27:00.288,Lband
17,42,2023-01-12 05:28:00.308,Lband
17,42,2023-01-12 05:29:00.288,Lband
17,42,2023-01-12 05:30:00.300,Lband
17,42,2023-01-12 05:31:00.279,Lband
17,42,2023-01-12 05:32:00.231,Lband
17,42,2023-01-12 05:33:00.275,Lband
17,42,2023-01-12 05:34:00.255,Lband
17,42,2023-01-12 05:35:00.260,Lband
17,42,2023-01-12 05:36:00.284,Lband
17,42,2023-01-12 05:37:00.293,Lband
17,42,2023-01-12 05:38:00.258,Lband
17,42,2023-01-12 05:39:00.257,Lband
17,42,2023-01-12 05:40:00.243,Lband
17,42,2023-01-12 05:41:00.174,Lband
17,42,2023-01-12 05:42:00.256,Lband
17,42,2023-01-12 05:43:00.174,Lband
17,42,2023-01-12 05:44:00.297,Lband
17,42,2023-01-12 05:45:00.200,Lband
17,42,2023-01-12 05:46:00.197,Lband
17,42,2023-01-12 05:47:00.210,Lband
17,42,2023-01-12 05:48:00.253,Lband
17,42,2023-01-12 05:49:00.199,Lband
17,42,2023-01-12 05:50:00.198,Lband
17,42,2023-01-12 05:51:00.303,Lband
17,42,2023-01-12 05:52:00.201,Lband
17,42,2023-01-12 05:53:00.296,Lband
17,42,2023-01-12 05:54:00.202,Lband
17,42,2023-01-12 05:55:00.294,Lband
17,42,2023-01-12 05:56:00.221,Lband
17,42,2023-01-12 05:57:00.263,Lband
17,42,2023-01-12 05:58:00.241,Lband
17,42,2023-01-12 05:59:00.295,Lband
17,42,2023-01-12 06:00:00.244,Lband
17,42,2023-01-12 06:01:00.338,Lband
17,42,2023-01-12 06:02:00.190,Lband
17,42,2023-01-12 06:03:00.362,Lband
17,42,2023-01-12 06:04:00.367,Lband
17,42,2023-01-12 06:05:00.240,Lband
17,42,2023-01-12 06:06:00.237,Lband
17,42,2023-01-12 06:07:00.200,Lband
17,42,2023-01-12 06:08:00.354,Lband
17,42,2023-01-12 06:09:00.202,Lband
17,42,2023-01-12 06:10:00.209,Lband
17,42,2023-01-12 06:11:00.212,Lband
17,42,2023-01-12 06:12:00.262,Lband
17,42,2023-01-12 06:13:00.349,Lband
17,42,2023-01-12 06:14:00.256,Lband
17,42,2023-01-12 06:15:00.225,Lband
17,42,2023-01-12 06:16:00.239,Lband
17,42,2023-01-12 06:17:00.266,Lband
17,42,2023-01-12 06:18:00.253,Lband
17,42,2023-01-12 06:19:00.248,Lband
17,42,2023-01-12 06:20:00.344,Lband
17,42,2023-01-12 06:21:00.163,Lband
17,42,2023-01-12 06:22:00.220,Lband
17,42,2023-01-12 06:23:00.254,Lband
17,42,2023-01-12 06:24:00.257,Lband
17,42,2023-01-12 06:25:00.252,Lband
17,42,2023-01-12 06:26:00.324,Lband
17,42,2023-01-12 06:27:00.256,Lband
17,42,2023-01-12 06:28:00.356,Lband
17,42,2023-01-12 06:29:00.242,Lband
17,42,2023-01-12 06:30:00.245,Lband
17,42,2023-01-12 06:31:00.231,Lband
17,42,2023-01-12 06:32:00.230,Lband
17,42,2023-01-12 06:33:00.226,Lband
17,42,2023-01-12 06:34:00.263,Lband
17,42,2023-01-12 06:35:00.407,Lband
17,42,2023-01-12 06:36:00.315,Lband
17,42,2023-01-12 06:37:00.348,Lband
17,42,2023-01-12 06:38:00.231,Lband
17,42,2023-01-12 06:39:00.341,Lband
17,42,2023-01-12 06:40:00.332,Lband
17,42,2023-01-12 06:41:00.318,Lband
17,42,2023-01-12 06:42:00.230,Lband
17,42,2023-01-12 06:43:00.205,Lband
17,42,2023-01-12 06:44:00.309,Lband
17,42,2023-01-12 06:45:00.365,Lband
17,42,2023-01-12 06:46:00.188,Lband
17,42,2023-01-12 06:47:00.348,Lband
17,42,2023-01-12 06:48:00.303,Lband
17,42,2023-01-12 06:49:00.307,Lband
17,42,2023-01-12 06:50:00.259,Lband
17,42,2023-01-12 06:51:00.360,Lband
17,42,2023-01-12 06:52:00.172,Lband
17,42,2023-01-12 06:53:00.244,Lband
17,42,2023-01-12 06:54:00.309,Lband
17,42,2023-01-12 06:55:00.242,Lband
17,42,2023-01-12 06:56:00.256,Lband
17,42,2023-01-12 06:57:00.201,Lband
17,42,2023-01-12 06:58:00.230,Lband
17,42,2023-01-12 06:59:00.214,Lband
17,42,2023-01-12 07:00:00.199,Lband
17,42,2023-01-12 07:01:00.227,Lband
17,42,2023-01-12 07:02:00.203,Lband
17,42,2023-01-12 07:03:00.241,Lband
17,42,2023-01-12 07:04:00.254,Lband
17,42,2023-01-12 07:05:00.206,Lband
17,42,2023-01-12 07:06:00.387,Lband
17,42,2023-01-12 07:07:00.293,Lband
17,42,2023-01-12 07:08:00.302,Lband
17,42,2023-01-12 07:09:00.237,Lband
17,42,2023-01-12 07:10:00.299,Lband
17,42,2023-01-12 07:11:00.293,Lband
17,42,2023-01-12 07:12:00.292,Lband
17,42,2023-01-12 07:13:00.318,Lband
17,42,2023-01-12 07:14:00.316,Lband
17,42,2023-01-12 07:15:00.351,Lband
17,42,2023-01-12 07:16:00.286,Lband
17,42,2023-01-12 07:17:00.317,Lband
17,42,2023-01-12 07:18:00.356,Lband
17,42,2023-01-12 07:19:00.189,Lband
17,42,2023-01-12 07:20:00.221,Lband
17,42,2023-01-12 07:21:00.238,Lband
17,42,2023-01-12 07:22:00.310,Lband
17,42,2023-01-12 07:23:00.318,Lband
17,42,2023-01-12 07:24:00.363,Lband
17,42,2023-01-12 07:25:00.161,Lband
17,42,2023-01-12 07:26:00.205,Lband
17,42,2023-01-12 07:27:00.254,Lband
17,42,2023-01-12 07:28:00.225,Lband
17,42,2023-01-12 07:29:00.191,Lband
17,42,2023-01-12 07:30:00.184,Lband
17,42,2023-01-12 07:31:00.175,Lband
17,42,2023-01-12 07:32:00.293,Lband
17,42,2023-01-12 07:33:00.256,Lband
17,42,2023-01-12 07:34:00.238,Lband
17,42,2023-01-12 07:35:00.328,Lband
17,42,2023-01-12 07:36:00.247,Lband
17,42,2023-01-12 07:37:00.315,Lband
17,42,2023-01-12 07:38:00.225,Lband
17,42,2023-01-12 07:39:00.256,Lband
17,42,2023-01-12 07:40:00.213,Lband
17,42,2023-01-12 07:41:00.250,Lband
17,42,2023-01-12 07:42:00.252,Lband
17,42,2023-01-12 07:43:00.288,Lband
17,42,2023-01-12 07:44:00.235,Lband
17,42,2023-01-12 07:45:00.263,Lband
17,42,2023-01-12 07:46:00.312,Lband
17,42,2023-01-12 07:47:00.209,Lband
17,42,2023-01-12 07:48:00.284,Lband
17,42,2023-01-12 07:49:00.262,Lband
17,42,2023-01-12 07:50:00.148,Lband
17,42,2023-01-12 07:51:00.292,Lband
17,42,2023-01-12 07:52:00.204,Lband
17,42,2023-01-12 07:53:00.296,Lband
17,42,2023-01-12 07:54:00.207,Lband
17,42,2023-01-12 07:55:00.306,Lband
17,42,2023-01-12 07:56:00.297,Lband
17,42,2023-01-12 07:57:00.248,Lband
17,42,2023-01-12 07:58:00.294,Lband
17,42,2023-01-12 07:59:00.235,Lband
17,42,2023-01-12 08:00:00.209,Lband
17,42,2023-01-12 08:01:00.274,Lband
17,42,2023-01-12 08:02:00.188,Lband
17,42,2023-01-12 08:03:00.301,Lband
17,42,2023-01-12 08:04:00.182,Lband
17,42,2023-01-12 08:05:00.307,Lband
17,42,2023-01-12 08:06:00.218,Lband
17,42,2023-01-12 08:07:00.267,Lband
17,42,2023-01-12 08:08:00.368,Lband
17,42,2023-01-12 08:09:00.237,Lband
17,42,2023-01-12 08:10:00.297,Lband
17,42,2023-01-12 08:11:00.184,Lband
17,42,2023-01-12 08:12:00.198,Lband
17,42,2023-01-12 08:13:00.202,Lband
17,42,2023-01-12 08:14:00.180,Lband
17,42,2023-01-12 08:15:00.237,Lband
17,42,2023-01-12 08:16:00.331,Lband
17,42,2023-01-12 08:17:00.326,Lband
17,42,2023-01-12 08:18:00.274,Lband
17,42,2023-01-12 08:19:00.322,Lband
17,42,2023-01-12 08:20:00.301,Lband
17,42,2023-01-12 08:21:00.245,Lband
17,42,2023-01-12 08:22:00.319,Lband
17,42,2023-01-12 08:23:00.301,Lband
17,42,2023-01-12 08:24:00.273,Lband
17,42,2023-01-12 08:25:00.215,Lband
17,42,2023-01-12 08:26:00.291,Lband
17,42,2023-01-12 08:27:00.233,Lband
17,42,2023-01-12 08:28:00.224,Lband
17,42,2023-01-12 08:29:00.257,Lband
17,42,2023-01-12 08:30:00.295,Lband
17,42,2023-01-12 08:31:00.234,Lband
17,42,2023-01-12 08:32:00.333,Lband
17,42,2023-01-12 08:33:00.344,Lband
17,42,2023-01-12 08:34:00.282,Lband
17,42,2023-01-12 08:35:00.220,Lband
17,42,2023-01-12 08:36:00.241,Lband
17,42,2023-01-12 08:37:00.307,Lband
17,42,2023-01-12 08:38:00.188,Lband
17,42,2023-01-12 08:39:00.296,Lband
17,42,2023-01-12 08:40:00.239,Lband
17,42,2023-01-12 08:41:00.272,Lband
17,42,2023-01-12 08:42:00.333,Lband
17,42,2023-01-12 08:43:00.218,Lband
17,42,2023-01-12 08:44:00.298,Lband
17,42,2023-01-12 08:45:00.330,Lband
17,42,2023-01-12 08:46:00.352,Lband
17,42,2023-01-12 08:47:00.309,Lband
17,42,2023-01-12 08:48:00.276,Lband
17,42,2023-01-12 08:49:00.327,Lband
17,42,2023-01-12 08:50:00.213,Lband
17,42,2023-01-12 08:51:00.311,Lband
17,42,2023-01-12 08:52:00.323,Lband
17,42,2023-01-12 08:53:00.216,Lband
17,42,2023-01-12 08:54:00.242,Lband
17,42,2023-01-12 08:55:00.281,Lband
17,42,2023-01-12 08:56:00.329,Lband
17,42,2023-01-12 08:57:00.221,Lband
17,42,2023-01-12 08:58:00.282,Lband
17,42,2023-01-12 08:59:00.245,Lband
17,42,2023-01-12 09:00:00.324,Lband
17,42,2023-01-12 09:01:00.258,Lband
17,43,2023-01-12 09:02:00.287,Lband
17,42,2023-01-12 09:03:00.222,Lband
17,43,2023-01-12 09:04:00.252,Lband
17,43,2023-01-12 09:05:00.334,Lband
17,43,2023-01-12 09:06:00.276,Lband
17,42,2023-01-12 09:07:00.314,Lband
17,43,2023-01-12 09:08:00.273,Lband
17,43,2023-01-12 09:09:00.397,Lband
17,43,2023-01-12 09:10:00.267,Lband
17,43,2023-01-12 09:11:00.282,Lband
18,43,2023-01-12 09:12:00.248,Lband
18,43,2023-01-12 09:13:00.252,Lband
18,43,2023-01-12 09:14:00.326,Lband
18,43,2023-01-12 09:15:00.198,Lband
18,43,2023-01-12 09:16:00.289,Lband
17,43,2023-01-12 09:17:00.307,Lband
17,43,2023-01-12 09:18:00.261,Lband
18,43,2023-01-12 09:19:00.231,Lband
18,43,2023-01-12 09:20:00.294,Lband
18,43,2023-01-12 09:21:00.274,Lband
18,43,2023-01-12 09:22:00.301,Lband
18,43,2023-01-12 09:23:00.224,Lband
18,43,2023-01-12 09:24:00.243,Lband
18,43,2023-01-12 09:25:00.279,Lband
18,43,2023-01-12 09:26:00.273,Lband
18,43,2023-01-12 09:27:00.308,Lband
18,43,2023-01-12 09:28:00.293,Lband
18,43,2023-01-12 09:29:00.272,Lband
18,43,2023-01-12 09:30:00.262,Lband
18,43,2023-01-12 09:31:00.278,Lband
18,43,2023-01-12 09:32:00.296,Lband
18,43,2023-01-12 09:33:00.311,Lband
18,43,2023-01-12 09:34:00.271,Lband
18,43,2023-01-12 09:35:00.279,Lband
18,43,2023-01-12 09:36:00.306,Lband
18,43,2023-01-12 09:37:00.250,Lband
18,43,2023-01-12 09:38:00.276,Lband
18,43,2023-01-12 09:39:00.214,Lband
18,43,2023-01-12 09:40:00.300,Lband
18,43,2023-01-12 09:41:00.388,Lband
18,43,2023-01-12 09:42:00.311,Lband
18,43,2023-01-12 09:43:00.248,Lband
18,43,2023-01-12 09:44:00.260,Lband
18,43,2023-01-12 09:45:00.315,Lband
18,43,2023-01-12 09:46:00.297,Lband
18,43,2023-01-12 09:47:00.285,Lband
18,43,2023-01-12 09:48:00.265,Lband
18,43,2023-01-12 09:49:00.316,Lband
18,43,2023-01-12 09:50:00.206,Lband
18,43,2023-01-12 09:51:00.265,Lband
18,43,2023-01-12 09:52:00.268,Lband
18,43,2023-01-12 09:53:00.244,Lband
18,43,2023-01-12 09:54:00.294,Lband
18,43,2023-01-12 09:55:00.193,Lband
18,43,2023-01-12 09:56:00.209,Lband
18,43,2023-01-12 09:57:00.199,Lband
18,43,2023-01-12 09:58:00.223,Lband
18,43,2023-01-12 09:59:00.217,Lband
18,43,2023-01-12 10:00:00.227,Lband
18,43,2023-01-12 10:01:00.236,Lband
18,43,2023-01-12 10:02:00.259,Lband
18,43,2023-01-12 10:03:00.289,Lband
18,43,2023-01-12 10:04:00.228,Lband
18,43,2023-01-12 10:05:00.199,Lband
18,43,2023-01-12 10:06:00.189,Lband
18,43,2023-01-12 10:07:00.307,Lband
18,43,2023-01-12 10:08:00.240,Lband
18,43,2023-01-12 10:09:00.286,Lband
18,43,2023-01-12 10:10:00.235,Lband
18,43,2023-01-12 10:11:00.292,Lband
18,43,2023-01-12 10:12:00.488,Lband
18,43,2023-01-12 10:13:00.211,Lband
18,43,2023-01-12 10:14:00.181,Lband
18,42,2023-01-12 10:15:00.268,Lband
18,43,2023-01-12 10:16:00.304,Lband
18,42,2023-01-12 10:17:00.215,Lband
18,43,2023-01-12 10:18:00.211,Lband
18,42,2023-01-12 10:19:00.349,Lband
18,43,2023-01-12 10:20:00.273,Lband
18,42,2023-01-12 10:21:00.315,Lband
18,42,2023-01-12 10:22:00.271,Lband
18,42,2023-01-12 10:23:00.308,Lband
18,43,2023-01-12 10:24:00.261,Lband
18,42,2023-01-12 10:25:00.340,Lband
18,43,2023-01-12 10:26:00.297,Lband
18,42,2023-01-12 10:27:00.316,Lband
18,42,2023-01-12 10:28:00.306,Lband
18,42,2023-01-12 10:29:00.236,Lband
18,42,2023-01-12 10:30:00.268,Lband
18,42,2023-01-12 10:31:00.310,Lband
18,43,2023-01-12 10:32:00.248,Lband
18,42,2023-01-12 10:33:00.267,Lband
18,42,2023-01-12 10:34:00.283,Lband
18,42,2023-01-12 10:35:00.228,Lband
18,42,2023-01-12 10:36:00.243,Lband
18,42,2023-01-12 10:37:00.274,Lband
18,43,2023-01-12 10:38:00.306,Lband
18,42,2023-01-12 10:39:00.303,Lband
18,42,2023-01-12 10:40:00.255,Lband
18,42,2023-01-12 10:41:00.295,Lband
18,42,2023-01-12 10:42:00.305,Lband
18,42,2023-01-12 10:43:00.237,Lband
18,42,2023-01-12 10:44:00.280,Lband
18,42,2023-01-12 10:45:00.285,Lband
18,42,2023-01-12 10:46:00.326,Lband
18,42,2023-01-12 10:47:00.194,Lband
18,42,2023-01-12 10:48:00.315,Lband
18,42,2023-01-12 10:49:00.255,Lband
18,42,2023-01-12 10:50:00.168,Lband
18,42,2023-01-12 10:51:00.267,Lband
18,42,2023-01-12 10:52:00.272,Lband
18,42,2023-01-12 10:53:00.288,Lband
18,42,2023-01-12 10:54:00.312,Lband
18,42,2023-01-12 10:55:00.208,Lband
18,42,2023-01-12 10:56:00.260,Lband
18,42,2023-01-12 10:57:00.210,Lband
18,42,2023-01-12 10:58:00.315,Lband
18,42,2023-01-12 10:59:00.260,Lband
18,42,2023-01-12 11:00:00.221,Lband
18,42,2023-01-12 11:01:00.319,Lband
18,42,2023-01-12 11:02:00.263,Lband
18,42,2023-01-12 11:03:00.295,Lband
18,43,2023-01-12 11:04:00.450,Lband
18,42,2023-01-12 11:05:00.367,Lband
18,42,2023-01-12 11:06:00.391,Lband
18,42,2023-01-12 11:07:00.190,Lband
18,42,2023-01-12 11:08:00.236,Lband
18,42,2023-01-12 11:09:00.264,Lband
18,42,2023-01-12 11:10:00.249,Lband
18,42,2023-01-12 11:11:00.214,Lband
18,42,2023-01-12 11:12:00.266,Lband
18,42,2023-01-12 11:13:00.301,Lband
18,42,2023-01-12 11:14:00.311,Lband
18,42,2023-01-12 11:15:00.191,Lband
18,42,2023-01-12 11:16:00.253,Lband
18,42,2023-01-12 11:17:00.148,Lband
18,42,2023-01-12 11:18:00.323,Lband
18,42,2023-01-12 11:19:00.308,Lband
18,42,2023-01-12 11:20:00.308,Lband
18,42,2023-01-12 11:21:00.238,Lband
18,42,2023-01-12 11:22:00.224,Lband
18,42,2023-01-12 11:23:00.307,Lband
18,42,2023-01-12 11:24:00.218,Lband
18,42,2023-01-12 11:25:00.257,Lband
18,42,2023-01-12 11:26:00.316,Lband
18,42,2023-01-12 11:27:00.241,Lband
18,42,2023-01-12 11:28:00.239,Lband
18,42,2023-01-12 11:29:00.264,Lband
18,42,2023-01-12 11:30:00.311,Lband
18,42,2023-01-12 11:31:00.200,Lband
18,42,2023-01-12 11:32:00.239,Lband
18,42,2023-01-12 11:33:00.275,Lband
18,42,2023-01-12 11:34:00.293,Lband
18,42,2023-01-12 11:35:00.281,Lband
18,42,2023-01-12 11:36:00.182,Lband
18,42,2023-01-12 11:37:00.257,Lband
18,42,2023-01-12 11:38:00.191,Lband
18,42,2023-01-12 11:39:00.206,Lband
18,42,2023-01-12 11:40:00.271,Lband
18,42,2023-01-12 11:41:00.207,Lband
18,42,2023-01-12 11:42:00.243,Lband
18,42,2023-01-12 11:43:00.261,Lband
18,42,2023-01-12 11:44:00.249,Lband
18,42,2023-01-12 11:45:00.319,Lband
18,42,2023-01-12 11:46:00.266,Lband
18,42,2023-01-12 11:47:00.202,Lband
18,42,2023-01-12 11:48:00.195,Lband
18,42,2023-01-12 11:49:00.313,Lband
18,42,2023-01-12 11:50:00.252,Lband
18,42,2023-01-12 11:51:00.319,Lband
18,42,2023-01-12 11:52:00.195,Lband
18,42,2023-01-12 11:53:00.243,Lband
18,42,2023-01-12 11:54:00.312,Lband
18,42,2023-01-12 11:55:00.225,Lband
18,42,2023-01-12 11:56:00.228,Lband
18,42,2023-01-12 11:57:00.219,Lband
18,42,2023-01-12 11:58:00.309,Lband
18,42,2023-01-12 11:59:00.239,Lband
18,42,2023-01-12 12:00:00.265,Lband
18,42,2023-01-12 12:01:00.273,Lband
18,42,2023-01-12 12:02:00.266,Lband
18,42,2023-01-12 12:03:00.274,Lband
18,42,2023-01-12 12:04:00.196,Lband
18,42,2023-01-12 12:05:00.308,Lband
18,42,2023-01-12 12:06:00.305,Lband
18,42,2023-01-12 12:07:00.307,Lband
18,42,2023-01-12 12:08:00.262,Lband
18,42,2023-01-12 12:09:00.164,Lband
18,42,2023-01-12 12:10:00.264,Lband
18,42,2023-01-12 12:11:00.153,Lband
18,42,2023-01-12 12:12:00.272,Lband
18,42,2023-01-12 12:13:00.208,Lband
18,42,2023-01-12 12:14:00.234,Lband
18,42,2023-01-12 12:15:00.204,Lband
18,42,2023-01-12 12:16:00.215,Lband
18,42,2023-01-12 12:17:00.260,Lband
18,42,2023-01-12 12:18:00.291,Lband
18,42,2023-01-12 12:19:00.196,Lband
18,42,2023-01-12 12:20:00.316,Lband
18,42,2023-01-12 12:21:00.249,Lband
18,42,2023-01-12 12:22:00.279,Lband
18,42,2023-01-12 12:23:00.197,Lband
18,42,2023-01-12 12:24:00.309,Lband
18,42,2023-01-12 12:25:00.251,Lband
18,42,2023-01-12 12:26:00.247,Lband
18,42,2023-01-12 12:27:00.225,Lband
18,42,2023-01-12 12:28:00.279,Lband
18,42,2023-01-12 12:29:00.218,Lband
18,42,2023-01-12 12:30:00.312,Lband
18,42,2023-01-12 12:31:00.217,Lband
18,42,2023-01-12 12:32:00.177,Lband
18,42,2023-01-12 12:33:00.304,Lband
18,42,2023-01-12 12:34:00.225,Lband
18,42,2023-01-12 12:35:00.209,Lband
18,42,2023-01-12 12:36:00.254,Lband
18,42,2023-01-12 12:37:00.252,Lband
18,42,2023-01-12 12:38:00.245,Lband
18,42,2023-01-12 12:39:00.213,Lband
18,42,2023-01-12 12:40:00.231,Lband
18,42,2023-01-12 12:41:00.243,Lband
18,42,2023-01-12 12:42:00.263,Lband
18,42,2023-01-12 12:43:00.248,Lband
18,42,2023-01-12 12:44:00.240,Lband
18,42,2023-01-12 12:45:00.249,Lband
18,42,2023-01-12 12:46:00.308,Lband
18,42,2023-01-12 12:47:00.250,Lband
18,42,2023-01-12 12:48:00.258,Lband
18,42,2023-01-12 12:49:00.304,Lband
18,42,2023-01-12 12:50:00.270,Lband
18,42,2023-01-12 12:51:00.235,Lband
18,42,2023-01-12 12:52:00.308,Lband
18,42,2023-01-12 12:53:00.250,Lband
18,42,2023-01-12 12:54:00.215,Lband
18,42,2023-01-12 12:55:00.240,Lband
18,42,2023-01-12 12:56:00.255,Lband
18,42,2023-01-12 12:57:00.262,Lband
18,42,2023-01-12 12:58:00.255,Lband
18,42,2023-01-12 12:59:00.271,Lband
18,42,2023-01-12 13:00:00.296,Lband
18,42,2023-01-12 13:01:00.263,Lband
18,42,2023-01-12 13:02:00.259,Lband
18,42,2023-01-12 13:03:00.197,Lband
18,42,2023-01-12 13:04:00.303,Lband
18,42,2023-01-12 13:05:00.266,Lband
18,42,2023-01-12 13:06:00.308,Lband
18,42,2023-01-12 13:07:00.299,Lband
18,42,2023-01-12 13:08:00.343,Lband
18,42,2023-01-12 13:09:00.272,Lband
18,42,2023-01-12 13:10:00.240,Lband
18,42,2023-01-12 13:11:00.256,Lband
18,42,2023-01-12 13:12:00.313,Lband
18,42,2023-01-12 13:13:00.249,Lband
18,42,2023-01-12 13:14:00.209,Lband
18,42,2023-01-12 13:15:00.312,Lband
18,42,2023-01-12 13:16:00.247,Lband
18,42,2023-01-12 13:17:00.259,Lband
18,42,2023-01-12 13:18:00.264,Lband
18,42,2023-01-12 13:19:00.198,Lband
18,42,2023-01-12 13:20:00.419,Lband
18,42,2023-01-12 13:21:00.241,Lband
18,42,2023-01-12 13:22:00.219,Lband
18,42,2023-01-12 13:23:00.298,Lband
18,42,2023-01-12 13:24:00.257,Lband
18,42,2023-01-12 13:25:00.273,Lband
18,42,2023-01-12 13:26:00.245,Lband
18,42,2023-01-12 13:27:00.253,Lband
18,42,2023-01-12 13:28:00.259,Lband
18,42,2023-01-12 13:29:00.256,Lband
18,42,2023-01-12 13:30:00.282,Lband
18,42,2023-01-12 13:31:00.212,Lband
18,42,2023-01-12 13:32:00.261,Lband
18,42,2023-01-12 13:33:00.235,Lband
18,42,2023-01-12 13:34:00.248,Lband
18,42,2023-01-12 13:35:00.272,Lband
18,42,2023-01-12 13:36:00.292,Lband
18,42,2023-01-12 13:37:00.212,Lband
18,43,2023-01-12 13:38:00.307,Lband
18,42,2023-01-12 13:39:00.254,Lband
18,42,2023-01-12 13:40:00.235,Lband
18,43,2023-01-12 13:41:00.209,Lband
18,42,2023-01-12 13:42:00.274,Lband
18,42,2023-01-12 13:43:00.201,Lband
18,43,2023-01-12 13:44:00.303,Lband
18,43,2023-01-12 13:45:00.301,Lband
18,43,2023-01-12 13:46:00.259,Lband
18,43,2023-01-12 13:47:00.261,Lband
18,43,2023-01-12 13:48:00.221,Lband
18,43,2023-01-12 13:49:00.250,Lband
18,43,2023-01-12 13:50:00.235,Lband
18,42,2023-01-12 13:51:00.291,Lband
18,42,2023-01-12 13:52:00.354,Lband
18,42,2023-01-12 13:53:00.386,Lband
18,42,2023-01-12 13:54:00.309,Lband
18,42,2023-01-12 13:55:00.296,Lband
18,42,2023-01-12 13:56:00.181,Lband
18,42,2023-01-12 13:57:00.294,Lband
18,42,2023-01-12 13:58:00.153,Lband
18,42,2023-01-12 13:59:00.270,Lband
18,42,2023-01-12 14:00:00.320,Lband
18,42,2023-01-12 14:01:00.283,Lband
18,42,2023-01-12 14:02:00.220,Lband
18,42,2023-01-12 14:03:00.266,Lband
18,42,2023-01-12 14:04:00.284,Lband
18,42,2023-01-12 14:05:00.313,Lband
18,42,2023-01-12 14:06:00.302,Lband
18,42,2023-01-12 14:07:00.255,Lband
18,42,2023-01-12 14:08:00.271,Lband
18,42,2023-01-12 14:09:00.256,Lband
18,42,2023-01-12 14:10:00.276,Lband
18,42,2023-01-12 14:11:00.241,Lband
18,42,2023-01-12 14:12:00.245,Lband
18,42,2023-01-12 14:13:00.255,Lband
18,42,2023-01-12 14:14:00.278,Lband
18,42,2023-01-12 14:15:00.285,Lband
18,42,2023-01-12 14:16:00.254,Lband
18,42,2023-01-12 14:17:00.303,Lband
18,42,2023-01-12 14:18:00.222,Lband
18,42,2023-01-12 14:19:00.265,Lband
18,42,2023-01-12 14:20:00.309,Lband
18,42,2023-01-12 14:21:00.233,Lband
18,42,2023-01-12 14:22:00.356,Lband
18,42,2023-01-12 14:23:00.251,Lband
18,42,2023-01-12 14:24:00.229,Lband
18,42,2023-01-12 14:25:00.193,Lband
18,42,2023-01-12 14:26:00.243,Lband
18,42,2023-01-12 14:27:00.296,Lband
18,42,2023-01-12 14:28:00.189,Lband
18,42,2023-01-12 14:29:00.294,Lband
18,42,2023-01-12 14:30:00.320,Lband
18,43,2023-01-12 14:31:00.219,Lband
18,42,2023-01-12 14:32:00.195,Lband
18,43,2023-01-12 14:33:00.259,Lband
18,42,2023-01-12 14:34:00.255,Lband
18,42,2023-01-12 14:35:00.215,Lband
18,42,2023-01-12 14:36:00.281,Lband
18,42,2023-01-12 14:37:00.290,Lband
18,42,2023-01-12 14:38:00.252,Lband
18,42,2023-01-12 14:39:00.253,Lband
18,42,2023-01-12 14:40:00.256,Lband
18,42,2023-01-12 14:41:00.297,Lband
18,42,2023-01-12 14:42:00.298,Lband
18,42,2023-01-12 14:43:00.257,Lband
18,42,2023-01-12 14:44:00.271,Lband
18,42,2023-01-12 14:45:00.157,Lband
18,42,2023-01-12 14:46:00.229,Lband
18,42,2023-01-12 14:47:00.269,Lband
18,42,2023-01-12 14:48:00.255,Lband
18,42,2023-01-12 14:49:00.186,Lband
18,42,2023-01-12 14:50:00.301,Lband
18,42,2023-01-12 14:51:00.401,Lband
18,42,2023-01-12 14:52:00.315,Lband
18,42,2023-01-12 14:53:00.269,Lband
18,42,2023-01-12 14:54:00.256,Lband
18,42,2023-01-12 14:55:00.181,Lband
18,42,2023-01-12 14:56:00.288,Lband
18,42,2023-01-12 14:57:00.247,Lband
18,42,2023-01-12 14:58:00.248,Lband
18,42,2023-01-12 14:59:00.310,Lband
18,42,2023-01-12 15:00:00.302,Lband
18,42,2023-01-12 15:01:00.260,Lband
17,42,2023-01-12 15:02:00.363,Lband
18,42,2023-01-12 15:03:00.308,Lband
18,42,2023-01-12 15:04:00.218,Lband
18,42,2023-01-12 15:05:00.253,Lband
18,42,2023-01-12 15:06:00.309,Lband
18,42,2023-01-12 15:07:00.304,Lband
18,42,2023-01-12 15:08:00.241,Lband
18,41,2023-01-12 15:09:00.236,Lband
18,41,2023-01-12 15:10:00.205,Lband
18,41,2023-01-12 15:11:00.245,Lband
18,41,2023-01-12 15:12:00.246,Lband
18,41,2023-01-12 15:13:00.300,Lband
18,41,2023-01-12 15:14:00.202,Lband
18,41,2023-01-12 15:15:00.307,Lband
18,42,2023-01-12 15:16:00.191,Lband
18,42,2023-01-12 15:17:00.307,Lband
18,42,2023-01-12 15:18:00.245,Lband
18,42,2023-01-12 15:19:00.361,Lband
18,42,2023-01-12 15:20:00.399,Lband
18,42,2023-01-12 15:21:00.299,Lband
18,42,2023-01-12 15:22:00.231,Lband
18,42,2023-01-12 15:23:00.210,Lband
18,42,2023-01-12 15:24:00.238,Lband
18,42,2023-01-12 15:25:00.247,Lband
18,42,2023-01-12 15:26:00.272,Lband
18,42,2023-01-12 15:27:00.255,Lband
18,42,2023-01-12 15:28:00.216,Lband
18,42,2023-01-12 15:29:00.250,Lband
18,42,2023-01-12 15:30:00.279,Lband
18,42,2023-01-12 15:31:00.300,Lband
18,42,2023-01-12 15:32:00.210,Lband
18,42,2023-01-12 15:33:00.236,Lband
18,42,2023-01-12 15:34:00.265,Lband
18,42,2023-01-12 15:35:00.207,Lband
18,42,2023-01-12 15:36:00.260,Lband
18,42,2023-01-12 15:37:00.181,Lband
18,42,2023-01-12 15:38:00.335,Lband
18,42,2023-01-12 15:39:00.240,Lband
18,42,2023-01-12 15:40:00.257,Lband
18,42,2023-01-12 15:41:00.213,Lband
18,42,2023-01-12 15:42:00.257,Lband
17,42,2023-01-12 15:43:00.320,Lband
17,41,2023-01-12 15:44:00.189,Lband
17,41,2023-01-12 15:45:00.255,Lband
17,41,2023-01-12 15:46:00.309,Lband
17,41,2023-01-12 15:47:00.251,Lband
18,41,2023-01-12 15:48:00.241,Lband
18,41,2023-01-12 15:49:00.296,Lband
18,41,2023-01-12 15:50:00.283,Lband
18,41,2023-01-12 15:51:00.221,Lband
18,41,2023-01-12 15:52:00.256,Lband
18,41,2023-01-12 15:53:00.278,Lband
17,41,2023-01-12 15:54:00.249,Lband
18,42,2023-01-12 15:55:00.314,Lband
18,42,2023-01-12 15:56:00.306,Lband
18,42,2023-01-12 15:57:00.307,Lband
18,42,2023-01-12 15:58:00.306,Lband
18,41,2023-01-12 15:59:00.211,Lband
18,42,2023-01-12 16:00:00.262,Lband
18,42,2023-01-12 16:01:00.148,Lband
18,42,2023-01-12 16:02:00.246,Lband
18,42,2023-01-12 16:03:00.264,Lband
18,42,2023-01-12 16:04:00.276,Lband
18,42,2023-01-12 16:05:00.246,Lband
18,42,2023-01-12 16:06:00.280,Lband
18,42,2023-01-12 16:07:00.298,Lband
18,42,2023-01-12 16:08:00.213,Lband
17,42,2023-01-12 16:09:00.260,Lband
18,42,2023-01-12 16:10:00.237,Lband
18,42,2023-01-12 16:11:00.265,Lband
18,42,2023-01-12 16:12:00.199,Lband
18,42,2023-01-12 16:13:00.284,Lband
18,42,2023-01-12 16:14:00.221,Lband
18,42,2023-01-12 16:15:00.278,Lband
18,42,2023-01-12 16:16:00.313,Lband
18,42,2023-01-12 16:17:00.253,Lband
18,42,2023-01-12 16:18:00.282,Lband
18,42,2023-01-12 16:19:00.257,Lband
18,42,2023-01-12 16:20:00.275,Lband
18,42,2023-01-12 16:21:00.207,Lband
18,42,2023-01-12 16:22:00.265,Lband
18,42,2023-01-12 16:23:00.251,Lband
18,42,2023-01-12 16:24:00.286,Lband
18,42,2023-01-12 16:25:00.259,Lband
18,42,2023-01-12 16:26:00.293,Lband
18,42,2023-01-12 16:27:00.263,Lband
18,42,2023-01-12 16:28:00.192,Lband
17,42,2023-01-12 16:29:00.267,Lband
18,42,2023-01-12 16:30:00.193,Lband
18,42,2023-01-12 16:31:00.314,Lband
18,42,2023-01-12 16:32:00.315,Lband
18,42,2023-01-12 16:33:00.255,Lband
18,42,2023-01-12 16:34:00.225,Lband
18,42,2023-01-12 16:35:00.250,Lband
18,42,2023-01-12 16:36:00.304,Lband
18,42,2023-01-12 16:37:00.306,Lband
18,42,2023-01-12 16:38:00.180,Lband
18,42,2023-01-12 16:39:00.251,Lband
18,42,2023-01-12 16:40:00.263,Lband
18,42,2023-01-12 16:41:00.309,Lband
18,42,2023-01-12 16:42:00.270,Lband
18,41,2023-01-12 16:43:00.284,Lband
18,41,2023-01-12 16:44:00.257,Lband
18,41,2023-01-12 16:45:00.252,Lband
18,42,2023-01-12 16:46:00.238,Lband
18,42,2023-01-12 16:47:00.413,Lband
18,42,2023-01-12 16:48:00.210,Lband
18,42,2023-01-12 16:49:00.247,Lband
18,42,2023-01-12 16:50:00.238,Lband
18,42,2023-01-12 16:51:00.339,Lband
18,42,2023-01-12 16:52:00.250,Lband
18,42,2023-01-12 16:53:00.317,Lband
18,42,2023-01-12 16:54:00.260,Lband
18,42,2023-01-12 16:55:00.260,Lband
18,42,2023-01-12 16:56:00.289,Lband
18,42,2023-01-12 16:57:00.265,Lband
18,42,2023-01-12 16:58:00.304,Lband
18,42,2023-01-12 16:59:00.182,Lband
18,42,2023-01-12 17:00:00.251,Lband
18,42,2023-01-12 17:01:00.193,Lband
18,42,2023-01-12 17:02:00.281,Lband
18,42,2023-01-12 17:03:00.187,Lband
18,42,2023-01-12 17:04:00.237,Lband
18,42,2023-01-12 17:05:00.201,Lband
18,42,2023-01-12 17:06:00.309,Lband
18,42,2023-01-12 17:07:00.310,Lband
18,42,2023-01-12 17:08:00.239,Lband
18,42,2023-01-12 17:09:00.193,Lband
18,42,2023-01-12 17:10:00.261,Lband
18,42,2023-01-12 17:11:00.197,Lband
18,42,2023-01-12 17:12:00.286,Lband
18,42,2023-01-12 17:13:00.304,Lband
18,42,2023-01-12 17:14:00.248,Lband
18,42,2023-01-12 17:15:00.361,Lband
18,42,2023-01-12 17:16:00.309,Lband
18,42,2023-01-12 17:17:00.231,Lband
18,42,2023-01-12 17:18:00.314,Lband
18,42,2023-01-12 17:19:00.168,Lband
18,42,2023-01-12 17:20:00.176,Lband
18,42,2023-01-12 17:21:00.242,Lband
18,42,2023-01-12 17:22:00.311,Lband
18,42,2023-01-12 17:23:00.251,Lband
18,42,2023-01-12 17:24:00.290,Lband
18,42,2023-01-12 17:25:00.203,Lband
18,42,2023-01-12 17:26:00.351,Lband
18,42,2023-01-12 17:27:00.250,Lband
18,42,2023-01-12 17:28:00.241,Lband
18,42,2023-01-12 17:29:00.282,Lband
18,42,2023-01-12 17:30:00.300,Lband
18,42,2023-01-12 17:31:00.213,Lband
18,42,2023-01-12 17:32:00.258,Lband
18,42,2023-01-12 17:33:00.310,Lband
18,42,2023-01-12 17:34:00.203,Lband
18,42,2023-01-12 17:35:00.306,Lband
18,42,2023-01-12 17:36:00.215,Lband
18,42,2023-01-12 17:37:00.319,Lband
18,42,2023-01-12 17:38:00.201,Lband
18,42,2023-01-12 17:39:00.246,Lband
18,42,2023-01-12 17:40:00.257,Lband
18,42,2023-01-12 17:41:00.311,Lband
18,42,2023-01-12 17:42:00.301,Lband
18,42,2023-01-12 17:43:00.272,Lband
18,42,2023-01-12 17:44:00.331,Lband
18,42,2023-01-12 17:45:00.261,Lband
18,42,2023-01-12 17:46:00.302,Lband
18,42,2023-01-12 17:47:00.268,Lband
18,42,2023-01-12 17:48:00.255,Lband
18,42,2023-01-12 17:49:00.311,Lband
18,42,2023-01-12 17:50:00.243,Lband
18,42,2023-01-12 17:51:00.252,Lband
18,42,2023-01-12 17:52:00.288,Lband
18,42,2023-01-12 17:53:00.217,Lband
18,42,2023-01-12 17:54:00.300,Lband
18,42,2023-01-12 17:55:00.288,Lband
18,42,2023-01-12 17:56:00.205,Lband
18,42,2023-01-12 17:57:00.261,Lband
18,42,2023-01-12 17:58:00.294,Lband
18,42,2023-01-12 17:59:00.309,Lband
18,42,2023-01-12 18:00:00.202,Lband
18,42,2023-01-12 18:01:00.265,Lband
18,42,2023-01-12 18:02:00.229,Lband
18,42,2023-01-12 18:03:00.262,Lband
18,41,2023-01-12 18:04:00.311,Lband
18,42,2023-01-12 18:05:00.248,Lband
18,41,2023-01-12 18:06:00.318,Lband
18,41,2023-01-12 18:07:00.293,Lband
18,41,2023-01-12 18:08:00.312,Lband
18,41,2023-01-12 18:09:00.243,Lband
18,41,2023-01-12 18:10:00.312,Lband
18,41,2023-01-12 18:11:00.233,Lband
18,41,2023-01-12 18:12:00.205,Lband
18,41,2023-01-12 18:13:00.308,Lband
18,41,2023-01-12 18:14:00.274,Lband
18,41,2023-01-12 18:15:00.227,Lband
18,41,2023-01-12 18:16:00.310,Lband
18,41,2023-01-12 18:17:00.313,Lband
18,41,2023-01-12 18:18:00.229,Lband
18,41,2023-01-12 18:19:00.312,Lband
18,41,2023-01-12 18:20:00.247,Lband
18,41,2023-01-12 18:21:00.195,Lband
18,41,2023-01-12 18:22:00.239,Lband
18,41,2023-01-12 18:23:00.236,Lband
18,41,2023-01-12 18:24:00.237,Lband
18,41,2023-01-12 18:25:00.279,Lband
18,41,2023-01-12 18:26:00.245,Lband
18,41,2023-01-12 18:27:00.311,Lband
18,41,2023-01-12 18:28:00.229,Lband
18,41,2023-01-12 18:29:00.247,Lband
18,41,2023-01-12 18:30:00.320,Lband
18,41,2023-01-12 18:31:00.262,Lband
18,41,2023-01-12 18:32:00.309,Lband
18,41,2023-01-12 18:33:00.263,Lband
18,41,2023-01-12 18:34:00.310,Lband
18,41,2023-01-12 18:35:00.302,Lband
18,41,2023-01-12 18:36:00.187,Lband
18,41,2023-01-12 18:37:00.325,Lband
18,41,2023-01-12 18:38:00.245,Lband
18,41,2023-01-12 18:39:00.202,Lband
18,41,2023-01-12 18:40:00.382,Lband
18,41,2023-01-12 18:41:00.264,Lband
18,41,2023-01-12 18:42:00.286,Lband
18,41,2023-01-12 18:43:00.263,Lband
18,41,2023-01-12 18:44:00.195,Lband
18,41,2023-01-12 18:45:00.246,Lband
18,41,2023-01-12 18:46:00.228,Lband
18,41,2023-01-12 18:47:00.327,Lband
18,41,2023-01-12 18:48:00.289,Lband
18,41,2023-01-12 18:49:00.279,Lband
18,41,2023-01-12 18:50:00.261,Lband
18,41,2023-01-12 18:51:00.238,Lband
18,41,2023-01-12 18:52:00.312,Lband
18,41,2023-01-12 18:53:00.242,Lband
18,41,2023-01-12 18:54:00.254,Lband
18,41,2023-01-12 18:55:00.242,Lband
18,42,2023-01-12 18:56:00.261,Lband
18,41,2023-01-12 18:57:00.320,Lband
18,41,2023-01-12 18:58:00.259,Lband
18,41,2023-01-12 18:59:00.225,Lband
17,41,2023-01-12 19:00:00.251,Lband
18,41,2023-01-12 19:01:00.274,Lband
18,41,2023-01-12 19:02:00.206,Lband
18,41,2023-01-12 19:03:00.247,Lband
18,42,2023-01-12 19:04:00.197,Lband
18,42,2023-01-12 19:05:00.307,Lband
18,41,2023-01-12 19:06:00.339,Lband
18,41,2023-01-12 19:07:00.259,Lband
18,42,2023-01-12 19:08:00.298,Lband
18,42,2023-01-12 19:09:00.311,Lband
18,42,2023-01-12 19:10:00.198,Lband
18,42,2023-01-12 19:11:00.311,Lband
18,42,2023-01-12 19:12:00.281,Lband
18,42,2023-01-12 19:13:00.188,Lband
18,42,2023-01-12 19:14:00.255,Lband
18,42,2023-01-12 19:15:00.247,Lband
18,42,2023-01-12 19:16:00.308,Lband
18,42,2023-01-12 19:17:00.223,Lband
18,42,2023-01-12 19:18:00.302,Lband
18,42,2023-01-12 19:19:00.235,Lband
18,42,2023-01-12 19:20:00.251,Lband
18,42,2023-01-12 19:21:00.269,Lband
18,42,2023-01-12 19:22:00.303,Lband
18,42,2023-01-12 19:23:00.222,Lband
18,42,2023-01-12 19:24:00.251,Lband
18,42,2023-01-12 19:25:00.242,Lband
18,42,2023-01-12 19:26:00.177,Lband
18,42,2023-01-12 19:27:00.308,Lband
17,42,2023-01-12 19:28:00.304,Lband
18,42,2023-01-12 19:29:00.315,Lband
18,42,2023-01-12 19:30:00.279,Lband
18,42,2023-01-12 19:31:00.262,Lband
18,42,2023-01-12 19:32:00.267,Lband
18,42,2023-01-12 19:33:00.266,Lband
18,42,2023-01-12 19:34:00.351,Lband
18,42,2023-01-12 19:35:00.220,Lband
18,42,2023-01-12 19:36:00.205,Lband
18,42,2023-01-12 19:37:00.260,Lband
18,42,2023-01-12 19:38:00.201,Lband
18,42,2023-01-12 19:39:00.316,Lband
18,42,2023-01-12 19:40:00.248,Lband
18,42,2023-01-12 19:41:00.205,Lband
18,42,2023-01-12 19:42:00.303,Lband
18,42,2023-01-12 19:43:00.257,Lband
18,42,2023-01-12 19:44:00.303,Lband
18,42,2023-01-12 19:45:00.270,Lband
18,42,2023-01-12 19:46:00.212,Lband
18,42,2023-01-12 19:47:00.250,Lband
18,42,2023-01-12 19:48:00.239,Lband
18,42,2023-01-12 19:49:00.265,Lband
18,42,2023-01-12 19:50:00.162,Lband
18,42,2023-01-12 19:51:00.256,Lband
18,42,2023-01-12 19:52:00.302,Lband
18,42,2023-01-12 19:53:00.241,Lband
18,42,2023-01-12 19:54:00.257,Lband
18,42,2023-01-12 19:55:00.250,Lband
18,42,2023-01-12 19:56:00.205,Lband
18,42,2023-01-12 19:57:00.313,Lband
18,42,2023-01-12 19:58:00.193,Lband
18,42,2023-01-12 19:59:00.274,Lband
18,42,2023-01-12 20:00:00.308,Lband
18,42,2023-01-12 20:01:00.262,Lband
18,42,2023-01-12 20:02:00.292,Lband
18,42,2023-01-12 20:03:00.257,Lband
18,42,2023-01-12 20:04:00.239,Lband
18,42,2023-01-12 20:05:00.309,Lband
18,42,2023-01-12 20:06:00.199,Lband
18,42,2023-01-12 20:07:00.265,Lband
18,42,2023-01-12 20:08:00.257,Lband
18,42,2023-01-12 20:09:00.291,Lband
18,42,2023-01-12 20:10:00.254,Lband
18,42,2023-01-12 20:11:00.239,Lband
18,42,2023-01-12 20:12:00.291,Lband
18,42,2023-01-12 20:13:00.309,Lband
18,42,2023-01-12 20:14:00.253,Lband
18,42,2023-01-12 20:15:00.198,Lband
18,42,2023-01-12 20:16:00.295,Lband
18,42,2023-01-12 20:17:00.241,Lband
18,42,2023-01-12 20:18:00.193,Lband
18,42,2023-01-12 20:19:00.254,Lband
17,42,2023-01-12 20:20:00.210,Lband
18,42,2023-01-12 20:21:00.234,Lband
18,42,2023-01-12 20:22:00.268,Lband
17,42,2023-01-12 20:23:00.298,Lband
18,42,2023-01-12 20:24:00.275,Lband
18,42,2023-01-12 20:25:00.200,Lband
18,42,2023-01-12 20:26:00.299,Lband
18,42,2023-01-12 20:27:00.317,Lband
18,42,2023-01-12 20:28:00.263,Lband
18,42,2023-01-12 20:29:00.265,Lband
18,42,2023-01-12 20:30:00.256,Lband
18,42,2023-01-12 20:31:00.303,Lband
18,42,2023-01-12 20:32:00.256,Lband
18,42,2023-01-12 20:33:00.303,Lband
18,42,2023-01-12 20:34:00.145,Lband
18,42,2023-01-12 20:35:00.258,Lband
18,42,2023-01-12 20:36:00.257,Lband
18,42,2023-01-12 20:37:00.246,Lband
18,42,2023-01-12 20:38:00.304,Lband
18,42,2023-01-12 20:39:00.246,Lband
18,42,2023-01-12 20:40:00.249,Lband
18,42,2023-01-12 20:41:00.212,Lband
17,42,2023-01-12 20:42:00.181,Lband
17,42,2023-01-12 20:43:00.238,Lband
18,42,2023-01-12 20:44:00.261,Lband
18,42,2023-01-12 20:45:00.217,Lband
18,42,2023-01-12 20:46:00.147,Lband
18,42,2023-01-12 20:47:00.189,Lband
18,42,2023-01-12 20:48:00.298,Lband
18,42,2023-01-12 20:49:00.316,Lband
18,42,2023-01-12 20:50:00.296,Lband
17,42,2023-01-12 20:51:00.271,Lband
17,42,2023-01-12 20:52:00.245,Lband
18,42,2023-01-12 20:53:00.261,Lband
18,42,2023-01-12 20:54:00.280,Lband
17,42,2023-01-12 20:55:00.267,Lband
17,42,2023-01-12 20:56:00.248,Lband
18,42,2023-01-12 20:57:00.251,Lband
17,42,2023-01-12 20:58:00.190,Lband
18,42,2023-01-12 20:59:00.294,Lband
18,42,2023-01-12 21:00:00.214,Lband
18,42,2023-01-12 21:01:00.254,Lband
18,42,2023-01-12 21:02:00.262,Lband
17,42,2023-01-12 21:03:00.235,Lband
17,42,2023-01-12 21:04:00.263,Lband
18,42,2023-01-12 21:05:00.313,Lband
18,42,2023-01-12 21:06:00.306,Lband
17,42,2023-01-12 21:07:00.247,Lband
18,42,2023-01-12 21:08:00.294,Lband
17,42,2023-01-12 21:09:00.271,Lband
17,42,2023-01-12 21:10:00.266,Lband
18,42,2023-01-12 21:11:00.257,Lband
17,42,2023-01-12 21:12:00.229,Lband
18,42,2023-01-12 21:13:00.188,Lband
18,42,2023-01-12 21:14:00.314,Lband
18,42,2023-01-12 21:15:00.227,Lband
18,41,2023-01-12 21:16:00.224,Lband
18,41,2023-01-12 21:17:00.313,Lband
17,41,2023-01-12 21:18:00.222,Lband
17,42,2023-01-12 21:19:00.243,Lband
18,42,2023-01-12 21:20:00.265,Lband
17,41,2023-01-12 21:21:00.306,Lband
17,41,2023-01-12 21:22:00.236,Lband
18,41,2023-01-12 21:23:00.201,Lband
18,41,2023-01-12 21:24:00.213,Lband
17,41,2023-01-12 21:25:00.315,Lband
17,41,2023-01-12 21:26:00.301,Lband
17,41,2023-01-12 21:27:00.257,Lband
18,41,2023-01-12 21:28:00.300,Lband
18,41,2023-01-12 21:29:00.294,Lband
17,41,2023-01-12 21:30:00.185,Lband
17,41,2023-01-12 21:31:00.148,Lband
17,41,2023-01-12 21:32:00.257,Lband
17,41,2023-01-12 21:33:00.259,Lband
17,41,2023-01-12 21:34:00.260,Lband
18,41,2023-01-12 21:35:00.239,Lband
17,41,2023-01-12 21:36:00.207,Lband
17,41,2023-01-12 21:37:00.261,Lband
17,41,2023-01-12 21:38:00.200,Lband
17,41,2023-01-12 21:39:00.261,Lband
17,41,2023-01-12 21:40:00.319,Lband
17,41,2023-01-12 21:41:00.295,Lband
17,41,2023-01-12 21:42:00.201,Lband
17,41,2023-01-12 21:43:00.246,Lband
18,41,2023-01-12 21:44:00.263,Lband
17,41,2023-01-12 21:45:00.277,Lband
17,41,2023-01-12 21:46:00.210,Lband
17,41,2023-01-12 21:47:00.255,Lband
17,41,2023-01-12 21:48:00.309,Lband
17,41,2023-01-12 21:49:00.229,Lband
17,41,2023-01-12 21:50:00.308,Lband
17,41,2023-01-12 21:51:00.309,Lband
17,41,2023-01-12 21:52:00.306,Lband
17,41,2023-01-12 21:53:00.313,Lband
17,41,2023-01-12 21:54:00.304,Lband
17,41,2023-01-12 21:55:00.273,Lband
17,41,2023-01-12 21:56:00.265,Lband
17,41,2023-01-12 21:57:00.305,Lband
17,41,2023-01-12 21:58:00.251,Lband
17,41,2023-01-12 21:59:00.261,Lband
17,41,2023-01-12 22:00:00.363,Lband
17,41,2023-01-12 22:01:00.316,Lband
17,41,2023-01-12 22:02:00.228,Lband
17,41,2023-01-12 22:03:00.357,Lband
17,41,2023-01-12 22:04:00.309,Lband
17,41,2023-01-12 22:05:00.239,Lband
17,41,2023-01-12 22:06:00.275,Lband
17,41,2023-01-12 22:07:00.235,Lband
17,41,2023-01-12 22:08:00.172,Lband
17,41,2023-01-12 22:09:00.251,Lband
17,41,2023-01-12 22:10:00.222,Lband
17,41,2023-01-12 22:11:00.295,Lband
17,41,2023-01-12 22:12:00.225,Lband
17,41,2023-01-12 22:13:00.220,Lband
17,41,2023-01-12 22:14:00.221,Lband
17,41,2023-01-12 22:15:00.285,Lband
17,41,2023-01-12 22:16:00.350,Lband
17,41,2023-01-12 22:17:00.272,Lband
17,41,2023-01-12 22:18:00.257,Lband
17,41,2023-01-12 22:19:00.259,Lband
17,41,2023-01-12 22:20:00.256,Lband
17,41,2023-01-12 22:21:00.196,Lband
17,41,2023-01-12 22:22:00.326,Lband
17,41,2023-01-12 22:23:00.302,Lband
17,41,2023-01-12 22:24:00.267,Lband
17,41,2023-01-12 22:25:00.266,Lband
17,41,2023-01-12 22:26:00.260,Lband
17,41,2023-01-12 22:27:00.254,Lband
17,41,2023-01-12 22:28:00.249,Lband
17,41,2023-01-12 22:29:00.262,Lband
17,41,2023-01-12 22:30:00.258,Lband
17,41,2023-01-12 22:31:00.299,Lband
17,41,2023-01-12 22:32:00.296,Lband
17,41,2023-01-12 22:33:00.272,Lband
17,41,2023-01-12 22:34:00.297,Lband
17,41,2023-01-12 22:35:00.258,Lband
17,41,2023-01-12 22:36:00.254,Lband
17,41,2023-01-12 22:37:00.250,Lband
17,41,2023-01-12 22:38:00.300,Lband
17,41,2023-01-12 22:39:00.255,Lband
17,41,2023-01-12 22:40:00.224,Lband
17,41,2023-01-12 22:41:00.264,Lband
17,41,2023-01-12 22:42:00.305,Lband
17,41,2023-01-12 22:43:00.195,Lband
17,41,2023-01-12 22:44:00.262,Lband
17,41,2023-01-12 22:45:00.292,Lband
17,41,2023-01-12 22:46:00.253,Lband
17,41,2023-01-12 22:47:00.209,Lband
17,41,2023-01-12 22:48:00.184,Lband
17,41,2023-01-12 22:49:00.234,Lband
17,41,2023-01-12 22:50:00.222,Lband
17,41,2023-01-12 22:51:00.266,Lband
17,41,2023-01-12 22:52:00.259,Lband
17,41,2023-01-12 22:53:00.258,Lband
17,41,2023-01-12 22:54:00.224,Lband
17,41,2023-01-12 22:55:00.263,Lband
17,41,2023-01-12 22:56:00.301,Lband
17,41,2023-01-12 22:57:00.379,Lband
17,41,2023-01-12 22:58:00.266,Lband
17,41,2023-01-12 22:59:00.240,Lband
17,41,2023-01-12 23:00:00.262,Lband
17,41,2023-01-12 23:01:00.303,Lband
17,41,2023-01-12 23:02:00.301,Lband
17,41,2023-01-12 23:03:00.293,Lband
17,41,2023-01-12 23:04:00.259,Lband
17,41,2023-01-12 23:05:00.260,Lband
17,41,2023-01-12 23:06:00.265,Lband
17,41,2023-01-12 23:07:00.270,Lband
17,41,2023-01-12 23:08:00.266,Lband
17,41,2023-01-12 23:09:00.306,Lband
17,41,2023-01-12 23:10:00.172,Lband
17,41,2023-01-12 23:11:00.252,Lband
17,41,2023-01-12 23:12:00.258,Lband
17,41,2023-01-12 23:13:00.306,Lband
17,41,2023-01-12 23:14:00.324,Lband
17,41,2023-01-12 23:15:00.245,Lband
17,41,2023-01-12 23:16:00.256,Lband
17,41,2023-01-12 23:17:00.195,Lband
17,41,2023-01-12 23:18:00.249,Lband
17,41,2023-01-12 23:19:00.305,Lband
17,41,2023-01-12 23:20:00.274,Lband
17,41,2023-01-12 23:21:00.214,Lband
17,41,2023-01-12 23:22:00.207,Lband
17,41,2023-01-12 23:23:00.236,Lband
17,41,2023-01-12 23:24:00.227,Lband
17,41,2023-01-12 23:25:00.313,Lband
17,41,2023-01-12 23:26:00.267,Lband
17,41,2023-01-12 23:27:00.231,Lband
17,41,2023-01-12 23:28:00.316,Lband
17,41,2023-01-12 23:29:00.280,Lband
17,41,2023-01-12 23:30:00.277,Lband
17,41,2023-01-12 23:31:00.304,Lband
17,41,2023-01-12 23:32:00.201,Lband
17,41,2023-01-12 23:33:00.224,Lband
17,41,2023-01-12 23:34:00.313,Lband
17,41,2023-01-12 23:35:00.307,Lband
17,41,2023-01-12 23:36:00.294,Lband
17,41,2023-01-12 23:37:00.264,Lband
17,41,2023-01-12 23:38:00.252,Lband
17,41,2023-01-12 23:39:00.214,Lband
17,41,2023-01-12 23:40:00.316,Lband
17,41,2023-01-12 23:41:00.214,Lband
17,41,2023-01-12 23:42:00.242,Lband
17,41,2023-01-12 23:43:00.268,Lband
17,41,2023-01-12 23:44:00.255,Lband
17,41,2023-01-12 23:45:00.315,Lband
17,41,2023-01-12 23:46:00.233,Lband
17,41,2023-01-12 23:47:00.314,Lband
17,41,2023-01-12 23:48:00.302,Lband
17,41,2023-01-12 23:49:00.294,Lband
17,41,2023-01-12 23:50:00.286,Lband
17,41,2023-01-12 23:51:00.303,Lband
17,41,2023-01-12 23:52:00.239,Lband
17,41,2023-01-12 23:53:00.345,Lband
17,41,2023-01-12 23:54:00.305,Lband
17,41,2023-01-12 23:55:00.197,Lband
17,41,2023-01-12 23:56:00.307,Lband
17,41,2023-01-12 23:57:00.246,Lband
17,41,2023-01-12 23:58:00.257,Lband
17,41,2023-01-12 23:59:00.238,Lband
