T15,T70,date,sensorName
17,41,2023-01-13 00:00:00.267,Lband
17,41,2023-01-13 00:01:00.287,Lband
17,41,2023-01-13 00:02:00.300,Lband
17,41,2023-01-13 00:03:00.259,Lband
17,41,2023-01-13 00:04:00.293,Lband
17,41,2023-01-13 00:05:00.271,Lband
17,41,2023-01-13 00:06:00.252,Lband
17,41,2023-01-13 00:07:00.314,Lband
17,41,2023-01-13 00:08:00.250,Lband
17,41,2023-01-13 00:09:00.254,Lband
17,41,2023-01-13 00:10:00.196,Lband
17,41,2023-01-13 00:11:00.203,Lband
17,41,2023-01-13 00:12:00.306,Lband
17,41,2023-01-13 00:13:00.300,Lband
17,41,2023-01-13 00:14:00.202,Lband
17,41,2023-01-13 00:15:00.304,Lband
17,41,2023-01-13 00:16:00.268,Lband
17,41,2023-01-13 00:17:00.261,Lband
17,41,2023-01-13 00:18:00.239,Lband
17,41,2023-01-13 00:19:00.327,Lband
17,41,2023-01-13 00:20:00.202,Lband
17,41,2023-01-13 00:21:00.341,Lband
17,41,2023-01-13 00:22:00.306,Lband
17,41,2023-01-13 00:23:00.372,Lband
17,41,2023-01-13 00:24:00.293,Lband
17,41,2023-01-13 00:25:00.232,Lband
17,41,2023-01-13 00:26:00.273,Lband
17,41,2023-01-13 00:27:00.226,Lband
17,41,2023-01-13 00:28:00.261,Lband
17,41,2023-01-13 00:29:00.218,Lband
17,41,2023-01-13 00:30:00.256,Lband
17,41,2023-01-13 00:31:00.201,Lband
17,41,2023-01-13 00:32:00.243,Lband
17,41,2023-01-13 00:33:00.282,Lband
17,41,2023-01-13 00:34:00.290,Lband
17,41,2023-01-13 00:35:00.309,Lband
17,41,2023-01-13 00:36:00.206,Lband
17,41,2023-01-13 00:37:00.260,Lband
17,41,2023-01-13 00:38:00.253,Lband
17,41,2023-01-13 00:39:00.268,Lband
17,41,2023-01-13 00:40:00.321,Lband
17,41,2023-01-13 00:41:00.290,Lband
17,41,2023-01-13 00:42:00.197,Lband
17,41,2023-01-13 00:43:00.255,Lband
17,41,2023-01-13 00:44:00.259,Lband
17,41,2023-01-13 00:45:00.251,Lband
17,41,2023-01-13 00:46:00.256,Lband
17,41,2023-01-13 00:47:00.315,Lband
17,41,2023-01-13 00:48:00.208,Lband
17,41,2023-01-13 00:49:00.246,Lband
17,41,2023-01-13 00:50:00.260,Lband
17,41,2023-01-13 00:51:00.311,Lband
17,41,2023-01-13 00:52:00.226,Lband
17,41,2023-01-13 00:53:00.186,Lband
17,41,2023-01-13 00:54:00.299,Lband
17,41,2023-01-13 00:55:00.266,Lband
17,41,2023-01-13 00:56:00.260,Lband
17,41,2023-01-13 00:57:00.206,Lband
17,41,2023-01-13 00:58:00.234,Lband
17,41,2023-01-13 00:59:00.312,Lband
17,41,2023-01-13 01:00:00.247,Lband
17,41,2023-01-13 01:01:00.156,Lband
17,41,2023-01-13 01:02:00.301,Lband
17,41,2023-01-13 01:03:00.248,Lband
17,40,2023-01-13 01:04:00.294,Lband
17,41,2023-01-13 01:05:00.191,Lband
17,41,2023-01-13 01:06:00.254,Lband
17,41,2023-01-13 01:07:00.361,Lband
17,41,2023-01-13 01:08:00.259,Lband
17,41,2023-01-13 01:09:00.325,Lband
17,41,2023-01-13 01:10:00.315,Lband
17,41,2023-01-13 01:11:00.214,Lband
17,41,2023-01-13 01:12:00.249,Lband
17,41,2023-01-13 01:13:00.291,Lband
17,41,2023-01-13 01:14:00.253,Lband
17,41,2023-01-13 01:15:00.300,Lband
17,41,2023-01-13 01:16:00.242,Lband
17,41,2023-01-13 01:17:00.215,Lband
17,41,2023-01-13 01:18:00.243,Lband
17,41,2023-01-13 01:19:00.308,Lband
17,42,2023-01-13 01:20:00.244,Lband
17,42,2023-01-13 01:21:00.266,Lband
17,42,2023-01-13 01:22:00.260,Lband
17,42,2023-01-13 01:23:00.248,Lband
17,42,2023-01-13 01:24:00.256,Lband
17,42,2023-01-13 01:25:00.261,Lband
17,42,2023-01-13 01:26:00.246,Lband
17,42,2023-01-13 01:27:00.206,Lband
17,42,2023-01-13 01:28:00.217,Lband
17,42,2023-01-13 01:29:00.236,Lband
17,42,2023-01-13 01:30:00.238,Lband
17,42,2023-01-13 01:31:00.262,Lband
17,42,2023-01-13 01:32:00.302,Lband
17,42,2023-01-13 01:33:00.266,Lband
17,42,2023-01-13 01:34:00.329,Lband
17,42,2023-01-13 01:35:00.277,Lband
17,42,2023-01-13 01:36:00.260,Lband
17,42,2023-01-13 01:37:00.247,Lband
17,42,2023-01-13 01:38:00.270,Lband
17,42,2023-01-13 01:39:00.298,Lband
17,41,2023-01-13 01:40:00.237,Lband
17,41,2023-01-13 01:41:00.274,Lband
17,41,2023-01-13 01:42:00.223,Lband
17,41,2023-01-13 01:43:00.256,Lband
16,41,2023-01-13 01:44:00.221,Lband
17,41,2023-01-13 01:45:00.213,Lband
17,41,2023-01-13 01:46:00.305,Lband
17,41,2023-01-13 01:47:00.190,Lband
17,41,2023-01-13 01:48:00.198,Lband
17,41,2023-01-13 01:49:00.198,Lband
17,41,2023-01-13 01:50:00.208,Lband
16,41,2023-01-13 01:51:00.212,Lband
17,41,2023-01-13 01:52:00.221,Lband
16,41,2023-01-13 01:53:00.189,Lband
16,41,2023-01-13 01:54:00.280,Lband
16,41,2023-01-13 01:55:00.194,Lband
17,41,2023-01-13 01:56:00.286,Lband
16,41,2023-01-13 01:57:00.268,Lband
16,41,2023-01-13 01:58:00.237,Lband
17,41,2023-01-13 01:59:00.294,Lband
16,41,2023-01-13 02:00:00.284,Lband
17,41,2023-01-13 02:01:00.315,Lband
17,41,2023-01-13 02:02:00.302,Lband
17,41,2023-01-13 02:03:00.284,Lband
16,41,2023-01-13 02:04:00.257,Lband
16,41,2023-01-13 02:05:00.293,Lband
16,41,2023-01-13 02:06:00.247,Lband
16,41,2023-01-13 02:07:00.249,Lband
17,41,2023-01-13 02:08:00.255,Lband
16,41,2023-01-13 02:09:00.191,Lband
17,41,2023-01-13 02:10:00.262,Lband
17,41,2023-01-13 02:11:00.249,Lband
17,41,2023-01-13 02:12:00.166,Lband
17,41,2023-01-13 02:13:00.252,Lband
16,41,2023-01-13 02:14:00.226,Lband
16,41,2023-01-13 02:15:00.253,Lband
17,41,2023-01-13 02:16:00.251,Lband
17,41,2023-01-13 02:17:00.246,Lband
16,41,2023-01-13 02:18:00.269,Lband
16,41,2023-01-13 02:19:00.197,Lband
17,41,2023-01-13 02:20:00.194,Lband
17,41,2023-01-13 02:21:00.310,Lband
17,40,2023-01-13 02:22:00.261,Lband
17,41,2023-01-13 02:23:00.208,Lband
17,41,2023-01-13 02:24:00.208,Lband
17,41,2023-01-13 02:25:00.252,Lband
17,41,2023-01-13 02:26:00.271,Lband
16,41,2023-01-13 02:27:00.302,Lband
17,41,2023-01-13 02:28:00.260,Lband
16,41,2023-01-13 02:29:00.208,Lband
16,41,2023-01-13 02:30:00.282,Lband
16,41,2023-01-13 02:31:00.260,Lband
16,41,2023-01-13 02:32:00.193,Lband
17,41,2023-01-13 02:33:00.255,Lband
17,41,2023-01-13 02:34:00.184,Lband
17,40,2023-01-13 02:35:00.266,Lband
16,41,2023-01-13 02:36:00.260,Lband
17,40,2023-01-13 02:37:00.267,Lband
17,41,2023-01-13 02:38:00.198,Lband
17,41,2023-01-13 02:39:00.314,Lband
16,41,2023-01-13 02:40:00.193,Lband
16,41,2023-01-13 02:41:00.302,Lband
16,40,2023-01-13 02:42:00.258,Lband
17,40,2023-01-13 02:43:00.402,Lband
17,40,2023-01-13 02:44:00.257,Lband
17,40,2023-01-13 02:45:00.277,Lband
17,41,2023-01-13 02:46:00.201,Lband
17,40,2023-01-13 02:47:00.223,Lband
17,40,2023-01-13 02:48:00.191,Lband
17,40,2023-01-13 02:49:00.304,Lband
16,40,2023-01-13 02:50:00.294,Lband
16,41,2023-01-13 02:51:00.305,Lband
16,41,2023-01-13 02:52:00.233,Lband
17,41,2023-01-13 02:53:00.317,Lband
17,41,2023-01-13 02:54:00.304,Lband
16,41,2023-01-13 02:55:00.324,Lband
16,40,2023-01-13 02:56:00.245,Lband
16,40,2023-01-13 02:57:00.255,Lband
16,40,2023-01-13 02:58:00.275,Lband
16,41,2023-01-13 02:59:00.240,Lband
17,40,2023-01-13 03:00:00.225,Lband
17,40,2023-01-13 03:01:00.212,Lband
17,41,2023-01-13 03:02:00.189,Lband
17,41,2023-01-13 03:03:00.204,Lband
16,41,2023-01-13 03:04:00.246,Lband
16,41,2023-01-13 03:05:00.260,Lband
16,41,2023-01-13 03:06:00.237,Lband
17,41,2023-01-13 03:07:00.307,Lband
17,41,2023-01-13 03:08:00.257,Lband
16,41,2023-01-13 03:09:00.249,Lband
17,41,2023-01-13 03:10:00.313,Lband
16,41,2023-01-13 03:11:00.232,Lband
16,41,2023-01-13 03:12:00.265,Lband
17,40,2023-01-13 03:13:00.253,Lband
17,41,2023-01-13 03:14:00.248,Lband
17,41,2023-01-13 03:15:00.273,Lband
17,40,2023-01-13 03:16:00.210,Lband
17,40,2023-01-13 03:17:00.317,Lband
16,41,2023-01-13 03:18:00.215,Lband
17,41,2023-01-13 03:19:00.265,Lband
17,40,2023-01-13 03:20:00.239,Lband
17,40,2023-01-13 03:21:00.268,Lband
17,40,2023-01-13 03:22:00.234,Lband
17,41,2023-01-13 03:23:00.194,Lband
16,40,2023-01-13 03:24:00.191,Lband
16,40,2023-01-13 03:25:00.194,Lband
17,41,2023-01-13 03:26:00.262,Lband
17,40,2023-01-13 03:27:00.199,Lband
17,40,2023-01-13 03:28:00.301,Lband
17,40,2023-01-13 03:29:00.234,Lband
17,40,2023-01-13 03:30:00.245,Lband
17,41,2023-01-13 03:31:00.266,Lband
17,40,2023-01-13 03:32:00.276,Lband
17,40,2023-01-13 03:33:00.310,Lband
17,40,2023-01-13 03:34:00.248,Lband
17,40,2023-01-13 03:35:00.245,Lband
17,40,2023-01-13 03:36:00.236,Lband
17,40,2023-01-13 03:37:00.254,Lband
17,40,2023-01-13 03:38:00.257,Lband
16,40,2023-01-13 03:39:00.235,Lband
17,40,2023-01-13 03:40:00.263,Lband
17,40,2023-01-13 03:41:00.310,Lband
17,40,2023-01-13 03:42:00.304,Lband
17,40,2023-01-13 03:43:00.249,Lband
17,40,2023-01-13 03:44:00.249,Lband
17,40,2023-01-13 03:45:00.243,Lband
17,40,2023-01-13 03:46:00.257,Lband
17,40,2023-01-13 03:47:00.250,Lband
16,40,2023-01-13 03:48:00.306,Lband
16,40,2023-01-13 03:49:00.262,Lband
17,40,2023-01-13 03:50:00.375,Lband
17,40,2023-01-13 03:51:00.254,Lband
16,40,2023-01-13 03:52:00.200,Lband
16,40,2023-01-13 03:53:00.266,Lband
17,40,2023-01-13 03:54:00.379,Lband
17,40,2023-01-13 03:55:00.254,Lband
17,40,2023-01-13 03:56:00.255,Lband
17,40,2023-01-13 03:57:00.305,Lband
17,40,2023-01-13 03:58:00.283,Lband
17,40,2023-01-13 03:59:00.367,Lband
17,40,2023-01-13 04:00:00.259,Lband
17,40,2023-01-13 04:01:00.209,Lband
17,40,2023-01-13 04:02:00.219,Lband
17,40,2023-01-13 04:03:00.250,Lband
16,41,2023-01-13 04:04:00.306,Lband
17,41,2023-01-13 04:05:00.303,Lband
17,40,2023-01-13 04:06:00.269,Lband
17,40,2023-01-13 04:07:00.333,Lband
17,40,2023-01-13 04:08:00.217,Lband
16,40,2023-01-13 04:09:00.300,Lband
17,40,2023-01-13 04:10:00.236,Lband
17,40,2023-01-13 04:11:00.362,Lband
17,40,2023-01-13 04:12:00.247,Lband
17,40,2023-01-13 04:13:00.219,Lband
17,40,2023-01-13 04:14:00.254,Lband
17,40,2023-01-13 04:15:00.258,Lband
17,40,2023-01-13 04:16:00.245,Lband
16,40,2023-01-13 04:17:00.232,Lband
16,40,2023-01-13 04:18:00.256,Lband
17,40,2023-01-13 04:19:00.360,Lband
17,40,2023-01-13 04:20:00.192,Lband
17,40,2023-01-13 04:21:00.246,Lband
17,40,2023-01-13 04:22:00.255,Lband
16,40,2023-01-13 04:23:00.276,Lband
16,40,2023-01-13 04:24:00.350,Lband
17,40,2023-01-13 04:25:00.185,Lband
17,40,2023-01-13 04:26:00.257,Lband
17,40,2023-01-13 04:27:00.253,Lband
17,40,2023-01-13 04:28:00.357,Lband
16,40,2023-01-13 04:29:00.249,Lband
16,40,2023-01-13 04:30:00.248,Lband
16,40,2023-01-13 04:31:00.334,Lband
16,40,2023-01-13 04:32:00.195,Lband
16,40,2023-01-13 04:33:00.364,Lband
16,40,2023-01-13 04:34:00.187,Lband
16,40,2023-01-13 04:35:00.262,Lband
17,40,2023-01-13 04:36:00.203,Lband
17,40,2023-01-13 04:37:00.241,Lband
16,40,2023-01-13 04:38:00.182,Lband
17,40,2023-01-13 04:39:00.265,Lband
16,40,2023-01-13 04:40:00.259,Lband
16,40,2023-01-13 04:41:00.318,Lband
17,40,2023-01-13 04:42:00.251,Lband
16,40,2023-01-13 04:43:00.346,Lband
17,40,2023-01-13 04:44:00.262,Lband
17,40,2023-01-13 04:45:00.318,Lband
16,40,2023-01-13 04:46:00.245,Lband
16,40,2023-01-13 04:47:00.444,Lband
16,40,2023-01-13 04:48:00.268,Lband
16,40,2023-01-13 04:49:00.453,Lband
17,40,2023-01-13 04:50:00.246,Lband
16,40,2023-01-13 04:51:00.216,Lband
16,40,2023-01-13 04:52:00.189,Lband
16,40,2023-01-13 04:53:00.373,Lband
16,40,2023-01-13 04:54:00.308,Lband
16,40,2023-01-13 04:55:00.246,Lband
16,40,2023-01-13 04:56:00.244,Lband
16,40,2023-01-13 04:57:00.239,Lband
16,40,2023-01-13 04:58:00.259,Lband
16,40,2023-01-13 04:59:00.325,Lband
17,40,2023-01-13 05:00:00.230,Lband
16,40,2023-01-13 05:01:00.303,Lband
16,40,2023-01-13 05:02:00.252,Lband
16,40,2023-01-13 05:03:00.323,Lband
16,40,2023-01-13 05:04:00.257,Lband
16,40,2023-01-13 05:05:00.237,Lband
17,40,2023-01-13 05:06:00.323,Lband
17,40,2023-01-13 05:07:00.253,Lband
16,40,2023-01-13 05:08:00.323,Lband
16,40,2023-01-13 05:09:00.344,Lband
16,40,2023-01-13 05:10:00.259,Lband
16,40,2023-01-13 05:11:00.246,Lband
16,40,2023-01-13 05:12:00.198,Lband
17,40,2023-01-13 05:13:00.254,Lband
17,40,2023-01-13 05:14:00.297,Lband
16,40,2023-01-13 05:15:00.360,Lband
16,40,2023-01-13 05:16:00.346,Lband
16,40,2023-01-13 05:17:00.322,Lband
16,40,2023-01-13 05:18:00.313,Lband
17,40,2023-01-13 05:19:00.294,Lband
16,40,2023-01-13 05:20:00.352,Lband
17,40,2023-01-13 05:21:00.244,Lband
17,40,2023-01-13 05:22:00.194,Lband
16,40,2023-01-13 05:23:00.306,Lband
17,40,2023-01-13 05:24:00.244,Lband
17,40,2023-01-13 05:25:00.300,Lband
17,40,2023-01-13 05:26:00.346,Lband
17,40,2023-01-13 05:27:00.315,Lband
16,40,2023-01-13 05:28:00.305,Lband
17,40,2023-01-13 05:29:00.285,Lband
17,40,2023-01-13 05:30:00.225,Lband
17,40,2023-01-13 05:31:00.368,Lband
17,40,2023-01-13 05:32:00.365,Lband
17,40,2023-01-13 05:33:00.223,Lband
17,40,2023-01-13 05:34:00.307,Lband
17,40,2023-01-13 05:35:00.224,Lband
16,40,2023-01-13 05:36:00.342,Lband
16,40,2023-01-13 05:37:00.210,Lband
17,40,2023-01-13 05:38:00.361,Lband
16,40,2023-01-13 05:39:00.203,Lband
16,40,2023-01-13 05:40:00.284,Lband
16,40,2023-01-13 05:41:00.190,Lband
17,40,2023-01-13 05:42:00.281,Lband
16,40,2023-01-13 05:43:00.315,Lband
16,40,2023-01-13 05:44:00.333,Lband
17,40,2023-01-13 05:45:00.307,Lband
17,40,2023-01-13 05:46:00.359,Lband
16,40,2023-01-13 05:47:00.303,Lband
17,40,2023-01-13 05:48:00.309,Lband
17,40,2023-01-13 05:49:00.295,Lband
17,40,2023-01-13 05:50:00.306,Lband
17,40,2023-01-13 05:51:00.296,Lband
17,40,2023-01-13 05:52:00.350,Lband
16,40,2023-01-13 05:53:00.189,Lband
16,40,2023-01-13 05:54:00.317,Lband
17,40,2023-01-13 05:55:00.202,Lband
16,40,2023-01-13 05:56:00.354,Lband
16,40,2023-01-13 05:57:00.307,Lband
17,40,2023-01-13 05:58:00.266,Lband
17,40,2023-01-13 05:59:00.264,Lband
16,40,2023-01-13 06:00:00.327,Lband
17,40,2023-01-13 06:01:00.311,Lband
16,40,2023-01-13 06:02:00.285,Lband
17,40,2023-01-13 06:03:00.306,Lband
17,40,2023-01-13 06:04:00.206,Lband
16,40,2023-01-13 06:05:00.358,Lband
16,40,2023-01-13 06:06:00.315,Lband
16,40,2023-01-13 06:07:00.259,Lband
16,40,2023-01-13 06:08:00.212,Lband
16,40,2023-01-13 06:09:00.320,Lband
16,40,2023-01-13 06:10:00.341,Lband
16,40,2023-01-13 06:11:00.301,Lband
16,40,2023-01-13 06:12:00.266,Lband
16,40,2023-01-13 06:13:00.190,Lband
16,40,2023-01-13 06:14:00.357,Lband
16,40,2023-01-13 06:15:00.360,Lband
16,40,2023-01-13 06:16:00.285,Lband
16,40,2023-01-13 06:17:00.315,Lband
16,40,2023-01-13 06:18:00.302,Lband
16,40,2023-01-13 06:19:00.414,Lband
16,40,2023-01-13 06:20:00.196,Lband
17,40,2023-01-13 06:21:00.326,Lband
16,40,2023-01-13 06:22:00.309,Lband
16,40,2023-01-13 06:23:00.176,Lband
16,40,2023-01-13 06:24:00.327,Lband
17,40,2023-01-13 06:25:00.271,Lband
16,40,2023-01-13 06:26:00.358,Lband
16,40,2023-01-13 06:27:00.306,Lband
16,40,2023-01-13 06:28:00.312,Lband
16,40,2023-01-13 06:29:00.336,Lband
16,40,2023-01-13 06:30:00.308,Lband
16,40,2023-01-13 06:31:00.343,Lband
17,40,2023-01-13 06:32:00.359,Lband
16,40,2023-01-13 06:33:00.355,Lband
16,40,2023-01-13 06:34:00.189,Lband
16,40,2023-01-13 06:35:00.285,Lband
16,40,2023-01-13 06:36:00.242,Lband
17,40,2023-01-13 06:37:00.326,Lband
16,40,2023-01-13 06:38:00.256,Lband
16,40,2023-01-13 06:39:00.358,Lband
16,40,2023-01-13 06:40:00.243,Lband
16,40,2023-01-13 06:41:00.176,Lband
16,40,2023-01-13 06:42:00.234,Lband
17,40,2023-01-13 06:43:00.328,Lband
16,40,2023-01-13 06:44:00.301,Lband
16,40,2023-01-13 06:45:00.307,Lband
17,40,2023-01-13 06:46:00.360,Lband
16,40,2023-01-13 06:47:00.336,Lband
16,40,2023-01-13 06:48:00.273,Lband
16,40,2023-01-13 06:49:00.305,Lband
16,40,2023-01-13 06:50:00.293,Lband
16,40,2023-01-13 06:51:00.179,Lband
16,40,2023-01-13 06:52:00.250,Lband
16,40,2023-01-13 06:53:00.271,Lband
16,40,2023-01-13 06:54:00.329,Lband
16,40,2023-01-13 06:55:00.360,Lband
16,40,2023-01-13 06:56:00.305,Lband
16,40,2023-01-13 06:57:00.321,Lband
16,40,2023-01-13 06:58:00.292,Lband
16,40,2023-01-13 06:59:00.362,Lband
16,40,2023-01-13 07:00:00.367,Lband
16,40,2023-01-13 07:01:00.243,Lband
16,40,2023-01-13 07:02:00.249,Lband
16,40,2023-01-13 07:03:00.392,Lband
16,40,2023-01-13 07:04:00.307,Lband
16,40,2023-01-13 07:05:00.245,Lband
16,40,2023-01-13 07:06:00.253,Lband
16,40,2023-01-13 07:07:00.279,Lband
16,40,2023-01-13 07:08:00.172,Lband
16,40,2023-01-13 07:09:00.295,Lband
16,40,2023-01-13 07:10:00.288,Lband
16,40,2023-01-13 07:11:00.301,Lband
16,40,2023-01-13 07:12:00.264,Lband
16,40,2023-01-13 07:13:00.301,Lband
16,40,2023-01-13 07:14:00.235,Lband
16,40,2023-01-13 07:15:00.274,Lband
16,40,2023-01-13 07:16:00.249,Lband
16,40,2023-01-13 07:17:00.296,Lband
16,40,2023-01-13 07:18:00.296,Lband
16,40,2023-01-13 07:19:00.260,Lband
16,40,2023-01-13 07:20:00.251,Lband
16,40,2023-01-13 07:21:00.293,Lband
16,40,2023-01-13 07:22:00.304,Lband
16,40,2023-01-13 07:23:00.247,Lband
16,40,2023-01-13 07:24:00.314,Lband
16,40,2023-01-13 07:25:00.257,Lband
16,40,2023-01-13 07:26:00.324,Lband
16,40,2023-01-13 07:27:00.248,Lband
16,40,2023-01-13 07:28:00.263,Lband
16,40,2023-01-13 07:29:00.359,Lband
16,40,2023-01-13 07:30:00.343,Lband
16,40,2023-01-13 07:31:00.278,Lband
16,40,2023-01-13 07:32:00.311,Lband
16,40,2023-01-13 07:33:00.296,Lband
16,40,2023-01-13 07:34:00.268,Lband
16,40,2023-01-13 07:35:00.373,Lband
16,40,2023-01-13 07:36:00.360,Lband
16,40,2023-01-13 07:37:00.370,Lband
16,40,2023-01-13 07:38:00.306,Lband
16,40,2023-01-13 07:39:00.356,Lband
16,40,2023-01-13 07:40:00.405,Lband
16,40,2023-01-13 07:41:00.355,Lband
16,40,2023-01-13 07:42:00.352,Lband
16,40,2023-01-13 07:43:00.318,Lband
16,40,2023-01-13 07:44:00.265,Lband
16,40,2023-01-13 07:45:00.311,Lband
16,40,2023-01-13 07:46:00.303,Lband
16,40,2023-01-13 07:47:00.309,Lband
16,40,2023-01-13 07:48:00.433,Lband
16,40,2023-01-13 07:49:00.308,Lband
16,40,2023-01-13 07:50:00.311,Lband
16,40,2023-01-13 07:51:00.242,Lband
16,40,2023-01-13 07:52:00.344,Lband
16,40,2023-01-13 07:53:00.287,Lband
16,40,2023-01-13 07:54:00.284,Lband
16,40,2023-01-13 07:55:00.249,Lband
16,40,2023-01-13 07:56:00.355,Lband
16,40,2023-01-13 07:57:00.289,Lband
16,40,2023-01-13 07:58:00.307,Lband
16,40,2023-01-13 07:59:00.355,Lband
16,40,2023-01-13 08:00:00.332,Lband
16,40,2023-01-13 08:01:00.303,Lband
16,40,2023-01-13 08:02:00.335,Lband
16,40,2023-01-13 08:03:00.318,Lband
16,40,2023-01-13 08:04:00.248,Lband
16,40,2023-01-13 08:05:00.289,Lband
16,40,2023-01-13 08:06:00.284,Lband
16,40,2023-01-13 08:07:00.330,Lband
16,40,2023-01-13 08:08:00.338,Lband
16,40,2023-01-13 08:09:00.302,Lband
16,40,2023-01-13 08:10:00.235,Lband
16,40,2023-01-13 08:11:00.302,Lband
16,40,2023-01-13 08:12:00.361,Lband
16,40,2023-01-13 08:13:00.251,Lband
16,40,2023-01-13 08:14:00.357,Lband
16,40,2023-01-13 08:15:00.270,Lband
16,40,2023-01-13 08:16:00.333,Lband
16,40,2023-01-13 08:17:00.353,Lband
16,40,2023-01-13 08:18:00.280,Lband
16,40,2023-01-13 08:19:00.260,Lband
16,40,2023-01-13 08:20:00.265,Lband
16,40,2023-01-13 08:21:00.256,Lband
17,40,2023-01-13 08:22:00.315,Lband
17,40,2023-01-13 08:23:00.300,Lband
17,40,2023-01-13 08:24:00.193,Lband
17,40,2023-01-13 08:25:00.265,Lband
16,40,2023-01-13 08:26:00.196,Lband
17,40,2023-01-13 08:27:00.188,Lband
17,40,2023-01-13 08:28:00.300,Lband
16,40,2023-01-13 08:29:00.206,Lband
16,40,2023-01-13 08:30:00.309,Lband
16,40,2023-01-13 08:31:00.306,Lband
17,40,2023-01-13 08:32:00.258,Lband
16,40,2023-01-13 08:33:00.260,Lband
16,40,2023-01-13 08:34:00.243,Lband
16,40,2023-01-13 08:35:00.314,Lband
17,41,2023-01-13 08:36:00.205,Lband
17,40,2023-01-13 08:37:00.217,Lband
17,41,2023-01-13 08:38:00.257,Lband
17,41,2023-01-13 08:39:00.257,Lband
17,41,2023-01-13 08:40:00.294,Lband
17,41,2023-01-13 08:41:00.252,Lband
17,41,2023-01-13 08:42:00.231,Lband
17,41,2023-01-13 08:43:00.313,Lband
17,41,2023-01-13 08:44:00.331,Lband
17,41,2023-01-13 08:45:00.252,Lband
17,41,2023-01-13 08:46:00.250,Lband
17,41,2023-01-13 08:47:00.257,Lband
17,41,2023-01-13 08:48:00.309,Lband
17,41,2023-01-13 08:49:00.252,Lband
17,41,2023-01-13 08:50:00.268,Lband
17,41,2023-01-13 08:51:00.242,Lband
17,41,2023-01-13 08:52:00.329,Lband
17,41,2023-01-13 08:53:00.216,Lband
17,41,2023-01-13 08:54:00.357,Lband
17,41,2023-01-13 08:55:00.242,Lband
17,41,2023-01-13 08:56:00.261,Lband
17,41,2023-01-13 08:57:00.213,Lband
17,41,2023-01-13 08:58:00.282,Lband
17,41,2023-01-13 08:59:00.311,Lband
17,41,2023-01-13 09:00:00.203,Lband
17,41,2023-01-13 09:01:00.253,Lband
17,41,2023-01-13 09:02:00.218,Lband
17,41,2023-01-13 09:03:00.258,Lband
17,41,2023-01-13 09:04:00.254,Lband
17,41,2023-01-13 09:05:00.262,Lband
17,41,2023-01-13 09:06:00.220,Lband
17,41,2023-01-13 09:07:00.279,Lband
17,41,2023-01-13 09:08:00.312,Lband
17,41,2023-01-13 09:09:00.302,Lband
17,41,2023-01-13 09:10:00.248,Lband
17,41,2023-01-13 09:11:00.295,Lband
17,41,2023-01-13 09:12:00.244,Lband
17,41,2023-01-13 09:13:00.191,Lband
17,41,2023-01-13 09:14:00.252,Lband
17,41,2023-01-13 09:15:00.318,Lband
17,41,2023-01-13 09:16:00.276,Lband
17,41,2023-01-13 09:17:00.303,Lband
17,41,2023-01-13 09:18:00.301,Lband
17,41,2023-01-13 09:19:00.305,Lband
17,41,2023-01-13 09:20:00.237,Lband
17,41,2023-01-13 09:21:00.248,Lband
17,41,2023-01-13 09:22:00.273,Lband
17,41,2023-01-13 09:23:00.236,Lband
17,41,2023-01-13 09:24:00.251,Lband
17,41,2023-01-13 09:25:00.287,Lband
17,41,2023-01-13 09:26:00.256,Lband
17,41,2023-01-13 09:27:00.253,Lband
17,41,2023-01-13 09:28:00.294,Lband
17,42,2023-01-13 09:29:00.308,Lband
17,41,2023-01-13 09:30:00.291,Lband
17,41,2023-01-13 09:31:00.266,Lband
17,41,2023-01-13 09:32:00.303,Lband
17,41,2023-01-13 09:33:00.220,Lband
17,42,2023-01-13 09:34:00.249,Lband
17,42,2023-01-13 09:35:00.237,Lband
17,42,2023-01-13 09:36:00.231,Lband
17,42,2023-01-13 09:37:00.234,Lband
17,42,2023-01-13 09:38:00.337,Lband
17,42,2023-01-13 09:39:00.306,Lband
17,42,2023-01-13 09:40:00.300,Lband
17,42,2023-01-13 09:41:00.308,Lband
17,42,2023-01-13 09:42:00.355,Lband
17,42,2023-01-13 09:43:00.248,Lband
17,42,2023-01-13 09:44:00.309,Lband
17,42,2023-01-13 09:45:00.220,Lband
17,42,2023-01-13 09:46:00.275,Lband
17,42,2023-01-13 09:47:00.302,Lband
17,42,2023-01-13 09:48:00.307,Lband
17,42,2023-01-13 09:49:00.206,Lband
17,42,2023-01-13 09:50:00.252,Lband
17,42,2023-01-13 09:51:00.235,Lband
17,42,2023-01-13 09:52:00.297,Lband
17,42,2023-01-13 09:53:00.300,Lband
17,42,2023-01-13 09:54:00.294,Lband
17,42,2023-01-13 09:55:00.311,Lband
17,42,2023-01-13 09:56:00.231,Lband
17,42,2023-01-13 09:57:00.217,Lband
17,42,2023-01-13 09:58:00.300,Lband
17,42,2023-01-13 09:59:00.256,Lband
17,42,2023-01-13 10:00:00.260,Lband
17,42,2023-01-13 10:01:00.244,Lband
17,42,2023-01-13 10:02:00.311,Lband
17,42,2023-01-13 10:03:00.223,Lband
17,42,2023-01-13 10:04:00.306,Lband
17,42,2023-01-13 10:05:00.244,Lband
17,42,2023-01-13 10:06:00.257,Lband
17,42,2023-01-13 10:07:00.288,Lband
17,42,2023-01-13 10:08:00.267,Lband
17,42,2023-01-13 10:09:00.228,Lband
17,42,2023-01-13 10:10:00.292,Lband
17,42,2023-01-13 10:11:00.274,Lband
17,42,2023-01-13 10:12:00.197,Lband
18,42,2023-01-13 10:13:00.318,Lband
18,42,2023-01-13 10:14:00.256,Lband
17,42,2023-01-13 10:15:00.247,Lband
18,42,2023-01-13 10:16:00.221,Lband
18,42,2023-01-13 10:17:00.295,Lband
18,42,2023-01-13 10:18:00.258,Lband
18,42,2023-01-13 10:19:00.284,Lband
18,42,2023-01-13 10:20:00.269,Lband
18,42,2023-01-13 10:21:00.244,Lband
18,42,2023-01-13 10:22:00.235,Lband
18,42,2023-01-13 10:23:00.210,Lband
18,42,2023-01-13 10:24:00.201,Lband
18,42,2023-01-13 10:25:00.260,Lband
18,42,2023-01-13 10:26:00.233,Lband
18,42,2023-01-13 10:27:00.323,Lband
18,42,2023-01-13 10:28:00.296,Lband
18,42,2023-01-13 10:29:00.233,Lband
18,43,2023-01-13 10:30:00.304,Lband
18,43,2023-01-13 10:31:00.316,Lband
18,43,2023-01-13 10:32:00.338,Lband
18,43,2023-01-13 10:33:00.248,Lband
18,43,2023-01-13 10:34:00.286,Lband
18,43,2023-01-13 10:35:00.272,Lband
18,43,2023-01-13 10:36:00.261,Lband
18,43,2023-01-13 10:37:00.277,Lband
18,43,2023-01-13 10:38:00.275,Lband
18,43,2023-01-13 10:39:00.237,Lband
18,43,2023-01-13 10:40:00.213,Lband
18,43,2023-01-13 10:41:00.264,Lband
18,43,2023-01-13 10:42:00.257,Lband
18,43,2023-01-13 10:43:00.255,Lband
18,43,2023-01-13 10:44:00.299,Lband
18,43,2023-01-13 10:45:00.254,Lband
18,43,2023-01-13 10:46:00.264,Lband
18,43,2023-01-13 10:47:00.288,Lband
18,43,2023-01-13 10:48:00.253,Lband
18,43,2023-01-13 10:49:00.270,Lband
18,43,2023-01-13 10:50:00.253,Lband
18,43,2023-01-13 10:51:00.295,Lband
18,43,2023-01-13 10:52:00.311,Lband
18,43,2023-01-13 10:53:00.307,Lband
18,43,2023-01-13 10:54:00.200,Lband
18,43,2023-01-13 10:55:00.261,Lband
18,43,2023-01-13 10:56:00.232,Lband
18,43,2023-01-13 10:57:00.189,Lband
18,43,2023-01-13 10:58:00.238,Lband
18,43,2023-01-13 10:59:00.267,Lband
18,43,2023-01-13 11:00:00.193,Lband
18,43,2023-01-13 11:01:00.315,Lband
18,43,2023-01-13 11:02:00.194,Lband
18,43,2023-01-13 11:03:00.310,Lband
18,43,2023-01-13 11:04:00.306,Lband
18,43,2023-01-13 11:05:00.239,Lband
18,43,2023-01-13 11:06:00.267,Lband
18,43,2023-01-13 11:07:00.213,Lband
18,43,2023-01-13 11:08:00.254,Lband
18,43,2023-01-13 11:09:00.312,Lband
18,43,2023-01-13 11:10:00.287,Lband
18,43,2023-01-13 11:11:00.257,Lband
18,42,2023-01-13 11:12:00.211,Lband
18,43,2023-01-13 11:13:00.186,Lband
18,43,2023-01-13 11:14:00.321,Lband
18,43,2023-01-13 11:15:00.207,Lband
18,42,2023-01-13 11:16:00.271,Lband
18,42,2023-01-13 11:17:00.262,Lband
18,43,2023-01-13 11:18:00.190,Lband
18,43,2023-01-13 11:19:00.202,Lband
18,43,2023-01-13 11:20:00.281,Lband
18,42,2023-01-13 11:21:00.317,Lband
18,42,2023-01-13 11:22:00.192,Lband
18,43,2023-01-13 11:23:00.272,Lband
17,43,2023-01-13 11:24:00.237,Lband
18,43,2023-01-13 11:25:00.206,Lband
18,43,2023-01-13 11:26:00.264,Lband
18,43,2023-01-13 11:27:00.315,Lband
18,42,2023-01-13 11:28:00.258,Lband
18,42,2023-01-13 11:29:00.193,Lband
18,42,2023-01-13 11:30:00.251,Lband
18,42,2023-01-13 11:31:00.296,Lband
18,42,2023-01-13 11:32:00.254,Lband
18,43,2023-01-13 11:33:00.274,Lband
18,43,2023-01-13 11:34:00.232,Lband
18,43,2023-01-13 11:35:00.236,Lband
18,42,2023-01-13 11:36:00.240,Lband
18,42,2023-01-13 11:37:00.254,Lband
18,43,2023-01-13 11:38:00.208,Lband
18,42,2023-01-13 11:39:00.302,Lband
18,43,2023-01-13 11:40:00.228,Lband
18,42,2023-01-13 11:41:00.199,Lband
18,42,2023-01-13 11:42:00.240,Lband
18,42,2023-01-13 11:43:00.266,Lband
18,42,2023-01-13 11:44:00.193,Lband
18,42,2023-01-13 11:45:00.212,Lband
18,42,2023-01-13 11:46:00.257,Lband
18,42,2023-01-13 11:47:00.256,Lband
18,42,2023-01-13 11:48:00.255,Lband
17,42,2023-01-13 11:49:00.279,Lband
17,42,2023-01-13 11:50:00.302,Lband
18,42,2023-01-13 11:51:00.185,Lband
18,42,2023-01-13 11:52:00.243,Lband
18,42,2023-01-13 11:53:00.254,Lband
18,42,2023-01-13 11:54:00.259,Lband
18,42,2023-01-13 11:55:00.235,Lband
18,42,2023-01-13 11:56:00.209,Lband
18,42,2023-01-13 11:57:00.298,Lband
18,42,2023-01-13 11:58:00.263,Lband
18,42,2023-01-13 11:59:00.300,Lband
18,42,2023-01-13 12:00:00.239,Lband
18,42,2023-01-13 12:01:00.297,Lband
18,42,2023-01-13 12:02:00.262,Lband
18,42,2023-01-13 12:03:00.263,Lband
18,42,2023-01-13 12:04:00.263,Lband
18,42,2023-01-13 12:05:00.254,Lband
18,42,2023-01-13 12:06:00.283,Lband
18,42,2023-01-13 12:07:00.247,Lband
18,42,2023-01-13 12:08:00.246,Lband
18,42,2023-01-13 12:09:00.266,Lband
18,42,2023-01-13 12:10:00.258,Lband
18,42,2023-01-13 12:11:00.272,Lband
18,42,2023-01-13 12:12:00.284,Lband
18,42,2023-01-13 12:13:00.253,Lband
18,42,2023-01-13 12:14:00.212,Lband
18,42,2023-01-13 12:15:00.290,Lband
18,42,2023-01-13 12:16:00.318,Lband
18,42,2023-01-13 12:17:00.237,Lband
18,42,2023-01-13 12:18:00.308,Lband
18,42,2023-01-13 12:19:00.287,Lband
18,42,2023-01-13 12:20:00.314,Lband
18,42,2023-01-13 12:21:00.200,Lband
18,42,2023-01-13 12:22:00.307,Lband
18,42,2023-01-13 12:23:00.192,Lband
18,42,2023-01-13 12:24:00.295,Lband
18,42,2023-01-13 12:25:00.243,Lband
18,42,2023-01-13 12:26:00.266,Lband
18,42,2023-01-13 12:27:00.243,Lband
18,42,2023-01-13 12:28:00.262,Lband
18,42,2023-01-13 12:29:00.224,Lband
18,42,2023-01-13 12:30:00.186,Lband
18,42,2023-01-13 12:31:00.244,Lband
18,42,2023-01-13 12:32:00.261,Lband
18,42,2023-01-13 12:33:00.242,Lband
18,42,2023-01-13 12:34:00.189,Lband
18,42,2023-01-13 12:35:00.231,Lband
18,42,2023-01-13 12:36:00.245,Lband
18,42,2023-01-13 12:37:00.317,Lband
18,42,2023-01-13 12:38:00.253,Lband
18,42,2023-01-13 12:39:00.240,Lband
18,42,2023-01-13 12:40:00.185,Lband
18,42,2023-01-13 12:41:00.271,Lband
18,42,2023-01-13 12:42:00.236,Lband
18,42,2023-01-13 12:43:00.231,Lband
18,42,2023-01-13 12:44:00.221,Lband
18,42,2023-01-13 12:45:00.232,Lband
18,42,2023-01-13 12:46:00.252,Lband
18,42,2023-01-13 12:47:00.280,Lband
18,42,2023-01-13 12:48:00.230,Lband
18,42,2023-01-13 12:49:00.207,Lband
17,42,2023-01-13 12:50:00.297,Lband
18,42,2023-01-13 12:51:00.320,Lband
18,42,2023-01-13 12:52:00.413,Lband
18,42,2023-01-13 12:53:00.294,Lband
18,42,2023-01-13 12:54:00.251,Lband
18,42,2023-01-13 12:55:00.269,Lband
18,42,2023-01-13 12:56:00.229,Lband
18,42,2023-01-13 12:57:00.302,Lband
18,42,2023-01-13 12:58:00.211,Lband
18,42,2023-01-13 12:59:00.188,Lband
18,42,2023-01-13 13:00:00.301,Lband
18,42,2023-01-13 13:01:00.241,Lband
18,42,2023-01-13 13:02:00.301,Lband
18,42,2023-01-13 13:03:00.194,Lband
18,42,2023-01-13 13:04:00.187,Lband
18,41,2023-01-13 13:05:00.256,Lband
18,42,2023-01-13 13:06:00.268,Lband
18,42,2023-01-13 13:07:00.199,Lband
18,42,2023-01-13 13:08:00.293,Lband
18,42,2023-01-13 13:09:00.268,Lband
18,42,2023-01-13 13:10:00.232,Lband
18,42,2023-01-13 13:11:00.274,Lband
18,42,2023-01-13 13:12:00.271,Lband
18,42,2023-01-13 13:13:00.265,Lband
18,42,2023-01-13 13:14:00.234,Lband
18,42,2023-01-13 13:15:00.290,Lband
18,42,2023-01-13 13:16:00.247,Lband
18,42,2023-01-13 13:17:00.250,Lband
18,42,2023-01-13 13:18:00.253,Lband
18,42,2023-01-13 13:19:00.316,Lband
18,42,2023-01-13 13:20:00.301,Lband
18,42,2023-01-13 13:21:00.191,Lband
18,42,2023-01-13 13:22:00.324,Lband
18,42,2023-01-13 13:23:00.206,Lband
18,42,2023-01-13 13:24:00.254,Lband
18,42,2023-01-13 13:25:00.248,Lband
18,42,2023-01-13 13:26:00.247,Lband
18,42,2023-01-13 13:27:00.279,Lband
18,42,2023-01-13 13:28:00.297,Lband
18,42,2023-01-13 13:29:00.308,Lband
18,42,2023-01-13 13:30:00.270,Lband
18,42,2023-01-13 13:31:00.312,Lband
18,42,2023-01-13 13:32:00.298,Lband
18,42,2023-01-13 13:33:00.243,Lband
18,42,2023-01-13 13:34:00.310,Lband
18,42,2023-01-13 13:35:00.190,Lband
18,42,2023-01-13 13:36:00.316,Lband
18,42,2023-01-13 13:37:00.186,Lband
18,42,2023-01-13 13:38:00.251,Lband
18,42,2023-01-13 13:39:00.213,Lband
18,42,2023-01-13 13:40:00.231,Lband
18,42,2023-01-13 13:41:00.266,Lband
18,42,2023-01-13 13:42:00.352,Lband
18,42,2023-01-13 13:43:00.376,Lband
18,42,2023-01-13 13:44:00.244,Lband
18,42,2023-01-13 13:45:00.243,Lband
18,42,2023-01-13 13:46:00.256,Lband
18,42,2023-01-13 13:47:00.199,Lband
18,42,2023-01-13 13:48:00.288,Lband
18,42,2023-01-13 13:49:00.185,Lband
18,42,2023-01-13 13:50:00.300,Lband
18,42,2023-01-13 13:51:00.295,Lband
18,42,2023-01-13 13:52:00.238,Lband
18,42,2023-01-13 13:53:00.208,Lband
18,42,2023-01-13 13:54:00.302,Lband
18,42,2023-01-13 13:55:00.249,Lband
18,42,2023-01-13 13:56:00.254,Lband
18,42,2023-01-13 13:57:00.246,Lband
18,42,2023-01-13 13:58:00.236,Lband
18,42,2023-01-13 13:59:00.212,Lband
18,42,2023-01-13 14:00:00.220,Lband
18,42,2023-01-13 14:01:00.327,Lband
18,42,2023-01-13 14:02:00.259,Lband
18,42,2023-01-13 14:03:00.253,Lband
18,41,2023-01-13 14:04:00.265,Lband
18,42,2023-01-13 14:05:00.305,Lband
18,41,2023-01-13 14:06:00.249,Lband
18,41,2023-01-13 14:07:00.237,Lband
18,42,2023-01-13 14:08:00.179,Lband
18,41,2023-01-13 14:09:00.312,Lband
18,41,2023-01-13 14:10:00.273,Lband
18,41,2023-01-13 14:11:00.250,Lband
18,41,2023-01-13 14:12:00.213,Lband
18,41,2023-01-13 14:13:00.206,Lband
18,41,2023-01-13 14:14:00.193,Lband
18,41,2023-01-13 14:15:00.313,Lband
18,41,2023-01-13 14:16:00.294,Lband
18,41,2023-01-13 14:17:00.258,Lband
18,41,2023-01-13 14:18:00.302,Lband
18,41,2023-01-13 14:19:00.267,Lband
18,41,2023-01-13 14:20:00.259,Lband
18,41,2023-01-13 14:21:00.248,Lband
18,41,2023-01-13 14:22:00.286,Lband
18,41,2023-01-13 14:23:00.314,Lband
18,41,2023-01-13 14:24:00.259,Lband
18,41,2023-01-13 14:25:00.248,Lband
18,41,2023-01-13 14:26:00.298,Lband
18,41,2023-01-13 14:27:00.190,Lband
18,41,2023-01-13 14:28:00.254,Lband
18,41,2023-01-13 14:29:00.316,Lband
18,41,2023-01-13 14:30:00.184,Lband
18,41,2023-01-13 14:31:00.251,Lband
18,41,2023-01-13 14:32:00.263,Lband
18,41,2023-01-13 14:33:00.266,Lband
18,41,2023-01-13 14:34:00.307,Lband
18,41,2023-01-13 14:35:00.235,Lband
18,41,2023-01-13 14:36:00.247,Lband
18,42,2023-01-13 14:37:00.447,Lband
18,42,2023-01-13 14:38:00.315,Lband
18,42,2023-01-13 14:39:00.243,Lband
18,42,2023-01-13 14:40:00.257,Lband
18,42,2023-01-13 14:41:00.267,Lband
18,42,2023-01-13 14:42:00.256,Lband
18,42,2023-01-13 14:43:00.297,Lband
17,41,2023-01-13 14:44:00.233,Lband
18,41,2023-01-13 14:45:00.247,Lband
18,42,2023-01-13 14:46:00.309,Lband
18,41,2023-01-13 14:47:00.257,Lband
18,41,2023-01-13 14:48:00.221,Lband
18,41,2023-01-13 14:49:00.319,Lband
18,41,2023-01-13 14:50:00.259,Lband
18,41,2023-01-13 14:51:00.250,Lband
18,41,2023-01-13 14:52:00.305,Lband
18,41,2023-01-13 14:53:00.313,Lband
18,41,2023-01-13 14:54:00.195,Lband
18,41,2023-01-13 14:55:00.258,Lband
18,41,2023-01-13 14:56:00.246,Lband
18,41,2023-01-13 14:57:00.267,Lband
18,41,2023-01-13 14:58:00.295,Lband
18,41,2023-01-13 14:59:00.219,Lband
18,41,2023-01-13 15:00:00.192,Lband
18,41,2023-01-13 15:01:00.276,Lband
18,41,2023-01-13 15:02:00.201,Lband
18,41,2023-01-13 15:03:00.268,Lband
18,41,2023-01-13 15:04:00.417,Lband
18,41,2023-01-13 15:05:00.251,Lband
18,41,2023-01-13 15:06:00.257,Lband
18,41,2023-01-13 15:07:00.196,Lband
18,41,2023-01-13 15:08:00.302,Lband
18,41,2023-01-13 15:09:00.222,Lband
18,41,2023-01-13 15:10:00.351,Lband
18,41,2023-01-13 15:11:00.303,Lband
18,41,2023-01-13 15:12:00.258,Lband
18,41,2023-01-13 15:13:00.217,Lband
18,41,2023-01-13 15:14:00.233,Lband
18,41,2023-01-13 15:15:00.206,Lband
18,41,2023-01-13 15:16:00.274,Lband
18,41,2023-01-13 15:17:00.252,Lband
18,41,2023-01-13 15:18:00.266,Lband
18,41,2023-01-13 15:19:00.196,Lband
18,41,2023-01-13 15:20:00.247,Lband
17,41,2023-01-13 15:21:00.244,Lband
18,41,2023-01-13 15:22:00.183,Lband
18,41,2023-01-13 15:23:00.256,Lband
18,41,2023-01-13 15:24:00.250,Lband
18,41,2023-01-13 15:25:00.307,Lband
18,41,2023-01-13 15:26:00.254,Lband
18,41,2023-01-13 15:27:00.305,Lband
18,41,2023-01-13 15:28:00.198,Lband
18,41,2023-01-13 15:29:00.245,Lband
18,41,2023-01-13 15:30:00.226,Lband
18,41,2023-01-13 15:31:00.214,Lband
18,41,2023-01-13 15:32:00.227,Lband
18,41,2023-01-13 15:33:00.253,Lband
18,41,2023-01-13 15:34:00.317,Lband
18,41,2023-01-13 15:35:00.238,Lband
18,41,2023-01-13 15:36:00.317,Lband
18,41,2023-01-13 15:37:00.233,Lband
18,41,2023-01-13 15:38:00.308,Lband
18,41,2023-01-13 15:39:00.261,Lband
18,41,2023-01-13 15:40:00.298,Lband
18,41,2023-01-13 15:41:00.246,Lband
18,41,2023-01-13 15:42:00.238,Lband
18,41,2023-01-13 15:43:00.295,Lband
18,41,2023-01-13 15:44:00.361,Lband
18,41,2023-01-13 15:45:00.140,Lband
18,41,2023-01-13 15:46:00.205,Lband
18,41,2023-01-13 15:47:00.249,Lband
18,41,2023-01-13 15:48:00.266,Lband
18,41,2023-01-13 15:49:00.253,Lband
18,41,2023-01-13 15:50:00.246,Lband
18,41,2023-01-13 15:51:00.253,Lband
18,41,2023-01-13 15:52:00.269,Lband
18,41,2023-01-13 15:53:00.314,Lband
18,41,2023-01-13 15:54:00.293,Lband
18,41,2023-01-13 15:55:00.251,Lband
18,41,2023-01-13 15:56:00.257,Lband
18,41,2023-01-13 15:57:00.256,Lband
18,41,2023-01-13 15:58:00.242,Lband
18,41,2023-01-13 15:59:00.248,Lband
18,41,2023-01-13 16:00:00.265,Lband
18,41,2023-01-13 16:01:00.247,Lband
18,41,2023-01-13 16:02:00.228,Lband
18,41,2023-01-13 16:03:00.303,Lband
18,41,2023-01-13 16:04:00.316,Lband
18,41,2023-01-13 16:05:00.239,Lband
18,41,2023-01-13 16:06:00.218,Lband
18,41,2023-01-13 16:07:00.309,Lband
18,41,2023-01-13 16:08:00.261,Lband
18,41,2023-01-13 16:09:00.302,Lband
18,41,2023-01-13 16:10:00.202,Lband
18,41,2023-01-13 16:11:00.253,Lband
18,41,2023-01-13 16:12:00.263,Lband
18,41,2023-01-13 16:13:00.254,Lband
18,41,2023-01-13 16:14:00.256,Lband
18,41,2023-01-13 16:15:00.279,Lband
18,41,2023-01-13 16:16:00.238,Lband
18,41,2023-01-13 16:17:00.309,Lband
18,41,2023-01-13 16:18:00.246,Lband
18,41,2023-01-13 16:19:00.262,Lband
18,41,2023-01-13 16:20:00.234,Lband
18,41,2023-01-13 16:21:00.253,Lband
18,41,2023-01-13 16:22:00.222,Lband
18,41,2023-01-13 16:23:00.256,Lband
18,41,2023-01-13 16:24:00.244,Lband
21,41,2023-01-13 16:25:00.242,Lband
28,43,2023-01-13 16:28:10.081,Lband
