T15,T70,date,sensorName
15,41,2023-01-10 00:00:00.224,Lband
15,41,2023-01-10 00:01:00.202,Lband
15,41,2023-01-10 00:02:00.352,Lband
15,41,2023-01-10 00:03:00.232,Lband
15,41,2023-01-10 00:04:00.244,Lband
15,41,2023-01-10 00:05:00.375,Lband
15,41,2023-01-10 00:06:00.395,Lband
15,41,2023-01-10 00:07:00.268,Lband
15,41,2023-01-10 00:08:00.177,Lband
15,41,2023-01-10 00:09:00.255,Lband
15,41,2023-01-10 00:10:00.361,Lband
15,41,2023-01-10 00:11:00.338,Lband
15,41,2023-01-10 00:12:00.329,Lband
15,41,2023-01-10 00:13:00.242,Lband
15,41,2023-01-10 00:14:00.334,Lband
15,41,2023-01-10 00:15:00.247,Lband
15,41,2023-01-10 00:16:00.315,Lband
15,41,2023-01-10 00:17:00.337,Lband
15,41,2023-01-10 00:18:00.326,Lband
15,41,2023-01-10 00:19:00.165,Lband
15,41,2023-01-10 00:20:00.367,Lband
15,41,2023-01-10 00:21:00.212,Lband
15,41,2023-01-10 00:22:00.242,Lband
15,41,2023-01-10 00:23:00.313,Lband
15,41,2023-01-10 00:24:00.212,Lband
15,41,2023-01-10 00:25:00.317,Lband
15,41,2023-01-10 00:26:00.235,Lband
15,41,2023-01-10 00:27:00.233,Lband
15,41,2023-01-10 00:28:00.253,Lband
15,41,2023-01-10 00:29:00.260,Lband
15,41,2023-01-10 00:30:00.238,Lband
15,41,2023-01-10 00:31:00.250,Lband
15,41,2023-01-10 00:32:00.247,Lband
15,41,2023-01-10 00:33:00.254,Lband
15,41,2023-01-10 00:34:00.203,Lband
15,41,2023-01-10 00:35:00.194,Lband
15,41,2023-01-10 00:36:00.183,Lband
15,41,2023-01-10 00:37:00.194,Lband
15,41,2023-01-10 00:38:00.257,Lband
15,41,2023-01-10 00:39:00.351,Lband
15,41,2023-01-10 00:40:00.229,Lband
15,41,2023-01-10 00:41:00.259,Lband
15,40,2023-01-10 00:42:00.213,Lband
15,40,2023-01-10 00:43:00.347,Lband
15,40,2023-01-10 00:44:00.295,Lband
15,40,2023-01-10 00:45:00.221,Lband
15,40,2023-01-10 00:46:00.282,Lband
15,40,2023-01-10 00:47:00.297,Lband
15,41,2023-01-10 00:48:00.219,Lband
15,40,2023-01-10 00:49:00.257,Lband
15,40,2023-01-10 00:50:00.194,Lband
15,40,2023-01-10 00:51:00.278,Lband
15,40,2023-01-10 00:52:00.250,Lband
15,40,2023-01-10 00:53:00.205,Lband
15,41,2023-01-10 00:54:00.265,Lband
15,41,2023-01-10 00:55:00.180,Lband
15,40,2023-01-10 00:56:00.246,Lband
15,41,2023-01-10 00:57:00.203,Lband
15,40,2023-01-10 00:58:00.301,Lband
15,40,2023-01-10 00:59:00.404,Lband
15,40,2023-01-10 01:00:00.275,Lband
15,41,2023-01-10 01:01:00.295,Lband
15,41,2023-01-10 01:02:00.210,Lband
15,40,2023-01-10 01:03:00.317,Lband
15,40,2023-01-10 01:04:00.177,Lband
15,40,2023-01-10 01:05:00.290,Lband
15,40,2023-01-10 01:06:00.317,Lband
15,40,2023-01-10 01:07:00.305,Lband
15,40,2023-01-10 01:08:00.234,Lband
15,40,2023-01-10 01:09:00.284,Lband
15,40,2023-01-10 01:10:00.255,Lband
15,40,2023-01-10 01:11:00.249,Lband
15,40,2023-01-10 01:12:00.188,Lband
15,40,2023-01-10 01:13:00.311,Lband
15,40,2023-01-10 01:14:00.274,Lband
15,41,2023-01-10 01:15:00.200,Lband
15,40,2023-01-10 01:16:00.243,Lband
15,41,2023-01-10 01:17:00.249,Lband
15,41,2023-01-10 01:18:00.259,Lband
15,41,2023-01-10 01:19:00.247,Lband
15,40,2023-01-10 01:20:00.316,Lband
15,40,2023-01-10 01:21:00.257,Lband
15,40,2023-01-10 01:22:00.238,Lband
15,41,2023-01-10 01:23:00.303,Lband
15,41,2023-01-10 01:24:00.204,Lband
15,41,2023-01-10 01:25:00.248,Lband
15,41,2023-01-10 01:26:00.286,Lband
15,41,2023-01-10 01:27:00.186,Lband
15,41,2023-01-10 01:28:00.245,Lband
15,40,2023-01-10 01:29:00.243,Lband
15,40,2023-01-10 01:30:00.196,Lband
15,40,2023-01-10 01:31:00.172,Lband
15,41,2023-01-10 01:32:00.210,Lband
15,40,2023-01-10 01:33:00.259,Lband
15,40,2023-01-10 01:34:00.291,Lband
15,40,2023-01-10 01:35:00.247,Lband
15,41,2023-01-10 01:36:00.306,Lband
15,41,2023-01-10 01:37:00.224,Lband
15,41,2023-01-10 01:38:00.314,Lband
15,40,2023-01-10 01:39:00.201,Lband
15,40,2023-01-10 01:40:00.230,Lband
15,41,2023-01-10 01:41:00.255,Lband
15,41,2023-01-10 01:42:00.258,Lband
15,40,2023-01-10 01:43:00.242,Lband
15,41,2023-01-10 01:44:00.246,Lband
15,41,2023-01-10 01:45:00.298,Lband
15,41,2023-01-10 01:46:00.316,Lband
15,41,2023-01-10 01:47:00.225,Lband
15,41,2023-01-10 01:48:00.234,Lband
15,41,2023-01-10 01:49:00.263,Lband
15,41,2023-01-10 01:50:00.251,Lband
15,41,2023-01-10 01:51:00.250,Lband
15,41,2023-01-10 01:52:00.281,Lband
15,41,2023-01-10 01:53:00.288,Lband
15,41,2023-01-10 01:54:00.300,Lband
15,41,2023-01-10 01:55:00.189,Lband
15,41,2023-01-10 01:56:00.338,Lband
15,41,2023-01-10 01:57:00.269,Lband
15,41,2023-01-10 01:58:00.270,Lband
15,41,2023-01-10 01:59:00.185,Lband
15,41,2023-01-10 02:00:00.349,Lband
15,41,2023-01-10 02:01:00.299,Lband
15,41,2023-01-10 02:02:00.257,Lband
15,41,2023-01-10 02:03:00.249,Lband
15,41,2023-01-10 02:04:00.257,Lband
15,41,2023-01-10 02:05:00.206,Lband
15,41,2023-01-10 02:06:00.222,Lband
15,41,2023-01-10 02:07:00.292,Lband
15,41,2023-01-10 02:08:00.301,Lband
15,41,2023-01-10 02:09:00.255,Lband
15,41,2023-01-10 02:10:00.241,Lband
15,41,2023-01-10 02:11:00.198,Lband
15,41,2023-01-10 02:12:00.253,Lband
15,41,2023-01-10 02:13:00.262,Lband
15,41,2023-01-10 02:14:00.242,Lband
15,41,2023-01-10 02:15:00.211,Lband
15,41,2023-01-10 02:16:00.260,Lband
15,41,2023-01-10 02:17:00.194,Lband
15,41,2023-01-10 02:18:00.271,Lband
15,41,2023-01-10 02:19:00.242,Lband
15,41,2023-01-10 02:20:00.262,Lband
15,41,2023-01-10 02:21:00.264,Lband
15,41,2023-01-10 02:22:00.257,Lband
15,41,2023-01-10 02:23:00.305,Lband
15,41,2023-01-10 02:24:00.224,Lband
15,41,2023-01-10 02:25:00.255,Lband
15,41,2023-01-10 02:26:00.192,Lband
15,41,2023-01-10 02:27:00.250,Lband
15,41,2023-01-10 02:28:00.266,Lband
15,41,2023-01-10 02:29:00.191,Lband
15,41,2023-01-10 02:30:00.249,Lband
15,41,2023-01-10 02:31:00.400,Lband
15,41,2023-01-10 02:32:00.264,Lband
15,41,2023-01-10 02:33:00.280,Lband
15,41,2023-01-10 02:34:00.258,Lband
15,41,2023-01-10 02:35:00.273,Lband
15,40,2023-01-10 02:36:00.233,Lband
15,40,2023-01-10 02:37:00.311,Lband
15,40,2023-01-10 02:38:00.172,Lband
15,40,2023-01-10 02:39:00.293,Lband
15,41,2023-01-10 02:40:00.243,Lband
15,40,2023-01-10 02:41:00.285,Lband
15,40,2023-01-10 02:42:00.218,Lband
15,40,2023-01-10 02:43:00.238,Lband
15,41,2023-01-10 02:44:00.257,Lband
15,40,2023-01-10 02:45:00.266,Lband
15,40,2023-01-10 02:46:00.183,Lband
15,40,2023-01-10 02:47:00.226,Lband
15,40,2023-01-10 02:48:00.198,Lband
15,40,2023-01-10 02:49:00.350,Lband
15,40,2023-01-10 02:50:00.315,Lband
15,40,2023-01-10 02:51:00.293,Lband
15,40,2023-01-10 02:52:00.237,Lband
15,40,2023-01-10 02:53:00.308,Lband
15,40,2023-01-10 02:54:00.242,Lband
15,40,2023-01-10 02:55:00.302,Lband
15,40,2023-01-10 02:56:00.279,Lband
15,41,2023-01-10 02:57:00.280,Lband
15,40,2023-01-10 02:58:00.307,Lband
15,40,2023-01-10 02:59:00.234,Lband
15,40,2023-01-10 03:00:00.194,Lband
15,41,2023-01-10 03:01:00.257,Lband
15,40,2023-01-10 03:02:00.225,Lband
15,40,2023-01-10 03:03:00.232,Lband
15,40,2023-01-10 03:04:00.207,Lband
15,40,2023-01-10 03:05:00.299,Lband
15,40,2023-01-10 03:06:00.247,Lband
15,40,2023-01-10 03:07:00.332,Lband
15,40,2023-01-10 03:08:00.182,Lband
15,40,2023-01-10 03:09:00.342,Lband
15,40,2023-01-10 03:10:00.200,Lband
15,40,2023-01-10 03:11:00.344,Lband
15,40,2023-01-10 03:12:00.206,Lband
15,41,2023-01-10 03:13:00.286,Lband
15,40,2023-01-10 03:14:00.256,Lband
15,40,2023-01-10 03:15:00.239,Lband
15,40,2023-01-10 03:16:00.221,Lband
15,40,2023-01-10 03:17:00.312,Lband
15,40,2023-01-10 03:18:00.293,Lband
15,40,2023-01-10 03:19:00.299,Lband
15,40,2023-01-10 03:20:00.219,Lband
15,40,2023-01-10 03:21:00.214,Lband
15,40,2023-01-10 03:22:00.310,Lband
15,40,2023-01-10 03:23:00.309,Lband
15,40,2023-01-10 03:24:00.232,Lband
15,40,2023-01-10 03:25:00.250,Lband
15,40,2023-01-10 03:26:00.205,Lband
15,40,2023-01-10 03:27:00.195,Lband
15,40,2023-01-10 03:28:00.283,Lband
15,40,2023-01-10 03:29:00.306,Lband
15,40,2023-01-10 03:30:00.322,Lband
15,40,2023-01-10 03:31:00.206,Lband
15,40,2023-01-10 03:32:00.302,Lband
15,40,2023-01-10 03:33:00.196,Lband
15,40,2023-01-10 03:34:00.253,Lband
15,41,2023-01-10 03:35:00.260,Lband
15,40,2023-01-10 03:36:00.268,Lband
15,40,2023-01-10 03:37:00.234,Lband
15,40,2023-01-10 03:38:00.241,Lband
15,40,2023-01-10 03:39:00.176,Lband
15,41,2023-01-10 03:40:00.310,Lband
15,41,2023-01-10 03:41:00.238,Lband
15,40,2023-01-10 03:42:00.254,Lband
15,40,2023-01-10 03:43:00.246,Lband
15,40,2023-01-10 03:44:00.254,Lband
15,40,2023-01-10 03:45:00.298,Lband
15,40,2023-01-10 03:46:00.224,Lband
15,40,2023-01-10 03:47:00.185,Lband
15,41,2023-01-10 03:48:00.263,Lband
15,40,2023-01-10 03:49:00.195,Lband
15,40,2023-01-10 03:50:00.255,Lband
15,40,2023-01-10 03:51:00.216,Lband
15,40,2023-01-10 03:52:00.249,Lband
15,40,2023-01-10 03:53:00.261,Lband
15,40,2023-01-10 03:54:00.196,Lband
15,40,2023-01-10 03:55:00.172,Lband
15,40,2023-01-10 03:56:00.259,Lband
15,40,2023-01-10 03:57:00.266,Lband
15,40,2023-01-10 03:58:00.247,Lband
15,40,2023-01-10 03:59:00.266,Lband
15,40,2023-01-10 04:00:00.190,Lband
15,40,2023-01-10 04:01:00.345,Lband
15,40,2023-01-10 04:02:00.221,Lband
15,40,2023-01-10 04:03:00.241,Lband
15,40,2023-01-10 04:04:00.221,Lband
15,40,2023-01-10 04:05:00.192,Lband
15,40,2023-01-10 04:06:00.267,Lband
15,40,2023-01-10 04:07:00.303,Lband
15,40,2023-01-10 04:08:00.242,Lband
15,40,2023-01-10 04:09:00.284,Lband
15,40,2023-01-10 04:10:00.198,Lband
15,40,2023-01-10 04:11:00.309,Lband
15,40,2023-01-10 04:12:00.283,Lband
15,40,2023-01-10 04:13:00.269,Lband
15,40,2023-01-10 04:14:00.229,Lband
15,40,2023-01-10 04:15:00.300,Lband
15,40,2023-01-10 04:16:00.215,Lband
15,40,2023-01-10 04:17:00.271,Lband
15,40,2023-01-10 04:18:00.252,Lband
15,40,2023-01-10 04:19:00.192,Lband
15,40,2023-01-10 04:20:00.206,Lband
15,40,2023-01-10 04:21:00.246,Lband
15,40,2023-01-10 04:22:00.158,Lband
15,40,2023-01-10 04:23:00.248,Lband
15,40,2023-01-10 04:24:00.257,Lband
15,40,2023-01-10 04:25:00.202,Lband
15,40,2023-01-10 04:26:00.267,Lband
15,40,2023-01-10 04:27:00.243,Lband
15,40,2023-01-10 04:28:00.362,Lband
15,40,2023-01-10 04:29:00.295,Lband
15,40,2023-01-10 04:30:00.185,Lband
15,40,2023-01-10 04:31:00.297,Lband
15,40,2023-01-10 04:32:00.285,Lband
15,40,2023-01-10 04:33:00.308,Lband
15,40,2023-01-10 04:34:00.231,Lband
15,40,2023-01-10 04:35:00.244,Lband
15,40,2023-01-10 04:36:00.303,Lband
15,40,2023-01-10 04:37:00.220,Lband
15,40,2023-01-10 04:38:00.187,Lband
15,40,2023-01-10 04:39:00.200,Lband
15,40,2023-01-10 04:40:00.284,Lband
15,40,2023-01-10 04:41:00.234,Lband
15,40,2023-01-10 04:42:00.224,Lband
15,40,2023-01-10 04:43:00.291,Lband
15,40,2023-01-10 04:44:00.300,Lband
15,40,2023-01-10 04:45:00.317,Lband
15,40,2023-01-10 04:46:00.303,Lband
15,40,2023-01-10 04:47:00.201,Lband
15,40,2023-01-10 04:48:00.301,Lband
15,40,2023-01-10 04:49:00.184,Lband
15,40,2023-01-10 04:50:00.255,Lband
15,40,2023-01-10 04:51:00.215,Lband
15,40,2023-01-10 04:52:00.235,Lband
15,40,2023-01-10 04:53:00.307,Lband
15,40,2023-01-10 04:54:00.265,Lband
15,40,2023-01-10 04:55:00.250,Lband
15,40,2023-01-10 04:56:00.281,Lband
15,40,2023-01-10 04:57:00.404,Lband
15,40,2023-01-10 04:58:00.287,Lband
15,40,2023-01-10 04:59:00.193,Lband
15,40,2023-01-10 05:00:00.216,Lband
15,40,2023-01-10 05:01:00.289,Lband
15,40,2023-01-10 05:02:00.255,Lband
15,40,2023-01-10 05:03:00.294,Lband
15,40,2023-01-10 05:04:00.254,Lband
15,40,2023-01-10 05:05:00.297,Lband
15,40,2023-01-10 05:06:00.261,Lband
15,40,2023-01-10 05:07:00.259,Lband
15,40,2023-01-10 05:08:00.306,Lband
15,40,2023-01-10 05:09:00.141,Lband
15,40,2023-01-10 05:10:00.202,Lband
15,40,2023-01-10 05:11:00.214,Lband
15,40,2023-01-10 05:12:00.313,Lband
15,40,2023-01-10 05:13:00.200,Lband
15,40,2023-01-10 05:14:00.251,Lband
15,40,2023-01-10 05:15:00.193,Lband
15,40,2023-01-10 05:16:00.212,Lband
15,40,2023-01-10 05:17:00.258,Lband
15,40,2023-01-10 05:18:00.258,Lband
15,40,2023-01-10 05:19:00.247,Lband
15,40,2023-01-10 05:20:00.247,Lband
15,40,2023-01-10 05:21:00.201,Lband
15,40,2023-01-10 05:22:00.298,Lband
15,40,2023-01-10 05:23:00.234,Lband
15,40,2023-01-10 05:24:00.213,Lband
15,40,2023-01-10 05:25:00.293,Lband
15,40,2023-01-10 05:26:00.267,Lband
15,40,2023-01-10 05:27:00.297,Lband
15,40,2023-01-10 05:28:00.214,Lband
15,40,2023-01-10 05:29:00.246,Lband
15,40,2023-01-10 05:30:00.302,Lband
15,40,2023-01-10 05:31:00.323,Lband
15,40,2023-01-10 05:32:00.201,Lband
15,40,2023-01-10 05:33:00.305,Lband
15,40,2023-01-10 05:34:00.249,Lband
15,40,2023-01-10 05:35:00.303,Lband
15,40,2023-01-10 05:36:00.237,Lband
15,40,2023-01-10 05:37:00.293,Lband
15,40,2023-01-10 05:38:00.256,Lband
15,40,2023-01-10 05:39:00.198,Lband
15,40,2023-01-10 05:40:00.301,Lband
15,40,2023-01-10 05:41:00.201,Lband
15,40,2023-01-10 05:42:00.241,Lband
15,40,2023-01-10 05:43:00.260,Lband
15,40,2023-01-10 05:44:00.189,Lband
15,40,2023-01-10 05:45:00.254,Lband
15,40,2023-01-10 05:46:00.207,Lband
15,40,2023-01-10 05:47:00.309,Lband
15,40,2023-01-10 05:48:00.247,Lband
15,40,2023-01-10 05:49:00.313,Lband
15,40,2023-01-10 05:50:00.238,Lband
15,40,2023-01-10 05:51:00.247,Lband
15,40,2023-01-10 05:52:00.231,Lband
15,40,2023-01-10 05:53:00.231,Lband
15,40,2023-01-10 05:54:00.352,Lband
15,40,2023-01-10 05:55:00.254,Lband
15,40,2023-01-10 05:56:00.274,Lband
15,40,2023-01-10 05:57:00.181,Lband
15,40,2023-01-10 05:58:00.246,Lband
15,40,2023-01-10 05:59:00.194,Lband
15,40,2023-01-10 06:00:00.221,Lband
15,40,2023-01-10 06:01:00.255,Lband
15,40,2023-01-10 06:02:00.302,Lband
15,40,2023-01-10 06:03:00.242,Lband
15,40,2023-01-10 06:04:00.250,Lband
15,40,2023-01-10 06:05:00.253,Lband
15,40,2023-01-10 06:06:00.259,Lband
15,40,2023-01-10 06:07:00.267,Lband
15,40,2023-01-10 06:08:00.241,Lband
15,40,2023-01-10 06:09:00.240,Lband
15,40,2023-01-10 06:10:00.298,Lband
15,40,2023-01-10 06:11:00.258,Lband
15,40,2023-01-10 06:12:00.256,Lband
15,40,2023-01-10 06:13:00.245,Lband
15,40,2023-01-10 06:14:00.226,Lband
15,40,2023-01-10 06:15:00.292,Lband
15,40,2023-01-10 06:16:00.241,Lband
15,40,2023-01-10 06:17:00.251,Lband
15,40,2023-01-10 06:18:00.187,Lband
15,40,2023-01-10 06:19:00.267,Lband
15,40,2023-01-10 06:20:00.247,Lband
15,40,2023-01-10 06:21:00.196,Lband
15,40,2023-01-10 06:22:00.301,Lband
15,40,2023-01-10 06:23:00.233,Lband
15,40,2023-01-10 06:24:00.230,Lband
15,40,2023-01-10 06:25:00.242,Lband
15,40,2023-01-10 06:26:00.242,Lband
15,40,2023-01-10 06:27:00.261,Lband
15,40,2023-01-10 06:28:00.325,Lband
15,40,2023-01-10 06:29:00.265,Lband
15,40,2023-01-10 06:30:00.267,Lband
15,40,2023-01-10 06:31:00.232,Lband
15,40,2023-01-10 06:32:00.315,Lband
15,40,2023-01-10 06:33:00.192,Lband
15,40,2023-01-10 06:34:00.185,Lband
15,40,2023-01-10 06:35:00.293,Lband
15,40,2023-01-10 06:36:00.298,Lband
15,40,2023-01-10 06:37:00.314,Lband
15,40,2023-01-10 06:38:00.241,Lband
15,40,2023-01-10 06:39:00.178,Lband
15,40,2023-01-10 06:40:00.314,Lband
15,40,2023-01-10 06:41:00.197,Lband
15,40,2023-01-10 06:42:00.242,Lband
15,40,2023-01-10 06:43:00.318,Lband
15,40,2023-01-10 06:44:00.309,Lband
15,40,2023-01-10 06:45:00.283,Lband
15,40,2023-01-10 06:46:00.245,Lband
15,40,2023-01-10 06:47:00.303,Lband
15,40,2023-01-10 06:48:00.264,Lband
15,40,2023-01-10 06:49:00.301,Lband
15,40,2023-01-10 06:50:00.186,Lband
15,40,2023-01-10 06:51:00.236,Lband
15,40,2023-01-10 06:52:00.241,Lband
15,40,2023-01-10 06:53:00.441,Lband
15,40,2023-01-10 06:54:00.314,Lband
15,40,2023-01-10 06:55:00.299,Lband
15,40,2023-01-10 06:56:00.139,Lband
15,40,2023-01-10 06:57:00.255,Lband
15,40,2023-01-10 06:58:00.256,Lband
15,40,2023-01-10 06:59:00.253,Lband
15,40,2023-01-10 07:00:00.139,Lband
15,40,2023-01-10 07:01:00.290,Lband
15,40,2023-01-10 07:02:00.201,Lband
15,40,2023-01-10 07:03:00.293,Lband
15,40,2023-01-10 07:04:00.274,Lband
15,40,2023-01-10 07:05:00.267,Lband
15,40,2023-01-10 07:06:00.266,Lband
15,40,2023-01-10 07:07:00.279,Lband
15,40,2023-01-10 07:08:00.225,Lband
15,40,2023-01-10 07:09:00.265,Lband
15,40,2023-01-10 07:10:00.251,Lband
15,40,2023-01-10 07:11:00.247,Lband
15,40,2023-01-10 07:12:00.302,Lband
15,40,2023-01-10 07:13:00.294,Lband
15,40,2023-01-10 07:14:00.261,Lband
15,40,2023-01-10 07:15:00.241,Lband
15,40,2023-01-10 07:16:00.209,Lband
15,40,2023-01-10 07:17:00.290,Lband
15,40,2023-01-10 07:18:00.208,Lband
15,40,2023-01-10 07:19:00.277,Lband
15,40,2023-01-10 07:20:00.153,Lband
15,40,2023-01-10 07:21:00.251,Lband
15,40,2023-01-10 07:22:00.250,Lband
15,40,2023-01-10 07:23:00.278,Lband
15,40,2023-01-10 07:24:00.393,Lband
15,40,2023-01-10 07:25:00.252,Lband
15,40,2023-01-10 07:26:00.291,Lband
15,40,2023-01-10 07:27:00.207,Lband
15,40,2023-01-10 07:28:00.256,Lband
15,40,2023-01-10 07:29:00.254,Lband
15,40,2023-01-10 07:30:00.310,Lband
15,40,2023-01-10 07:31:00.237,Lband
15,40,2023-01-10 07:32:00.212,Lband
15,40,2023-01-10 07:33:00.220,Lband
15,40,2023-01-10 07:34:00.216,Lband
15,40,2023-01-10 07:35:00.311,Lband
15,40,2023-01-10 07:36:00.234,Lband
15,40,2023-01-10 07:37:00.242,Lband
15,40,2023-01-10 07:38:00.251,Lband
15,40,2023-01-10 07:39:00.204,Lband
15,40,2023-01-10 07:40:00.264,Lband
15,40,2023-01-10 07:41:00.262,Lband
15,40,2023-01-10 07:42:00.288,Lband
15,40,2023-01-10 07:43:00.186,Lband
15,40,2023-01-10 07:44:00.219,Lband
15,40,2023-01-10 07:45:00.303,Lband
15,40,2023-01-10 07:46:00.297,Lband
15,40,2023-01-10 07:47:00.226,Lband
15,40,2023-01-10 07:48:00.193,Lband
15,40,2023-01-10 07:49:00.311,Lband
15,40,2023-01-10 07:50:00.264,Lband
15,40,2023-01-10 07:51:00.176,Lband
15,40,2023-01-10 07:52:00.255,Lband
15,40,2023-01-10 07:53:00.415,Lband
15,40,2023-01-10 07:54:00.305,Lband
15,40,2023-01-10 07:55:00.241,Lband
15,40,2023-01-10 07:56:00.256,Lband
15,40,2023-01-10 07:57:00.224,Lband
15,40,2023-01-10 07:58:00.176,Lband
15,40,2023-01-10 07:59:00.315,Lband
15,40,2023-01-10 08:00:00.262,Lband
15,40,2023-01-10 08:01:00.232,Lband
15,40,2023-01-10 08:02:00.236,Lband
15,40,2023-01-10 08:03:00.337,Lband
15,40,2023-01-10 08:04:00.304,Lband
15,40,2023-01-10 08:05:00.248,Lband
15,40,2023-01-10 08:06:00.161,Lband
15,40,2023-01-10 08:07:00.190,Lband
15,40,2023-01-10 08:08:00.214,Lband
15,40,2023-01-10 08:09:00.296,Lband
15,40,2023-01-10 08:10:00.254,Lband
15,40,2023-01-10 08:11:00.294,Lband
15,40,2023-01-10 08:12:00.265,Lband
15,40,2023-01-10 08:13:00.252,Lband
15,40,2023-01-10 08:14:00.235,Lband
15,40,2023-01-10 08:15:00.238,Lband
15,40,2023-01-10 08:16:00.215,Lband
15,40,2023-01-10 08:17:00.279,Lband
15,40,2023-01-10 08:18:00.260,Lband
15,40,2023-01-10 08:19:00.323,Lband
15,40,2023-01-10 08:20:00.187,Lband
15,40,2023-01-10 08:21:00.317,Lband
15,40,2023-01-10 08:22:00.194,Lband
15,40,2023-01-10 08:23:00.244,Lband
15,40,2023-01-10 08:24:00.175,Lband
15,40,2023-01-10 08:25:00.249,Lband
15,40,2023-01-10 08:26:00.277,Lband
15,40,2023-01-10 08:27:00.261,Lband
15,40,2023-01-10 08:28:00.216,Lband
15,40,2023-01-10 08:29:00.304,Lband
15,41,2023-01-10 08:30:00.228,Lband
15,40,2023-01-10 08:31:00.271,Lband
15,41,2023-01-10 08:32:00.245,Lband
15,41,2023-01-10 08:33:00.264,Lband
15,41,2023-01-10 08:34:00.246,Lband
15,41,2023-01-10 08:35:00.310,Lband
15,41,2023-01-10 08:36:00.263,Lband
15,41,2023-01-10 08:37:00.260,Lband
15,41,2023-01-10 08:38:00.249,Lband
15,41,2023-01-10 08:39:00.237,Lband
15,41,2023-01-10 08:40:00.217,Lband
15,41,2023-01-10 08:41:00.251,Lband
15,41,2023-01-10 08:42:00.311,Lband
15,41,2023-01-10 08:43:00.253,Lband
15,41,2023-01-10 08:44:00.242,Lband
15,41,2023-01-10 08:45:00.292,Lband
15,41,2023-01-10 08:46:00.247,Lband
15,41,2023-01-10 08:47:00.250,Lband
15,41,2023-01-10 08:48:00.293,Lband
15,41,2023-01-10 08:49:00.257,Lband
15,41,2023-01-10 08:50:00.203,Lband
15,41,2023-01-10 08:51:00.289,Lband
15,41,2023-01-10 08:52:00.347,Lband
15,41,2023-01-10 08:53:00.273,Lband
15,41,2023-01-10 08:54:00.344,Lband
15,41,2023-01-10 08:55:00.368,Lband
15,41,2023-01-10 08:56:00.406,Lband
15,41,2023-01-10 08:57:00.314,Lband
15,41,2023-01-10 08:58:00.266,Lband
15,41,2023-01-10 08:59:00.358,Lband
15,41,2023-01-10 09:00:00.304,Lband
15,41,2023-01-10 09:01:00.329,Lband
15,41,2023-01-10 09:02:00.302,Lband
15,41,2023-01-10 09:03:00.273,Lband
15,41,2023-01-10 09:04:00.300,Lband
15,41,2023-01-10 09:05:00.319,Lband
15,41,2023-01-10 09:06:00.257,Lband
16,41,2023-01-10 09:07:00.303,Lband
16,41,2023-01-10 09:08:00.359,Lband
16,41,2023-01-10 09:09:00.205,Lband
16,41,2023-01-10 09:10:00.353,Lband
16,41,2023-01-10 09:11:00.207,Lband
16,41,2023-01-10 09:12:00.280,Lband
15,41,2023-01-10 09:13:00.309,Lband
16,41,2023-01-10 09:14:00.330,Lband
16,41,2023-01-10 09:15:00.330,Lband
15,41,2023-01-10 09:16:00.327,Lband
16,41,2023-01-10 09:17:00.254,Lband
16,41,2023-01-10 09:18:00.301,Lband
16,41,2023-01-10 09:19:00.266,Lband
16,41,2023-01-10 09:20:00.305,Lband
16,41,2023-01-10 09:21:00.362,Lband
16,41,2023-01-10 09:22:00.302,Lband
16,41,2023-01-10 09:23:00.327,Lband
16,41,2023-01-10 09:24:00.247,Lband
16,41,2023-01-10 09:25:00.306,Lband
16,41,2023-01-10 09:26:00.295,Lband
16,42,2023-01-10 09:27:00.344,Lband
16,41,2023-01-10 09:28:00.304,Lband
16,41,2023-01-10 09:29:00.313,Lband
16,42,2023-01-10 09:30:00.286,Lband
16,42,2023-01-10 09:31:00.260,Lband
16,42,2023-01-10 09:32:00.171,Lband
16,42,2023-01-10 09:33:00.245,Lband
16,42,2023-01-10 09:34:00.283,Lband
16,42,2023-01-10 09:35:00.240,Lband
16,42,2023-01-10 09:36:00.300,Lband
16,42,2023-01-10 09:37:00.364,Lband
16,42,2023-01-10 09:38:00.303,Lband
16,42,2023-01-10 09:39:00.334,Lband
16,42,2023-01-10 09:40:00.302,Lband
16,42,2023-01-10 09:41:00.323,Lband
16,42,2023-01-10 09:42:00.343,Lband
16,42,2023-01-10 09:43:00.278,Lband
16,42,2023-01-10 09:44:00.304,Lband
16,42,2023-01-10 09:45:00.335,Lband
16,42,2023-01-10 09:46:00.307,Lband
16,42,2023-01-10 09:47:00.350,Lband
16,42,2023-01-10 09:48:00.269,Lband
16,42,2023-01-10 09:49:00.319,Lband
16,42,2023-01-10 09:50:00.322,Lband
16,42,2023-01-10 09:51:00.255,Lband
16,42,2023-01-10 09:52:00.301,Lband
16,42,2023-01-10 09:53:00.295,Lband
16,42,2023-01-10 09:54:00.177,Lband
16,42,2023-01-10 09:55:00.267,Lband
16,42,2023-01-10 09:56:00.287,Lband
16,42,2023-01-10 09:57:00.288,Lband
16,42,2023-01-10 09:58:00.309,Lband
16,42,2023-01-10 09:59:00.325,Lband
16,42,2023-01-10 10:00:00.259,Lband
16,42,2023-01-10 10:01:00.310,Lband
16,42,2023-01-10 10:02:00.288,Lband
16,42,2023-01-10 10:03:00.313,Lband
16,42,2023-01-10 10:04:00.356,Lband
16,42,2023-01-10 10:05:00.175,Lband
16,42,2023-01-10 10:06:00.314,Lband
16,42,2023-01-10 10:07:00.243,Lband
16,42,2023-01-10 10:08:00.297,Lband
16,42,2023-01-10 10:09:00.262,Lband
16,42,2023-01-10 10:10:00.241,Lband
16,42,2023-01-10 10:11:00.238,Lband
16,42,2023-01-10 10:12:00.292,Lband
16,42,2023-01-10 10:13:00.301,Lband
16,42,2023-01-10 10:14:00.246,Lband
16,42,2023-01-10 10:15:00.278,Lband
16,42,2023-01-10 10:16:00.235,Lband
16,42,2023-01-10 10:17:00.275,Lband
16,42,2023-01-10 10:18:00.313,Lband
16,42,2023-01-10 10:19:00.280,Lband
16,42,2023-01-10 10:20:00.317,Lband
16,42,2023-01-10 10:21:00.299,Lband
16,42,2023-01-10 10:22:00.469,Lband
16,42,2023-01-10 10:23:00.307,Lband
16,42,2023-01-10 10:24:00.282,Lband
16,42,2023-01-10 10:25:00.266,Lband
16,42,2023-01-10 10:26:00.296,Lband
16,42,2023-01-10 10:27:00.307,Lband
16,42,2023-01-10 10:28:00.373,Lband
16,42,2023-01-10 10:29:00.259,Lband
16,42,2023-01-10 10:30:00.329,Lband
16,42,2023-01-10 10:31:00.260,Lband
16,42,2023-01-10 10:32:00.356,Lband
16,42,2023-01-10 10:33:00.243,Lband
16,42,2023-01-10 10:34:00.302,Lband
16,42,2023-01-10 10:35:00.285,Lband
16,42,2023-01-10 10:36:00.300,Lband
16,42,2023-01-10 10:37:00.294,Lband
16,42,2023-01-10 10:38:00.303,Lband
16,42,2023-01-10 10:39:00.333,Lband
16,42,2023-01-10 10:40:00.270,Lband
16,42,2023-01-10 10:41:00.313,Lband
16,42,2023-01-10 10:42:00.357,Lband
16,42,2023-01-10 10:43:00.361,Lband
16,42,2023-01-10 10:44:00.314,Lband
16,42,2023-01-10 10:45:00.302,Lband
16,42,2023-01-10 10:46:00.297,Lband
16,42,2023-01-10 10:47:00.266,Lband
16,42,2023-01-10 10:48:00.360,Lband
16,42,2023-01-10 10:49:00.230,Lband
16,42,2023-01-10 10:50:00.276,Lband
16,42,2023-01-10 10:51:00.330,Lband
16,42,2023-01-10 10:52:00.252,Lband
16,42,2023-01-10 10:53:00.375,Lband
16,42,2023-01-10 10:54:00.328,Lband
16,42,2023-01-10 10:55:00.311,Lband
16,42,2023-01-10 10:56:00.291,Lband
16,42,2023-01-10 10:57:00.343,Lband
16,42,2023-01-10 10:58:00.350,Lband
17,42,2023-01-10 10:59:00.291,Lband
17,42,2023-01-10 11:00:00.316,Lband
17,42,2023-01-10 11:01:00.291,Lband
17,42,2023-01-10 11:02:00.367,Lband
17,42,2023-01-10 11:03:00.317,Lband
17,42,2023-01-10 11:04:00.350,Lband
17,42,2023-01-10 11:05:00.296,Lband
17,42,2023-01-10 11:06:00.298,Lband
16,42,2023-01-10 11:07:00.230,Lband
16,42,2023-01-10 11:08:00.287,Lband
16,42,2023-01-10 11:09:00.333,Lband
17,42,2023-01-10 11:10:00.294,Lband
17,42,2023-01-10 11:11:00.368,Lband
17,42,2023-01-10 11:12:00.247,Lband
17,42,2023-01-10 11:13:00.291,Lband
17,42,2023-01-10 11:14:00.299,Lband
16,42,2023-01-10 11:15:00.242,Lband
16,42,2023-01-10 11:16:00.341,Lband
17,42,2023-01-10 11:17:00.307,Lband
17,42,2023-01-10 11:18:00.451,Lband
17,42,2023-01-10 11:19:00.386,Lband
16,42,2023-01-10 11:20:00.303,Lband
17,42,2023-01-10 11:21:00.292,Lband
17,42,2023-01-10 11:22:00.297,Lband
17,42,2023-01-10 11:23:00.229,Lband
17,42,2023-01-10 11:24:00.244,Lband
17,42,2023-01-10 11:25:00.359,Lband
17,42,2023-01-10 11:26:00.300,Lband
16,42,2023-01-10 11:27:00.354,Lband
16,42,2023-01-10 11:28:00.289,Lband
16,42,2023-01-10 11:29:00.359,Lband
16,42,2023-01-10 11:30:00.306,Lband
16,42,2023-01-10 11:31:00.310,Lband
17,42,2023-01-10 11:32:00.313,Lband
17,42,2023-01-10 11:33:00.261,Lband
17,42,2023-01-10 11:34:00.243,Lband
17,42,2023-01-10 11:35:00.277,Lband
17,42,2023-01-10 11:36:00.316,Lband
17,42,2023-01-10 11:37:00.303,Lband
17,42,2023-01-10 11:38:00.323,Lband
17,42,2023-01-10 11:39:00.264,Lband
17,42,2023-01-10 11:40:00.359,Lband
16,42,2023-01-10 11:41:00.320,Lband
17,42,2023-01-10 11:42:00.337,Lband
17,42,2023-01-10 11:43:00.290,Lband
17,42,2023-01-10 11:44:00.338,Lband
17,42,2023-01-10 11:45:00.368,Lband
17,42,2023-01-10 11:46:00.355,Lband
17,42,2023-01-10 11:47:00.304,Lband
16,42,2023-01-10 11:48:00.315,Lband
17,42,2023-01-10 11:49:00.301,Lband
17,42,2023-01-10 11:50:00.344,Lband
17,42,2023-01-10 11:51:00.323,Lband
17,42,2023-01-10 11:52:00.314,Lband
17,42,2023-01-10 11:53:00.290,Lband
17,42,2023-01-10 11:54:00.331,Lband
17,42,2023-01-10 11:55:00.310,Lband
17,42,2023-01-10 11:56:00.341,Lband
17,42,2023-01-10 11:57:00.307,Lband
17,42,2023-01-10 11:58:00.307,Lband
17,42,2023-01-10 11:59:00.324,Lband
17,42,2023-01-10 12:00:00.306,Lband
17,42,2023-01-10 12:01:00.353,Lband
17,42,2023-01-10 12:02:00.343,Lband
17,42,2023-01-10 12:03:00.335,Lband
17,42,2023-01-10 12:04:00.340,Lband
17,42,2023-01-10 12:05:00.279,Lband
17,42,2023-01-10 12:06:00.281,Lband
17,42,2023-01-10 12:07:00.301,Lband
17,42,2023-01-10 12:08:00.347,Lband
17,42,2023-01-10 12:09:00.304,Lband
17,42,2023-01-10 12:10:00.271,Lband
17,42,2023-01-10 12:11:00.241,Lband
17,42,2023-01-10 12:12:00.287,Lband
17,42,2023-01-10 12:13:00.434,Lband
17,42,2023-01-10 12:14:00.293,Lband
17,42,2023-01-10 12:15:00.274,Lband
17,42,2023-01-10 12:16:00.317,Lband
17,42,2023-01-10 12:17:00.342,Lband
17,42,2023-01-10 12:18:00.301,Lband
17,42,2023-01-10 12:19:00.299,Lband
17,42,2023-01-10 12:20:00.361,Lband
17,43,2023-01-10 12:21:00.296,Lband
17,42,2023-01-10 12:22:00.274,Lband
17,42,2023-01-10 12:23:00.303,Lband
17,43,2023-01-10 12:24:00.338,Lband
17,42,2023-01-10 12:25:00.349,Lband
17,42,2023-01-10 12:26:00.314,Lband
17,42,2023-01-10 12:27:00.304,Lband
17,43,2023-01-10 12:28:00.300,Lband
17,43,2023-01-10 12:29:00.339,Lband
17,42,2023-01-10 12:30:00.301,Lband
17,42,2023-01-10 12:31:00.347,Lband
17,43,2023-01-10 12:32:00.318,Lband
17,42,2023-01-10 12:33:00.314,Lband
17,43,2023-01-10 12:34:00.335,Lband
17,43,2023-01-10 12:35:00.287,Lband
17,43,2023-01-10 12:36:00.316,Lband
17,43,2023-01-10 12:37:00.263,Lband
17,43,2023-01-10 12:38:00.321,Lband
17,43,2023-01-10 12:39:00.269,Lband
17,43,2023-01-10 12:40:00.295,Lband
17,43,2023-01-10 12:41:00.341,Lband
17,43,2023-01-10 12:42:00.233,Lband
17,43,2023-01-10 12:43:00.271,Lband
17,43,2023-01-10 12:44:00.357,Lband
17,43,2023-01-10 12:45:00.337,Lband
17,43,2023-01-10 12:46:00.340,Lband
17,43,2023-01-10 12:47:00.304,Lband
17,43,2023-01-10 12:48:00.241,Lband
17,43,2023-01-10 12:49:00.268,Lband
17,43,2023-01-10 12:50:00.249,Lband
17,43,2023-01-10 12:51:00.302,Lband
17,43,2023-01-10 12:52:00.369,Lband
17,43,2023-01-10 12:53:00.298,Lband
17,43,2023-01-10 12:54:00.234,Lband
17,43,2023-01-10 12:55:00.236,Lband
17,43,2023-01-10 12:56:00.277,Lband
17,43,2023-01-10 12:57:00.350,Lband
17,43,2023-01-10 12:58:00.282,Lband
17,43,2023-01-10 12:59:00.314,Lband
17,43,2023-01-10 13:00:00.231,Lband
17,43,2023-01-10 13:01:00.313,Lband
17,43,2023-01-10 13:02:00.285,Lband
17,43,2023-01-10 13:03:00.233,Lband
17,43,2023-01-10 13:04:00.280,Lband
17,43,2023-01-10 13:05:00.244,Lband
17,43,2023-01-10 13:06:00.270,Lband
17,43,2023-01-10 13:07:00.284,Lband
17,43,2023-01-10 13:08:00.268,Lband
17,43,2023-01-10 13:09:00.411,Lband
17,43,2023-01-10 13:10:00.243,Lband
17,43,2023-01-10 13:11:00.284,Lband
17,43,2023-01-10 13:12:00.257,Lband
17,43,2023-01-10 13:13:00.321,Lband
17,43,2023-01-10 13:14:00.239,Lband
17,43,2023-01-10 13:15:00.328,Lband
17,43,2023-01-10 13:16:00.316,Lband
17,43,2023-01-10 13:17:00.234,Lband
17,43,2023-01-10 13:18:00.305,Lband
17,43,2023-01-10 13:19:00.336,Lband
17,43,2023-01-10 13:20:00.369,Lband
17,43,2023-01-10 13:21:00.306,Lband
17,43,2023-01-10 13:22:00.344,Lband
17,43,2023-01-10 13:23:00.346,Lband
17,43,2023-01-10 13:24:00.375,Lband
17,43,2023-01-10 13:25:00.250,Lband
17,43,2023-01-10 13:26:00.371,Lband
17,43,2023-01-10 13:27:00.225,Lband
17,43,2023-01-10 13:28:00.233,Lband
17,43,2023-01-10 13:29:00.305,Lband
17,43,2023-01-10 13:30:00.261,Lband
17,43,2023-01-10 13:31:00.247,Lband
17,43,2023-01-10 13:32:00.250,Lband
17,43,2023-01-10 13:33:00.235,Lband
17,43,2023-01-10 13:34:00.241,Lband
17,43,2023-01-10 13:35:00.304,Lband
17,43,2023-01-10 13:36:00.220,Lband
17,43,2023-01-10 13:37:00.272,Lband
17,43,2023-01-10 13:38:00.251,Lband
17,43,2023-01-10 13:39:00.300,Lband
17,44,2023-01-10 13:40:00.287,Lband
17,44,2023-01-10 13:41:00.330,Lband
17,44,2023-01-10 13:42:00.229,Lband
17,44,2023-01-10 13:43:00.397,Lband
17,44,2023-01-10 13:44:00.324,Lband
18,44,2023-01-10 13:45:00.290,Lband
18,44,2023-01-10 13:46:00.222,Lband
18,44,2023-01-10 13:47:00.340,Lband
18,44,2023-01-10 13:48:00.293,Lband
17,44,2023-01-10 13:49:00.243,Lband
18,44,2023-01-10 13:50:00.297,Lband
17,44,2023-01-10 13:51:00.272,Lband
18,44,2023-01-10 13:52:00.261,Lband
18,44,2023-01-10 13:53:00.301,Lband
18,44,2023-01-10 13:54:00.357,Lband
17,44,2023-01-10 13:55:00.255,Lband
18,44,2023-01-10 13:56:00.291,Lband
17,44,2023-01-10 13:57:00.343,Lband
18,44,2023-01-10 13:58:00.289,Lband
18,44,2023-01-10 13:59:00.257,Lband
18,44,2023-01-10 14:00:00.278,Lband
18,44,2023-01-10 14:01:00.223,Lband
18,44,2023-01-10 14:02:00.312,Lband
18,44,2023-01-10 14:03:00.239,Lband
18,44,2023-01-10 14:04:00.368,Lband
18,44,2023-01-10 14:05:00.272,Lband
18,44,2023-01-10 14:06:00.214,Lband
18,44,2023-01-10 14:07:00.231,Lband
18,44,2023-01-10 14:08:00.333,Lband
18,44,2023-01-10 14:09:00.280,Lband
18,44,2023-01-10 14:10:00.252,Lband
18,44,2023-01-10 14:11:00.274,Lband
18,44,2023-01-10 14:12:00.255,Lband
18,44,2023-01-10 14:13:00.267,Lband
18,44,2023-01-10 14:14:00.276,Lband
18,44,2023-01-10 14:15:00.298,Lband
18,44,2023-01-10 14:16:00.318,Lband
18,44,2023-01-10 14:17:00.318,Lband
18,44,2023-01-10 14:18:00.231,Lband
18,43,2023-01-10 14:19:00.283,Lband
18,43,2023-01-10 14:20:00.264,Lband
18,43,2023-01-10 14:21:00.266,Lband
18,43,2023-01-10 14:22:00.289,Lband
18,43,2023-01-10 14:23:00.288,Lband
18,43,2023-01-10 14:24:00.259,Lband
18,43,2023-01-10 14:25:00.246,Lband
18,43,2023-01-10 14:26:00.270,Lband
18,43,2023-01-10 14:27:00.252,Lband
18,43,2023-01-10 14:28:00.258,Lband
18,43,2023-01-10 14:29:00.262,Lband
18,43,2023-01-10 14:30:00.299,Lband
18,43,2023-01-10 14:31:00.208,Lband
18,43,2023-01-10 14:32:00.243,Lband
18,43,2023-01-10 14:33:00.283,Lband
18,43,2023-01-10 14:34:00.319,Lband
18,43,2023-01-10 14:35:00.303,Lband
18,43,2023-01-10 14:36:00.298,Lband
17,43,2023-01-10 14:37:00.288,Lband
18,43,2023-01-10 14:38:00.273,Lband
17,43,2023-01-10 14:39:00.257,Lband
18,43,2023-01-10 14:40:00.338,Lband
18,44,2023-01-10 14:41:00.298,Lband
18,43,2023-01-10 14:42:00.279,Lband
18,43,2023-01-10 14:43:00.235,Lband
18,43,2023-01-10 14:44:00.262,Lband
18,43,2023-01-10 14:45:00.260,Lband
18,43,2023-01-10 14:46:00.291,Lband
18,43,2023-01-10 14:47:00.315,Lband
18,43,2023-01-10 14:48:00.203,Lband
18,43,2023-01-10 14:49:00.339,Lband
18,43,2023-01-10 14:50:00.218,Lband
18,43,2023-01-10 14:51:00.360,Lband
18,43,2023-01-10 14:52:00.298,Lband
18,43,2023-01-10 14:53:00.214,Lband
18,43,2023-01-10 14:54:00.236,Lband
18,43,2023-01-10 14:55:00.274,Lband
18,43,2023-01-10 14:56:00.216,Lband
18,43,2023-01-10 14:57:00.265,Lband
18,43,2023-01-10 14:58:00.230,Lband
17,43,2023-01-10 14:59:00.253,Lband
18,43,2023-01-10 15:00:00.316,Lband
18,43,2023-01-10 15:01:00.289,Lband
18,43,2023-01-10 15:02:00.264,Lband
18,43,2023-01-10 15:03:00.237,Lband
18,43,2023-01-10 15:04:00.242,Lband
18,43,2023-01-10 15:05:00.211,Lband
17,43,2023-01-10 15:06:00.277,Lband
18,43,2023-01-10 15:07:00.277,Lband
18,43,2023-01-10 15:08:00.261,Lband
18,43,2023-01-10 15:09:00.237,Lband
18,43,2023-01-10 15:10:00.245,Lband
18,43,2023-01-10 15:11:00.238,Lband
18,43,2023-01-10 15:12:00.317,Lband
18,43,2023-01-10 15:13:00.282,Lband
18,43,2023-01-10 15:14:00.251,Lband
18,43,2023-01-10 15:15:00.315,Lband
18,43,2023-01-10 15:16:00.303,Lband
18,43,2023-01-10 15:17:00.300,Lband
18,43,2023-01-10 15:18:00.184,Lband
18,43,2023-01-10 15:19:00.243,Lband
18,43,2023-01-10 15:20:00.210,Lband
18,43,2023-01-10 15:21:00.256,Lband
18,43,2023-01-10 15:22:00.228,Lband
18,43,2023-01-10 15:23:00.270,Lband
18,43,2023-01-10 15:24:00.199,Lband
18,43,2023-01-10 15:25:00.199,Lband
18,43,2023-01-10 15:26:00.303,Lband
18,43,2023-01-10 15:27:00.264,Lband
18,43,2023-01-10 15:28:00.293,Lband
18,43,2023-01-10 15:29:00.260,Lband
18,43,2023-01-10 15:30:00.307,Lband
18,43,2023-01-10 15:31:00.304,Lband
18,43,2023-01-10 15:32:00.195,Lband
18,43,2023-01-10 15:33:00.307,Lband
18,43,2023-01-10 15:34:00.202,Lband
18,43,2023-01-10 15:35:00.242,Lband
18,43,2023-01-10 15:36:00.299,Lband
18,43,2023-01-10 15:37:00.267,Lband
18,43,2023-01-10 15:38:00.295,Lband
18,43,2023-01-10 15:39:00.235,Lband
18,43,2023-01-10 15:40:00.189,Lband
18,43,2023-01-10 15:41:00.248,Lband
18,43,2023-01-10 15:42:00.308,Lband
18,43,2023-01-10 15:43:00.225,Lband
18,43,2023-01-10 15:44:00.176,Lband
18,43,2023-01-10 15:45:00.270,Lband
18,43,2023-01-10 15:46:00.244,Lband
18,43,2023-01-10 15:47:00.225,Lband
18,43,2023-01-10 15:48:00.249,Lband
18,43,2023-01-10 15:49:00.215,Lband
18,43,2023-01-10 15:50:00.213,Lband
18,43,2023-01-10 15:51:00.214,Lband
18,43,2023-01-10 15:52:00.264,Lband
18,43,2023-01-10 15:53:00.300,Lband
18,43,2023-01-10 15:54:00.319,Lband
18,43,2023-01-10 15:55:00.247,Lband
18,43,2023-01-10 15:56:00.262,Lband
18,43,2023-01-10 15:57:00.259,Lband
18,43,2023-01-10 15:58:00.166,Lband
18,43,2023-01-10 15:59:00.236,Lband
18,43,2023-01-10 16:00:00.176,Lband
18,43,2023-01-10 16:01:00.229,Lband
18,43,2023-01-10 16:02:00.230,Lband
18,44,2023-01-10 16:03:00.352,Lband
18,43,2023-01-10 16:04:00.293,Lband
18,43,2023-01-10 16:05:00.308,Lband
18,43,2023-01-10 16:06:00.165,Lband
18,43,2023-01-10 16:07:00.294,Lband
18,43,2023-01-10 16:08:00.192,Lband
18,43,2023-01-10 16:09:00.307,Lband
18,43,2023-01-10 16:10:00.294,Lband
18,43,2023-01-10 16:11:00.210,Lband
18,43,2023-01-10 16:12:00.278,Lband
18,43,2023-01-10 16:13:00.257,Lband
18,43,2023-01-10 16:14:00.261,Lband
18,43,2023-01-10 16:15:00.274,Lband
18,43,2023-01-10 16:16:00.234,Lband
18,43,2023-01-10 16:17:00.211,Lband
18,43,2023-01-10 16:18:00.244,Lband
18,43,2023-01-10 16:19:00.239,Lband
17,43,2023-01-10 16:20:00.171,Lband
18,43,2023-01-10 16:21:00.312,Lband
18,43,2023-01-10 16:22:00.246,Lband
18,43,2023-01-10 16:23:00.180,Lband
18,43,2023-01-10 16:24:00.225,Lband
18,43,2023-01-10 16:25:00.259,Lband
18,43,2023-01-10 16:26:00.204,Lband
18,43,2023-01-10 16:27:00.256,Lband
18,43,2023-01-10 16:28:00.282,Lband
18,43,2023-01-10 16:29:00.246,Lband
18,43,2023-01-10 16:30:00.264,Lband
18,43,2023-01-10 16:31:00.190,Lband
18,43,2023-01-10 16:32:00.282,Lband
18,43,2023-01-10 16:33:00.222,Lband
18,43,2023-01-10 16:34:00.308,Lband
18,43,2023-01-10 16:35:00.289,Lband
18,43,2023-01-10 16:36:00.241,Lband
18,43,2023-01-10 16:37:00.302,Lband
18,43,2023-01-10 16:38:00.260,Lband
18,43,2023-01-10 16:39:00.266,Lband
18,43,2023-01-10 16:40:00.255,Lband
18,43,2023-01-10 16:41:00.216,Lband
18,43,2023-01-10 16:42:00.204,Lband
18,43,2023-01-10 16:43:00.285,Lband
18,43,2023-01-10 16:44:00.267,Lband
18,43,2023-01-10 16:45:00.255,Lband
18,43,2023-01-10 16:46:00.309,Lband
18,43,2023-01-10 16:47:00.192,Lband
18,43,2023-01-10 16:48:00.280,Lband
18,43,2023-01-10 16:49:00.226,Lband
18,43,2023-01-10 16:50:00.146,Lband
18,43,2023-01-10 16:51:00.256,Lband
18,43,2023-01-10 16:52:00.258,Lband
18,43,2023-01-10 16:53:00.197,Lband
18,43,2023-01-10 16:54:00.223,Lband
18,43,2023-01-10 16:55:00.242,Lband
18,43,2023-01-10 16:56:00.152,Lband
18,43,2023-01-10 16:57:00.237,Lband
18,43,2023-01-10 16:58:00.224,Lband
18,43,2023-01-10 16:59:00.290,Lband
18,43,2023-01-10 17:00:00.257,Lband
18,43,2023-01-10 17:01:00.230,Lband
18,43,2023-01-10 17:02:00.269,Lband
18,43,2023-01-10 17:03:00.188,Lband
18,43,2023-01-10 17:04:00.208,Lband
18,43,2023-01-10 17:05:00.224,Lband
18,43,2023-01-10 17:06:00.251,Lband
18,43,2023-01-10 17:07:00.222,Lband
18,43,2023-01-10 17:08:00.338,Lband
18,43,2023-01-10 17:09:00.186,Lband
18,43,2023-01-10 17:10:00.284,Lband
18,43,2023-01-10 17:11:00.202,Lband
18,43,2023-01-10 17:12:00.262,Lband
18,43,2023-01-10 17:13:00.300,Lband
18,43,2023-01-10 17:14:00.202,Lband
18,43,2023-01-10 17:15:00.210,Lband
18,43,2023-01-10 17:16:00.310,Lband
17,43,2023-01-10 17:17:00.313,Lband
18,43,2023-01-10 17:18:00.232,Lband
18,43,2023-01-10 17:19:00.301,Lband
18,43,2023-01-10 17:20:00.305,Lband
18,43,2023-01-10 17:21:00.208,Lband
18,43,2023-01-10 17:22:00.250,Lband
18,43,2023-01-10 17:23:00.203,Lband
18,43,2023-01-10 17:24:00.273,Lband
18,43,2023-01-10 17:25:00.245,Lband
18,43,2023-01-10 17:26:00.248,Lband
18,43,2023-01-10 17:27:00.192,Lband
18,44,2023-01-10 17:28:00.247,Lband
18,44,2023-01-10 17:29:00.297,Lband
18,44,2023-01-10 17:30:00.229,Lband
18,44,2023-01-10 17:31:00.283,Lband
18,44,2023-01-10 17:32:00.311,Lband
18,44,2023-01-10 17:33:00.293,Lband
18,44,2023-01-10 17:34:00.212,Lband
18,44,2023-01-10 17:35:00.332,Lband
18,44,2023-01-10 17:36:00.254,Lband
18,44,2023-01-10 17:37:00.157,Lband
18,44,2023-01-10 17:38:00.237,Lband
18,44,2023-01-10 17:39:00.299,Lband
18,44,2023-01-10 17:40:00.306,Lband
18,44,2023-01-10 17:41:00.288,Lband
18,44,2023-01-10 17:42:00.223,Lband
18,44,2023-01-10 17:43:00.145,Lband
18,44,2023-01-10 17:44:00.276,Lband
18,44,2023-01-10 17:45:00.234,Lband
18,43,2023-01-10 17:46:00.257,Lband
18,44,2023-01-10 17:47:00.241,Lband
18,44,2023-01-10 17:48:00.302,Lband
18,44,2023-01-10 17:49:00.243,Lband
18,44,2023-01-10 17:50:00.233,Lband
18,44,2023-01-10 17:51:00.184,Lband
18,44,2023-01-10 17:52:00.265,Lband
18,44,2023-01-10 17:53:00.231,Lband
18,44,2023-01-10 17:54:00.223,Lband
18,44,2023-01-10 17:55:00.250,Lband
18,43,2023-01-10 17:56:00.300,Lband
18,43,2023-01-10 17:57:00.259,Lband
18,43,2023-01-10 17:58:00.262,Lband
18,43,2023-01-10 17:59:00.258,Lband
18,43,2023-01-10 18:00:00.251,Lband
18,43,2023-01-10 18:01:00.255,Lband
18,43,2023-01-10 18:02:00.356,Lband
18,43,2023-01-10 18:03:00.306,Lband
18,43,2023-01-10 18:04:00.239,Lband
18,43,2023-01-10 18:05:00.309,Lband
18,43,2023-01-10 18:06:00.300,Lband
18,43,2023-01-10 18:07:00.284,Lband
18,43,2023-01-10 18:08:00.223,Lband
18,43,2023-01-10 18:09:00.250,Lband
18,43,2023-01-10 18:10:00.249,Lband
18,43,2023-01-10 18:11:00.286,Lband
18,43,2023-01-10 18:12:00.238,Lband
18,43,2023-01-10 18:13:00.223,Lband
18,43,2023-01-10 18:14:00.217,Lband
17,43,2023-01-10 18:15:00.298,Lband
18,43,2023-01-10 18:16:00.283,Lband
18,43,2023-01-10 18:17:00.251,Lband
18,43,2023-01-10 18:18:00.272,Lband
18,43,2023-01-10 18:19:00.186,Lband
18,43,2023-01-10 18:20:00.200,Lband
18,43,2023-01-10 18:21:00.227,Lband
18,43,2023-01-10 18:22:00.274,Lband
18,43,2023-01-10 18:23:00.288,Lband
18,43,2023-01-10 18:24:00.191,Lband
18,43,2023-01-10 18:25:00.312,Lband
18,43,2023-01-10 18:26:00.196,Lband
18,43,2023-01-10 18:27:00.320,Lband
18,43,2023-01-10 18:28:00.310,Lband
18,43,2023-01-10 18:29:00.261,Lband
18,43,2023-01-10 18:30:00.257,Lband
18,43,2023-01-10 18:31:00.250,Lband
18,43,2023-01-10 18:32:00.205,Lband
18,43,2023-01-10 18:33:00.185,Lband
18,43,2023-01-10 18:34:00.247,Lband
18,43,2023-01-10 18:35:00.225,Lband
17,43,2023-01-10 18:36:00.302,Lband
18,43,2023-01-10 18:37:00.252,Lband
18,43,2023-01-10 18:38:00.288,Lband
18,43,2023-01-10 18:39:00.257,Lband
18,43,2023-01-10 18:40:00.279,Lband
18,43,2023-01-10 18:41:00.303,Lband
18,43,2023-01-10 18:42:00.233,Lband
18,43,2023-01-10 18:43:00.227,Lband
18,43,2023-01-10 18:44:00.269,Lband
18,43,2023-01-10 18:45:00.153,Lband
18,43,2023-01-10 18:46:00.311,Lband
18,43,2023-01-10 18:47:00.190,Lband
18,43,2023-01-10 18:48:00.260,Lband
18,43,2023-01-10 18:49:00.311,Lband
18,43,2023-01-10 18:50:00.274,Lband
18,43,2023-01-10 18:51:00.253,Lband
17,43,2023-01-10 18:52:00.252,Lband
17,43,2023-01-10 18:53:00.229,Lband
17,43,2023-01-10 18:54:00.215,Lband
17,43,2023-01-10 18:55:00.246,Lband
17,43,2023-01-10 18:56:00.332,Lband
18,43,2023-01-10 18:57:00.300,Lband
17,42,2023-01-10 18:58:00.310,Lband
17,42,2023-01-10 18:59:00.329,Lband
17,43,2023-01-10 19:00:00.242,Lband
17,42,2023-01-10 19:01:00.268,Lband
17,42,2023-01-10 19:02:00.301,Lband
17,42,2023-01-10 19:03:00.262,Lband
17,42,2023-01-10 19:04:00.201,Lband
17,42,2023-01-10 19:05:00.284,Lband
17,42,2023-01-10 19:06:00.303,Lband
17,42,2023-01-10 19:07:00.187,Lband
17,42,2023-01-10 19:08:00.304,Lband
17,42,2023-01-10 19:09:00.245,Lband
17,42,2023-01-10 19:10:00.309,Lband
17,42,2023-01-10 19:11:00.232,Lband
17,42,2023-01-10 19:12:00.313,Lband
17,42,2023-01-10 19:13:00.275,Lband
17,42,2023-01-10 19:14:00.310,Lband
17,42,2023-01-10 19:15:00.256,Lband
17,42,2023-01-10 19:16:00.288,Lband
17,42,2023-01-10 19:17:00.242,Lband
17,42,2023-01-10 19:18:00.295,Lband
17,42,2023-01-10 19:19:00.311,Lband
17,42,2023-01-10 19:20:00.276,Lband
17,42,2023-01-10 19:21:00.206,Lband
17,42,2023-01-10 19:22:00.297,Lband
17,42,2023-01-10 19:23:00.211,Lband
17,42,2023-01-10 19:24:00.302,Lband
17,42,2023-01-10 19:25:00.259,Lband
17,42,2023-01-10 19:26:00.346,Lband
17,42,2023-01-10 19:27:00.261,Lband
17,42,2023-01-10 19:28:00.171,Lband
17,42,2023-01-10 19:29:00.265,Lband
17,42,2023-01-10 19:30:00.301,Lband
17,42,2023-01-10 19:31:00.306,Lband
17,42,2023-01-10 19:32:00.176,Lband
17,42,2023-01-10 19:33:00.261,Lband
17,42,2023-01-10 19:34:00.271,Lband
17,42,2023-01-10 19:35:00.256,Lband
17,42,2023-01-10 19:36:00.305,Lband
17,42,2023-01-10 19:37:00.267,Lband
17,42,2023-01-10 19:38:00.304,Lband
17,42,2023-01-10 19:39:00.306,Lband
17,42,2023-01-10 19:40:00.239,Lband
17,42,2023-01-10 19:41:00.250,Lband
17,42,2023-01-10 19:42:00.279,Lband
17,42,2023-01-10 19:43:00.277,Lband
17,42,2023-01-10 19:44:00.223,Lband
17,42,2023-01-10 19:45:00.336,Lband
17,42,2023-01-10 19:46:00.262,Lband
17,42,2023-01-10 19:47:00.255,Lband
17,42,2023-01-10 19:48:00.274,Lband
17,42,2023-01-10 19:49:00.243,Lband
17,42,2023-01-10 19:50:00.301,Lband
17,42,2023-01-10 19:51:00.242,Lband
17,42,2023-01-10 19:52:00.312,Lband
17,42,2023-01-10 19:53:00.268,Lband
17,42,2023-01-10 19:54:00.283,Lband
17,42,2023-01-10 19:55:00.250,Lband
17,42,2023-01-10 19:56:00.301,Lband
17,42,2023-01-10 19:57:00.311,Lband
17,42,2023-01-10 19:58:00.251,Lband
17,42,2023-01-10 19:59:00.188,Lband
17,42,2023-01-10 20:00:00.262,Lband
17,42,2023-01-10 20:01:00.285,Lband
17,42,2023-01-10 20:02:00.235,Lband
17,42,2023-01-10 20:03:00.346,Lband
17,42,2023-01-10 20:04:00.236,Lband
17,42,2023-01-10 20:05:00.246,Lband
17,42,2023-01-10 20:06:00.242,Lband
17,42,2023-01-10 20:07:00.275,Lband
17,42,2023-01-10 20:08:00.208,Lband
17,42,2023-01-10 20:09:00.246,Lband
17,42,2023-01-10 20:10:00.188,Lband
17,42,2023-01-10 20:11:00.266,Lband
17,42,2023-01-10 20:12:00.236,Lband
17,42,2023-01-10 20:13:00.296,Lband
17,42,2023-01-10 20:14:00.262,Lband
17,42,2023-01-10 20:15:00.286,Lband
17,42,2023-01-10 20:16:00.246,Lband
17,42,2023-01-10 20:17:00.262,Lband
17,42,2023-01-10 20:18:00.191,Lband
17,42,2023-01-10 20:19:00.236,Lband
17,42,2023-01-10 20:20:00.254,Lband
17,42,2023-01-10 20:21:00.322,Lband
17,42,2023-01-10 20:22:00.190,Lband
17,42,2023-01-10 20:23:00.292,Lband
17,42,2023-01-10 20:24:00.286,Lband
17,42,2023-01-10 20:25:00.402,Lband
17,42,2023-01-10 20:26:00.251,Lband
17,42,2023-01-10 20:27:00.195,Lband
17,42,2023-01-10 20:28:00.257,Lband
17,42,2023-01-10 20:29:00.254,Lband
17,42,2023-01-10 20:30:00.258,Lband
17,42,2023-01-10 20:31:00.226,Lband
17,42,2023-01-10 20:32:00.310,Lband
17,42,2023-01-10 20:33:00.305,Lband
17,42,2023-01-10 20:34:00.245,Lband
17,42,2023-01-10 20:35:00.294,Lband
17,42,2023-01-10 20:36:00.183,Lband
17,42,2023-01-10 20:37:00.272,Lband
17,42,2023-01-10 20:38:00.219,Lband
17,42,2023-01-10 20:39:00.300,Lband
17,42,2023-01-10 20:40:00.227,Lband
17,42,2023-01-10 20:41:00.258,Lband
17,42,2023-01-10 20:42:00.237,Lband
17,42,2023-01-10 20:43:00.200,Lband
17,42,2023-01-10 20:44:00.181,Lband
17,42,2023-01-10 20:45:00.252,Lband
17,42,2023-01-10 20:46:00.300,Lband
17,41,2023-01-10 20:47:00.303,Lband
17,41,2023-01-10 20:48:00.255,Lband
17,41,2023-01-10 20:49:00.225,Lband
17,42,2023-01-10 20:50:00.244,Lband
17,41,2023-01-10 20:51:00.253,Lband
17,41,2023-01-10 20:52:00.204,Lband
16,42,2023-01-10 20:53:00.199,Lband
16,42,2023-01-10 20:54:00.255,Lband
17,41,2023-01-10 20:55:00.220,Lband
17,41,2023-01-10 20:56:00.307,Lband
17,41,2023-01-10 20:57:00.305,Lband
17,41,2023-01-10 20:58:00.293,Lband
17,41,2023-01-10 20:59:00.278,Lband
16,41,2023-01-10 21:00:00.301,Lband
16,41,2023-01-10 21:01:00.302,Lband
16,41,2023-01-10 21:02:00.325,Lband
17,41,2023-01-10 21:03:00.301,Lband
17,41,2023-01-10 21:04:00.249,Lband
17,42,2023-01-10 21:05:00.164,Lband
17,42,2023-01-10 21:06:00.278,Lband
17,42,2023-01-10 21:07:00.283,Lband
16,42,2023-01-10 21:08:00.217,Lband
16,42,2023-01-10 21:09:00.295,Lband
16,42,2023-01-10 21:10:00.306,Lband
16,41,2023-01-10 21:11:00.219,Lband
16,41,2023-01-10 21:12:00.257,Lband
16,41,2023-01-10 21:13:00.249,Lband
16,41,2023-01-10 21:14:00.306,Lband
16,41,2023-01-10 21:15:00.317,Lband
16,41,2023-01-10 21:16:00.267,Lband
16,41,2023-01-10 21:17:00.224,Lband
16,41,2023-01-10 21:18:00.312,Lband
16,42,2023-01-10 21:19:00.303,Lband
16,41,2023-01-10 21:20:00.267,Lband
16,41,2023-01-10 21:21:00.214,Lband
16,41,2023-01-10 21:22:00.304,Lband
16,42,2023-01-10 21:23:00.252,Lband
16,42,2023-01-10 21:24:00.282,Lband
16,41,2023-01-10 21:25:00.254,Lband
16,41,2023-01-10 21:26:00.305,Lband
16,42,2023-01-10 21:27:00.256,Lband
16,41,2023-01-10 21:28:00.300,Lband
16,41,2023-01-10 21:29:00.235,Lband
16,41,2023-01-10 21:30:00.216,Lband
16,41,2023-01-10 21:31:00.252,Lband
16,41,2023-01-10 21:32:00.214,Lband
16,41,2023-01-10 21:33:00.188,Lband
16,41,2023-01-10 21:34:00.246,Lband
16,41,2023-01-10 21:35:00.271,Lband
16,41,2023-01-10 21:36:00.319,Lband
16,41,2023-01-10 21:37:00.222,Lband
16,41,2023-01-10 21:38:00.248,Lband
16,41,2023-01-10 21:39:00.248,Lband
16,41,2023-01-10 21:40:00.338,Lband
16,42,2023-01-10 21:41:00.295,Lband
16,41,2023-01-10 21:42:00.180,Lband
16,41,2023-01-10 21:43:00.309,Lband
16,41,2023-01-10 21:44:00.276,Lband
16,41,2023-01-10 21:45:00.193,Lband
16,41,2023-01-10 21:46:00.251,Lband
16,41,2023-01-10 21:47:00.243,Lband
16,41,2023-01-10 21:48:00.300,Lband
16,41,2023-01-10 21:49:00.262,Lband
16,41,2023-01-10 21:50:00.293,Lband
16,41,2023-01-10 21:51:00.261,Lband
16,41,2023-01-10 21:52:00.280,Lband
16,41,2023-01-10 21:53:00.220,Lband
16,41,2023-01-10 21:54:00.277,Lband
16,41,2023-01-10 21:55:00.240,Lband
16,41,2023-01-10 21:56:00.220,Lband
16,41,2023-01-10 21:57:00.257,Lband
16,41,2023-01-10 21:58:00.256,Lband
16,41,2023-01-10 21:59:00.240,Lband
16,41,2023-01-10 22:00:00.306,Lband
16,41,2023-01-10 22:01:00.267,Lband
16,41,2023-01-10 22:02:00.294,Lband
16,41,2023-01-10 22:03:00.291,Lband
16,41,2023-01-10 22:04:00.202,Lband
16,41,2023-01-10 22:05:00.259,Lband
16,41,2023-01-10 22:06:00.267,Lband
16,41,2023-01-10 22:07:00.220,Lband
16,41,2023-01-10 22:08:00.250,Lband
16,41,2023-01-10 22:09:00.316,Lband
16,41,2023-01-10 22:10:00.260,Lband
16,41,2023-01-10 22:11:00.219,Lband
16,41,2023-01-10 22:12:00.228,Lband
16,41,2023-01-10 22:13:00.264,Lband
16,41,2023-01-10 22:14:00.264,Lband
16,41,2023-01-10 22:15:00.262,Lband
16,41,2023-01-10 22:16:00.197,Lband
16,41,2023-01-10 22:17:00.309,Lband
16,41,2023-01-10 22:18:00.246,Lband
16,41,2023-01-10 22:19:00.229,Lband
16,41,2023-01-10 22:20:00.303,Lband
16,41,2023-01-10 22:21:00.260,Lband
16,41,2023-01-10 22:22:00.407,Lband
16,41,2023-01-10 22:23:00.257,Lband
16,41,2023-01-10 22:24:00.255,Lband
16,41,2023-01-10 22:25:00.308,Lband
16,41,2023-01-10 22:26:00.243,Lband
16,41,2023-01-10 22:27:00.295,Lband
16,41,2023-01-10 22:28:00.208,Lband
16,41,2023-01-10 22:29:00.224,Lband
16,41,2023-01-10 22:30:00.238,Lband
16,41,2023-01-10 22:31:00.261,Lband
16,41,2023-01-10 22:32:00.282,Lband
16,41,2023-01-10 22:33:00.229,Lband
16,41,2023-01-10 22:34:00.187,Lband
16,41,2023-01-10 22:35:00.311,Lband
16,41,2023-01-10 22:36:00.245,Lband
16,41,2023-01-10 22:37:00.258,Lband
16,41,2023-01-10 22:38:00.294,Lband
16,41,2023-01-10 22:39:00.234,Lband
16,41,2023-01-10 22:40:00.141,Lband
16,41,2023-01-10 22:41:00.255,Lband
16,41,2023-01-10 22:42:00.306,Lband
16,41,2023-01-10 22:43:00.197,Lband
16,41,2023-01-10 22:44:00.248,Lband
16,41,2023-01-10 22:45:00.254,Lband
16,41,2023-01-10 22:46:00.255,Lband
16,41,2023-01-10 22:47:00.177,Lband
16,41,2023-01-10 22:48:00.237,Lband
16,41,2023-01-10 22:49:00.308,Lband
16,41,2023-01-10 22:50:00.219,Lband
16,41,2023-01-10 22:51:00.272,Lband
16,41,2023-01-10 22:52:00.290,Lband
16,41,2023-01-10 22:53:00.246,Lband
16,41,2023-01-10 22:54:00.312,Lband
16,41,2023-01-10 22:55:00.288,Lband
16,41,2023-01-10 22:56:00.279,Lband
16,41,2023-01-10 22:57:00.219,Lband
16,41,2023-01-10 22:58:00.250,Lband
16,41,2023-01-10 22:59:00.246,Lband
16,41,2023-01-10 23:00:00.261,Lband
16,41,2023-01-10 23:01:00.198,Lband
16,41,2023-01-10 23:02:00.252,Lband
16,41,2023-01-10 23:03:00.199,Lband
16,41,2023-01-10 23:04:00.245,Lband
16,41,2023-01-10 23:05:00.253,Lband
16,41,2023-01-10 23:06:00.289,Lband
16,41,2023-01-10 23:07:00.258,Lband
16,41,2023-01-10 23:08:00.279,Lband
16,41,2023-01-10 23:09:00.309,Lband
16,41,2023-01-10 23:10:00.163,Lband
16,41,2023-01-10 23:11:00.207,Lband
16,41,2023-01-10 23:12:00.301,Lband
16,41,2023-01-10 23:13:00.197,Lband
16,41,2023-01-10 23:14:00.304,Lband
16,41,2023-01-10 23:15:00.184,Lband
16,41,2023-01-10 23:16:00.253,Lband
16,41,2023-01-10 23:17:00.258,Lband
16,41,2023-01-10 23:18:00.283,Lband
16,41,2023-01-10 23:19:00.248,Lband
16,41,2023-01-10 23:20:00.224,Lband
16,41,2023-01-10 23:21:00.300,Lband
16,41,2023-01-10 23:22:00.260,Lband
16,41,2023-01-10 23:23:00.184,Lband
16,41,2023-01-10 23:24:00.205,Lband
16,41,2023-01-10 23:25:00.296,Lband
16,41,2023-01-10 23:26:00.287,Lband
16,41,2023-01-10 23:27:00.190,Lband
16,41,2023-01-10 23:28:00.291,Lband
16,42,2023-01-10 23:29:00.246,Lband
16,42,2023-01-10 23:30:00.199,Lband
16,42,2023-01-10 23:31:00.232,Lband
16,42,2023-01-10 23:32:00.196,Lband
16,42,2023-01-10 23:33:00.188,Lband
17,42,2023-01-10 23:34:00.209,Lband
16,42,2023-01-10 23:35:00.186,Lband
16,42,2023-01-10 23:36:00.209,Lband
16,42,2023-01-10 23:37:00.230,Lband
16,42,2023-01-10 23:38:00.234,Lband
16,42,2023-01-10 23:39:00.252,Lband
16,42,2023-01-10 23:40:00.250,Lband
16,42,2023-01-10 23:41:00.299,Lband
16,42,2023-01-10 23:42:00.199,Lband
16,42,2023-01-10 23:43:00.274,Lband
17,42,2023-01-10 23:44:00.229,Lband
17,42,2023-01-10 23:45:00.352,Lband
17,42,2023-01-10 23:46:00.231,Lband
17,42,2023-01-10 23:47:00.343,Lband
17,42,2023-01-10 23:48:00.241,Lband
17,42,2023-01-10 23:49:00.306,Lband
17,42,2023-01-10 23:50:00.258,Lband
17,43,2023-01-10 23:51:00.236,Lband
17,42,2023-01-10 23:52:00.297,Lband
17,43,2023-01-10 23:53:00.309,Lband
16,42,2023-01-10 23:54:00.211,Lband
16,42,2023-01-10 23:55:00.279,Lband
16,43,2023-01-10 23:56:00.263,Lband
17,43,2023-01-10 23:57:00.280,Lband
17,43,2023-01-10 23:58:00.216,Lband
17,43,2023-01-10 23:59:00.301,Lband
