T15,T70,date,sensorName
296,297,2023-01-03 13:50:01.075,Lband
296,297,2023-01-03 13:51:00.391,Lband
296,297,2023-01-03 13:52:00.580,Lband
296,297,2023-01-03 13:53:00.289,Lband
296,297,2023-01-03 13:54:00.607,Lband
296,297,2023-01-03 13:55:00.267,Lband
294,296,2023-01-03 13:56:00.520,Lband
291,294,2023-01-03 13:57:00.274,Lband
289,292,2023-01-03 13:58:00.662,Lband
288,290,2023-01-03 13:59:00.287,Lband
286,288,2023-01-03 14:00:00.607,Lband
285,286,2023-01-03 14:01:00.257,Lband
283,284,2023-01-03 14:02:00.623,Lband
282,282,2023-01-03 14:03:00.251,Lband
281,280,2023-01-03 14:04:00.609,Lband
280,278,2023-01-03 14:05:00.207,Lband
279,276,2023-01-03 14:06:00.703,Lband
278,275,2023-01-03 14:07:00.181,Lband
277,273,2023-01-03 14:08:00.621,Lband
276,271,2023-01-03 14:09:00.261,Lband
275,270,2023-01-03 14:10:00.677,Lband
274,268,2023-01-03 14:11:00.298,Lband
273,267,2023-01-03 14:12:00.717,Lband
272,265,2023-01-03 14:13:00.253,Lband
271,263,2023-01-03 14:14:00.615,Lband
271,262,2023-01-03 14:15:00.309,Lband
270,260,2023-01-03 14:16:00.601,Lband
269,259,2023-01-03 14:17:00.208,Lband
268,258,2023-01-03 14:18:00.663,Lband
267,256,2023-01-03 14:19:00.312,Lband
267,255,2023-01-03 14:20:00.595,Lband
266,254,2023-01-03 14:21:00.313,Lband
265,252,2023-01-03 14:22:00.582,Lband
265,251,2023-01-03 14:23:00.307,Lband
264,250,2023-01-03 14:24:00.672,Lband
263,248,2023-01-03 14:25:00.228,Lband
263,247,2023-01-03 14:26:00.557,Lband
262,246,2023-01-03 14:27:00.297,Lband
261,244,2023-01-03 14:28:00.574,Lband
260,243,2023-01-03 14:29:00.242,Lband
260,242,2023-01-03 14:30:00.638,Lband
259,240,2023-01-03 14:31:00.186,Lband
258,239,2023-01-03 14:32:00.581,Lband
258,238,2023-01-03 14:33:00.261,Lband
257,237,2023-01-03 14:34:00.594,Lband
256,235,2023-01-03 14:35:00.253,Lband
256,234,2023-01-03 14:36:00.594,Lband
255,233,2023-01-03 14:37:00.195,Lband
254,231,2023-01-03 14:38:00.586,Lband
254,230,2023-01-03 14:39:00.210,Lband
253,229,2023-01-03 14:40:00.672,Lband
252,228,2023-01-03 14:41:00.238,Lband
252,226,2023-01-03 14:42:00.646,Lband
251,225,2023-01-03 14:43:00.189,Lband
250,224,2023-01-03 14:44:00.649,Lband
250,223,2023-01-03 14:45:00.198,Lband
249,221,2023-01-03 14:46:00.612,Lband
248,220,2023-01-03 14:47:00.249,Lband
248,219,2023-01-03 14:48:00.582,Lband
247,218,2023-01-03 14:49:00.205,Lband
246,217,2023-01-03 14:50:00.669,Lband
246,216,2023-01-03 14:51:00.252,Lband
245,214,2023-01-03 14:52:00.631,Lband
245,213,2023-01-03 14:53:00.298,Lband
244,212,2023-01-03 14:54:00.601,Lband
243,211,2023-01-03 14:55:00.226,Lband
243,210,2023-01-03 14:56:00.699,Lband
242,209,2023-01-03 14:57:00.209,Lband
241,207,2023-01-03 14:58:00.648,Lband
241,206,2023-01-03 14:59:00.265,Lband
240,205,2023-01-03 15:00:00.598,Lband
239,204,2023-01-03 15:01:00.307,Lband
239,203,2023-01-03 15:02:00.572,Lband
238,202,2023-01-03 15:03:00.160,Lband
237,201,2023-01-03 15:04:00.650,Lband
237,200,2023-01-03 15:05:00.247,Lband
236,199,2023-01-03 15:06:00.662,Lband
235,198,2023-01-03 15:07:00.246,Lband
235,197,2023-01-03 15:08:00.556,Lband
234,196,2023-01-03 15:09:00.186,Lband
234,195,2023-01-03 15:10:00.642,Lband
233,194,2023-01-03 15:11:00.292,Lband
232,192,2023-01-03 15:12:00.653,Lband
232,191,2023-01-03 15:13:00.261,Lband
231,190,2023-01-03 15:14:00.580,Lband
230,189,2023-01-03 15:15:00.260,Lband
230,188,2023-01-03 15:16:00.638,Lband
229,187,2023-01-03 15:17:00.270,Lband
228,186,2023-01-03 15:18:00.585,Lband
228,185,2023-01-03 15:19:00.233,Lband
227,184,2023-01-03 15:20:00.624,Lband
227,183,2023-01-03 15:21:00.226,Lband
226,182,2023-01-03 15:22:00.615,Lband
225,181,2023-01-03 15:23:00.302,Lband
225,180,2023-01-03 15:24:00.580,Lband
224,179,2023-01-03 15:25:00.143,Lband
224,178,2023-01-03 15:26:00.599,Lband
223,177,2023-01-03 15:27:00.266,Lband
222,176,2023-01-03 15:28:00.592,Lband
222,175,2023-01-03 15:29:00.292,Lband
221,174,2023-01-03 15:30:00.586,Lband
220,174,2023-01-03 15:31:00.288,Lband
220,173,2023-01-03 15:32:00.575,Lband
219,172,2023-01-03 15:33:00.224,Lband
219,171,2023-01-03 15:34:00.612,Lband
218,170,2023-01-03 15:35:00.298,Lband
217,169,2023-01-03 15:36:00.585,Lband
217,168,2023-01-03 15:37:00.252,Lband
216,167,2023-01-03 15:38:00.577,Lband
216,166,2023-01-03 15:39:00.192,Lband
215,165,2023-01-03 15:40:00.606,Lband
214,165,2023-01-03 15:41:00.287,Lband
214,164,2023-01-03 15:42:00.662,Lband
213,163,2023-01-03 15:43:00.200,Lband
212,162,2023-01-03 15:44:00.607,Lband
212,161,2023-01-03 15:45:00.265,Lband
211,160,2023-01-03 15:46:00.669,Lband
211,159,2023-01-03 15:47:00.212,Lband
210,159,2023-01-03 15:48:00.718,Lband
209,158,2023-01-03 15:49:00.375,Lband
209,157,2023-01-03 15:50:00.593,Lband
208,156,2023-01-03 15:51:00.258,Lband
207,155,2023-01-03 15:52:00.595,Lband
207,155,2023-01-03 15:53:00.205,Lband
206,154,2023-01-03 15:54:00.620,Lband
206,153,2023-01-03 15:55:00.306,Lband
205,152,2023-01-03 15:56:00.597,Lband
205,151,2023-01-03 15:57:00.255,Lband
204,151,2023-01-03 15:58:00.713,Lband
203,150,2023-01-03 15:59:00.300,Lband
203,149,2023-01-03 16:00:00.616,Lband
202,148,2023-01-03 16:01:00.297,Lband
202,148,2023-01-03 16:02:00.719,Lband
201,147,2023-01-03 16:03:00.249,Lband
200,146,2023-01-03 16:04:00.581,Lband
200,145,2023-01-03 16:05:00.265,Lband
199,145,2023-01-03 16:06:00.538,Lband
198,144,2023-01-03 16:07:00.299,Lband
198,143,2023-01-03 16:08:00.626,Lband
197,142,2023-01-03 16:09:00.219,Lband
197,142,2023-01-03 16:10:00.599,Lband
196,141,2023-01-03 16:11:00.268,Lband
196,140,2023-01-03 16:12:00.603,Lband
195,140,2023-01-03 16:13:00.261,Lband
194,139,2023-01-03 16:14:00.624,Lband
194,138,2023-01-03 16:15:00.220,Lband
193,137,2023-01-03 16:16:00.640,Lband
193,137,2023-01-03 16:17:00.184,Lband
192,136,2023-01-03 16:18:00.598,Lband
192,135,2023-01-03 16:19:00.237,Lband
191,135,2023-01-03 16:20:00.662,Lband
190,134,2023-01-03 16:21:00.206,Lband
190,133,2023-01-03 16:22:00.552,Lband
189,133,2023-01-03 16:23:00.197,Lband
189,132,2023-01-03 16:24:00.644,Lband
188,132,2023-01-03 16:25:00.247,Lband
187,131,2023-01-03 16:28:10.081,Lband
186,129,2023-01-03 16:29:00.568,Lband
185,128,2023-01-03 16:30:00.341,Lband
185,128,2023-01-03 16:33:11.137,Lband
183,126,2023-01-03 16:34:00.589,Lband
182,125,2023-01-03 16:35:00.333,Lband
182,125,2023-01-03 16:36:00.592,Lband
181,124,2023-01-03 16:37:00.344,Lband
181,124,2023-01-03 16:38:00.555,Lband
180,123,2023-01-03 16:39:00.224,Lband
180,122,2023-01-03 16:42:09.761,Lband
178,121,2023-01-03 16:43:00.578,Lband
177,120,2023-01-03 16:44:00.262,Lband
177,119,2023-01-03 16:45:00.582,Lband
176,119,2023-01-03 16:46:00.331,Lband
176,118,2023-01-03 16:47:00.675,Lband
175,118,2023-01-03 16:48:00.190,Lband
175,117,2023-01-03 16:49:00.623,Lband
174,116,2023-01-03 16:50:00.325,Lband
173,116,2023-01-03 16:51:00.569,Lband
173,115,2023-01-03 16:52:00.321,Lband
172,115,2023-01-03 16:53:00.616,Lband
172,114,2023-01-03 16:54:00.358,Lband
171,114,2023-01-03 16:55:00.699,Lband
171,113,2023-01-03 16:56:00.244,Lband
170,113,2023-01-03 16:59:09.665,Lband
169,111,2023-01-03 17:00:00.754,Lband
168,110,2023-01-03 17:01:00.393,Lband
167,110,2023-01-03 17:04:10.721,Lband
166,108,2023-01-03 17:05:00.687,Lband
165,108,2023-01-03 17:06:00.353,Lband
165,107,2023-01-03 17:07:00.680,Lband
164,107,2023-01-03 17:08:00.201,Lband
164,106,2023-01-03 17:11:10.561,Lband
162,105,2023-01-03 17:12:00.577,Lband
162,104,2023-01-03 17:13:00.302,Lband
161,104,2023-01-03 17:14:00.623,Lband
161,103,2023-01-03 17:15:00.362,Lband
160,103,2023-01-03 17:16:00.653,Lband
160,102,2023-01-03 17:17:00.301,Lband
159,102,2023-01-03 17:20:11.233,Lband
158,100,2023-01-03 17:23:11.457,Lband
156,99,2023-01-03 17:24:00.704,Lband
155,98,2023-01-03 17:25:00.365,Lband
155,98,2023-01-03 17:28:10.465,Lband
153,96,2023-01-03 17:29:00.577,Lband
153,96,2023-01-03 17:30:00.207,Lband
152,96,2023-01-03 17:31:00.694,Lband
152,95,2023-01-03 17:32:00.192,Lband
151,95,2023-01-03 17:33:00.815,Lband
151,95,2023-01-03 17:34:00.313,Lband
150,94,2023-01-03 17:35:00.646,Lband
150,94,2023-01-03 17:36:00.352,Lband
149,93,2023-01-03 17:37:00.668,Lband
149,93,2023-01-03 17:38:00.370,Lband
148,93,2023-01-03 17:41:10.753,Lband
147,91,2023-01-03 17:42:00.641,Lband
146,91,2023-01-03 17:43:00.218,Lband
146,91,2023-01-03 17:44:00.528,Lband
145,90,2023-01-03 17:45:00.246,Lband
145,90,2023-01-03 17:48:10.593,Lband
144,89,2023-01-03 17:51:10.817,Lband
142,88,2023-01-03 17:52:00.558,Lband
142,87,2023-01-03 17:53:00.349,Lband
141,87,2023-01-03 17:54:00.622,Lband
141,87,2023-01-03 17:55:00.301,Lband
140,86,2023-01-03 17:56:00.654,Lband
140,86,2023-01-03 17:57:00.298,Lband
139,86,2023-01-03 17:58:00.537,Lband
139,85,2023-01-03 17:59:00.311,Lband
138,85,2023-01-03 18:00:00.680,Lband
138,85,2023-01-03 18:01:00.399,Lband
137,84,2023-01-03 18:04:11.105,Lband
136,83,2023-01-03 18:07:11.329,Lband
134,82,2023-01-03 18:08:00.582,Lband
134,82,2023-01-03 18:09:00.381,Lband
133,82,2023-01-03 18:12:10.337,Lband
132,81,2023-01-03 18:15:10.561,Lband
131,80,2023-01-03 18:16:00.692,Lband
130,80,2023-01-03 18:17:00.302,Lband
130,79,2023-01-03 18:18:00.764,Lband
129,79,2023-01-03 18:19:00.307,Lband
129,79,2023-01-03 18:22:10.401,Lband
128,78,2023-01-03 18:25:10.625,Lband
126,77,2023-01-03 18:28:10.853,Lband
125,76,2023-01-03 18:29:00.623,Lband
124,76,2023-01-03 18:30:00.315,Lband
124,75,2023-01-03 18:33:09.857,Lband
122,75,2023-01-03 18:36:10.081,Lband
121,74,2023-01-03 18:37:00.671,Lband
121,74,2023-01-03 18:38:00.290,Lband
120,74,2023-01-03 18:39:00.542,Lband
120,74,2023-01-03 18:40:00.307,Lband
119,73,2023-01-03 18:41:00.719,Lband
119,73,2023-01-03 18:42:00.268,Lband
118,73,2023-01-03 18:43:00.721,Lband
118,73,2023-01-03 18:44:00.299,Lband
117,73,2023-01-03 18:45:00.532,Lband
117,73,2023-01-03 18:46:00.330,Lband
117,73,2023-01-03 18:47:00.698,Lband
116,73,2023-01-03 18:48:00.295,Lband
116,72,2023-01-03 18:49:00.709,Lband
115,72,2023-01-03 18:50:00.329,Lband
115,72,2023-01-03 18:53:09.985,Lband
114,72,2023-01-03 18:54:00.624,Lband
113,72,2023-01-03 18:55:00.290,Lband
113,72,2023-01-03 18:58:11.043,Lband
112,72,2023-01-03 19:01:11.265,Lband
110,72,2023-01-03 19:02:00.812,Lband
110,72,2023-01-03 19:03:00.339,Lband
109,72,2023-01-03 19:04:00.690,Lband
109,72,2023-01-03 19:05:00.321,Lband
109,72,2023-01-03 19:08:11.105,Lband
107,72,2023-01-03 19:09:00.645,Lband
107,72,2023-01-03 19:10:00.256,Lband
107,72,2023-01-03 19:11:00.653,Lband
106,72,2023-01-03 19:12:00.306,Lband
106,72,2023-01-03 19:15:10.945,Lband
105,72,2023-01-03 19:16:00.723,Lband
104,72,2023-01-03 19:17:00.301,Lband
104,72,2023-01-03 19:18:00.628,Lband
103,72,2023-01-03 19:19:00.348,Lband
103,73,2023-01-03 19:22:10.785,Lband
102,73,2023-01-03 19:25:11.009,Lband
101,73,2023-01-03 19:28:11.233,Lband
99,73,2023-01-03 19:29:00.599,Lband
99,73,2023-01-03 19:30:00.369,Lband
98,73,2023-01-03 19:31:00.684,Lband
98,73,2023-01-03 19:32:00.318,Lband
98,74,2023-01-03 19:33:00.616,Lband
97,74,2023-01-03 19:34:00.294,Lband
97,74,2023-01-03 19:35:00.701,Lband
97,74,2023-01-03 19:36:00.361,Lband
96,74,2023-01-03 19:39:10.689,Lband
95,74,2023-01-03 19:42:10.913,Lband
94,75,2023-01-03 19:45:11.137,Lband
93,75,2023-01-03 19:48:11.361,Lband
92,75,2023-01-03 19:49:00.730,Lband
92,75,2023-01-03 19:50:00.382,Lband
92,75,2023-01-03 19:51:00.646,Lband
91,75,2023-01-03 19:52:00.297,Lband
91,76,2023-01-03 19:53:00.707,Lband
91,76,2023-01-03 19:54:00.368,Lband
90,76,2023-01-03 19:55:00.664,Lband
90,76,2023-01-03 19:56:00.318,Lband
90,76,2023-01-03 19:59:10.821,Lband
89,77,2023-01-03 20:00:00.662,Lband
89,77,2023-01-03 20:01:00.346,Lband
88,77,2023-01-03 20:02:00.720,Lband
88,78,2023-01-03 20:03:00.337,Lband
88,78,2023-01-03 20:04:00.692,Lband
88,78,2023-01-03 20:05:00.308,Lband
87,78,2023-01-03 20:06:00.732,Lband
87,78,2023-01-03 20:07:00.357,Lband
87,78,2023-01-03 20:08:00.767,Lband
86,78,2023-01-03 20:09:00.310,Lband
86,78,2023-01-03 20:10:00.602,Lband
86,79,2023-01-03 20:11:00.305,Lband
86,79,2023-01-03 20:12:00.684,Lband
85,79,2023-01-03 20:13:00.356,Lband
85,79,2023-01-03 20:14:00.646,Lband
85,79,2023-01-03 20:15:00.354,Lband
84,79,2023-01-03 20:16:00.638,Lband
84,79,2023-01-03 20:17:00.304,Lband
84,80,2023-01-03 20:18:00.664,Lband
84,80,2023-01-03 20:19:00.261,Lband
83,80,2023-01-03 20:20:00.645,Lband
83,80,2023-01-03 20:21:00.369,Lband
83,80,2023-01-03 20:24:09.953,Lband
82,79,2023-01-03 20:27:10.177,Lband
81,78,2023-01-03 20:30:10.405,Lband
80,76,2023-01-03 20:31:00.666,Lband
80,75,2023-01-03 20:32:00.308,Lband
80,75,2023-01-03 20:33:00.766,Lband
79,75,2023-01-03 20:34:00.293,Lband
79,74,2023-01-03 20:35:00.649,Lband
79,74,2023-01-03 20:36:00.255,Lband
78,73,2023-01-03 20:37:00.681,Lband
78,73,2023-01-03 20:38:00.360,Lband
78,72,2023-01-03 20:39:00.700,Lband
77,72,2023-01-03 20:40:00.301,Lband
76,71,2023-01-03 20:41:00.678,Lband
76,71,2023-01-03 20:42:00.446,Lband
76,70,2023-01-03 20:43:00.725,Lband
75,70,2023-01-03 20:44:00.306,Lband
75,70,2023-01-03 20:47:10.305,Lband
74,68,2023-01-03 20:48:00.708,Lband
74,68,2023-01-03 20:49:00.296,Lband
73,67,2023-01-03 20:52:11.361,Lband
72,66,2023-01-03 20:53:00.661,Lband
72,66,2023-01-03 20:54:00.314,Lband
71,66,2023-01-03 20:57:10.369,Lband
70,65,2023-01-03 20:58:00.601,Lband
70,64,2023-01-03 20:59:00.240,Lband
70,64,2023-01-03 21:00:00.663,Lband
69,64,2023-01-03 21:01:00.335,Lband
69,63,2023-01-03 21:04:10.209,Lband
68,62,2023-01-03 21:07:10.433,Lband
66,61,2023-01-03 21:08:00.596,Lband
66,61,2023-01-03 21:09:00.322,Lband
66,60,2023-01-03 21:10:00.728,Lband
65,60,2023-01-03 21:11:00.362,Lband
65,60,2023-01-03 21:12:00.692,Lband
65,59,2023-01-03 21:13:00.392,Lband
64,59,2023-01-03 21:16:11.105,Lband
63,58,2023-01-03 21:17:00.704,Lband
63,58,2023-01-03 21:18:00.313,Lband
62,58,2023-01-03 21:21:10.113,Lband
61,58,2023-01-03 21:24:10.337,Lband
60,57,2023-01-03 21:25:00.676,Lband
59,57,2023-01-03 21:26:00.267,Lband
59,57,2023-01-03 21:29:11.393,Lband
58,57,2023-01-03 21:32:09.569,Lband
57,56,2023-01-03 21:35:09.793,Lband
55,55,2023-01-03 21:38:10.017,Lband
54,54,2023-01-03 21:39:00.687,Lband
53,53,2023-01-03 21:40:00.302,Lband
53,53,2023-01-03 21:41:00.682,Lband
52,52,2023-01-03 21:42:00.334,Lband
52,51,2023-01-03 21:45:09.857,Lband
50,49,2023-01-03 21:48:10.081,Lband
48,45,2023-01-03 21:49:00.606,Lband
47,43,2023-01-03 21:50:00.245,Lband
46,42,2023-01-03 21:53:11.137,Lband
44,39,2023-01-03 21:54:00.664,Lband
43,37,2023-01-03 21:55:00.325,Lband
42,37,2023-01-03 21:58:10.145,Lband
40,35,2023-01-03 21:59:00.629,Lband
39,34,2023-01-03 22:00:00.346,Lband
38,34,2023-01-03 22:01:00.614,Lband
37,34,2023-01-03 22:02:00.279,Lband
36,34,2023-01-03 22:03:00.619,Lband
35,34,2023-01-03 22:04:00.325,Lband
34,33,2023-01-03 22:05:00.690,Lband
33,33,2023-01-03 22:06:00.329,Lband
32,33,2023-01-03 22:09:09.601,Lband
28,33,2023-01-03 22:12:09.825,Lband
25,33,2023-01-03 22:13:00.663,Lband
23,33,2023-01-03 22:14:00.292,Lband
22,33,2023-01-03 22:15:00.676,Lband
22,33,2023-01-03 22:16:00.285,Lband
21,33,2023-01-03 22:17:00.662,Lband
20,33,2023-01-03 22:18:00.229,Lband
19,33,2023-01-03 22:21:10.497,Lband
20,35,2023-01-03 22:22:00.632,Lband
20,36,2023-01-03 22:23:00.262,Lband
19,36,2023-01-03 22:24:00.633,Lband
19,36,2023-01-03 22:25:00.299,Lband
18,37,2023-01-03 22:26:00.611,Lband
18,38,2023-01-03 22:27:00.344,Lband
17,38,2023-01-03 22:30:11.519,Lband
17,39,2023-01-03 22:33:11.393,Lband
16,40,2023-01-03 22:34:00.943,Lband
16,40,2023-01-03 22:35:00.303,Lband
16,40,2023-01-03 22:36:00.244,Lband
16,40,2023-01-03 22:37:00.228,Lband
16,40,2023-01-03 22:38:00.314,Lband
16,41,2023-01-03 22:39:00.305,Lband
16,41,2023-01-03 22:40:00.255,Lband
15,41,2023-01-03 22:41:00.382,Lband
15,41,2023-01-03 22:42:00.245,Lband
15,41,2023-01-03 22:43:00.426,Lband
15,41,2023-01-03 22:44:00.278,Lband
15,41,2023-01-03 22:45:00.276,Lband
15,41,2023-01-03 22:46:00.271,Lband
15,41,2023-01-03 22:47:00.403,Lband
15,41,2023-01-03 22:48:00.223,Lband
15,41,2023-01-03 22:49:00.351,Lband
14,41,2023-01-03 22:50:00.279,Lband
14,41,2023-01-03 22:51:00.399,Lband
14,41,2023-01-03 22:52:00.283,Lband
14,41,2023-01-03 22:53:00.266,Lband
14,41,2023-01-03 22:54:00.248,Lband
14,41,2023-01-03 22:55:00.244,Lband
14,42,2023-01-03 22:56:00.321,Lband
14,41,2023-01-03 22:57:00.298,Lband
14,41,2023-01-03 22:58:00.237,Lband
14,42,2023-01-03 22:59:00.323,Lband
14,41,2023-01-03 23:00:00.284,Lband
14,42,2023-01-03 23:01:00.285,Lband
14,42,2023-01-03 23:02:00.241,Lband
14,41,2023-01-03 23:03:00.261,Lband
14,42,2023-01-03 23:04:00.307,Lband
14,41,2023-01-03 23:05:00.339,Lband
14,42,2023-01-03 23:06:00.335,Lband
14,42,2023-01-03 23:07:00.244,Lband
14,41,2023-01-03 23:08:00.289,Lband
14,42,2023-01-03 23:09:00.280,Lband
14,41,2023-01-03 23:10:00.297,Lband
14,41,2023-01-03 23:11:00.273,Lband
14,41,2023-01-03 23:12:00.262,Lband
14,42,2023-01-03 23:13:00.295,Lband
14,41,2023-01-03 23:14:00.325,Lband
14,41,2023-01-03 23:15:00.178,Lband
14,41,2023-01-03 23:16:00.266,Lband
14,42,2023-01-03 23:17:00.266,Lband
14,41,2023-01-03 23:18:00.285,Lband
14,41,2023-01-03 23:19:00.310,Lband
14,41,2023-01-03 23:20:00.247,Lband
14,42,2023-01-03 23:21:00.317,Lband
14,42,2023-01-03 23:22:00.298,Lband
14,41,2023-01-03 23:23:00.282,Lband
14,41,2023-01-03 23:24:00.310,Lband
14,41,2023-01-03 23:25:00.282,Lband
14,41,2023-01-03 23:26:00.212,Lband
14,41,2023-01-03 23:27:00.205,Lband
14,41,2023-01-03 23:28:00.250,Lband
14,41,2023-01-03 23:29:00.279,Lband
14,41,2023-01-03 23:30:00.289,Lband
14,41,2023-01-03 23:31:00.267,Lband
14,42,2023-01-03 23:32:00.258,Lband
14,41,2023-01-03 23:33:00.222,Lband
14,41,2023-01-03 23:34:00.257,Lband
14,41,2023-01-03 23:35:00.222,Lband
14,41,2023-01-03 23:36:00.216,Lband
14,41,2023-01-03 23:37:00.292,Lband
14,41,2023-01-03 23:38:00.234,Lband
14,41,2023-01-03 23:39:00.321,Lband
14,41,2023-01-03 23:40:00.253,Lband
14,41,2023-01-03 23:41:00.269,Lband
14,41,2023-01-03 23:42:00.272,Lband
14,41,2023-01-03 23:43:00.246,Lband
14,41,2023-01-03 23:44:00.255,Lband
14,41,2023-01-03 23:45:00.283,Lband
14,42,2023-01-03 23:46:00.312,Lband
14,41,2023-01-03 23:47:00.291,Lband
14,41,2023-01-03 23:48:00.232,Lband
14,41,2023-01-03 23:49:00.288,Lband
14,41,2023-01-03 23:50:00.218,Lband
14,41,2023-01-03 23:51:00.269,Lband
14,41,2023-01-03 23:52:00.279,Lband
14,41,2023-01-03 23:53:00.308,Lband
14,42,2023-01-03 23:54:00.273,Lband
14,41,2023-01-03 23:55:00.294,Lband
14,41,2023-01-03 23:56:00.318,Lband
14,41,2023-01-03 23:57:00.258,Lband
14,41,2023-01-03 23:58:00.251,Lband
14,41,2023-01-03 23:59:00.232,Lband
