﻿Date, Time, Time-MS, Severity, Code, Sub Code, Location, Message
2020-11-27,13:25:29,11476,Info.,5004h,01,STS,On Line
2020-11-27,13:25:25,11081,Info.,0100h,00,STS,Mains Input Volt Normal
2020-11-27,13:25:25,11071,Info.,0228h,00,STS,Bypass Freq Normal
2020-11-27,13:25:25,11071,Info.,0128h,00,STS,Mains Input Freq Normal
2020-11-27,13:25:25,11051,Info.,0200h,00,STS,Bypass Volt Normal
2020-11-27,08:29:53,7460,Minor,0128h,01,STS,Mains Input Freq Out Range
2020-11-27,08:29:53,7423,Minor,0228h,01,STS,Bypass Freq Out Range
2020-11-27,08:29:50,7155,Minor,0200h,01,STS,Bypass Volt Out Range
2020-11-27,08:29:50,7108,Info.,5003h,01,STS,Load on Battery
2020-11-27,08:29:50,7108,Minor,0100h,05,STS,Mains Input Volt Out Range
2020-11-24,07:52:59,15462,Info.,5004h,01,STS,On Line
2020-11-24,07:52:55,15067,Info.,0100h,00,STS,Mains Input Volt Normal
2020-11-24,07:52:55,15058,Info.,0228h,00,STS,Bypass Freq Normal
2020-11-24,07:52:55,15057,Info.,0128h,00,STS,Mains Input Freq Normal
2020-11-24,07:52:55,15040,Info.,0200h,00,STS,Bypass Volt Normal
2020-11-24,07:52:49,14537,Minor,0128h,01,STS,Mains Input Freq Out Range
2020-11-24,07:52:49,14495,Minor,0228h,01,STS,Bypass Freq Out Range
2020-11-24,07:52:49,14489,Info.,5003h,01,STS,Load on Battery
2020-11-24,07:52:49,14489,Minor,0100h,05,STS,Mains Input Volt Out Range
2020-11-24,07:52:49,14487,Minor,0200h,01,STS,Bypass Volt Out Range
2020-11-17,16:42:06,55653,Info.,5004h,01,STS,On Line
2020-11-17,16:42:02,55258,Info.,0100h,00,STS,Mains Input Volt Normal
2020-11-17,16:42:02,55248,Info.,0228h,00,STS,Bypass Freq Normal
2020-11-17,16:42:02,55248,Info.,0128h,00,STS,Mains Input Freq Normal
2020-11-17,16:42:01,55229,Info.,0200h,00,STS,Bypass Volt Normal
2020-11-17,13:08:35,19778,Info.,8660h,00,INV #1,INV PLL Locked
2020-11-17,13:08:35,19773,Info.,8660h,00,INV #4,INV PLL Locked
2020-11-17,13:08:35,19765,Info.,8660h,00,INV #3,INV PLL Locked
2020-11-17,13:08:35,19764,Info.,8660h,00,INV #7,INV PLL Locked
2020-11-17,13:08:35,19759,Info.,8660h,00,INV #8,INV PLL Locked
2020-11-17,13:08:35,19751,Info.,8660h,00,INV #5,INV PLL Locked
2020-11-17,13:08:35,19746,Info.,8660h,00,INV #6,INV PLL Locked
2020-11-17,13:08:35,19739,Info.,8660h,00,INV #2,INV PLL Locked
2020-11-17,13:08:28,19077,Minor,0200h,01,STS,Bypass Volt Out Range
2020-11-17,13:08:28,19072,Minor,0128h,01,STS,Mains Input Freq Out Range
2020-11-17,13:08:28,19028,Info.,5003h,01,STS,Load on Battery
2020-11-17,13:08:28,19028,Minor,0100h,03,STS,Mains Input Volt Out Range
2020-11-17,13:08:23,18580,Minor,0228h,01,STS,Bypass Freq Out Range
2020-11-17,13:08:22,18431,Info.,0228h,00,STS,Bypass Freq Normal
2020-11-17,13:08:21,18329,Minor,0228h,01,STS,Bypass Freq Out Range
2020-11-17,13:08:19,18183,Info.,0228h,00,STS,Bypass Freq Normal
2020-11-17,13:08:18,18041,Minor,0228h,01,STS,Bypass Freq Out Range
2020-11-17,13:08:17,17935,Info.,0228h,00,STS,Bypass Freq Normal
2020-11-17,13:08:14,17691,Minor,0228h,01,STS,Bypass Freq Out Range
2020-11-17,13:08:13,17599,Info.,0228h,00,STS,Bypass Freq Normal
2020-11-17,13:08:12,17463,Minor,0228h,01,STS,Bypass Freq Out Range
2020-11-17,13:08:08,17111,Info.,0228h,00,STS,Bypass Freq Normal
2020-11-17,13:08:06,16916,Minor,0228h,01,STS,Bypass Freq Out Range
2020-11-17,13:08:05,16803,Info.,0228h,00,STS,Bypass Freq Normal
2020-11-17,13:08:03,16544,Minor,0228h,01,STS,Bypass Freq Out Range
2020-11-17,13:08:02,16436,Info.,0228h,00,STS,Bypass Freq Normal
2020-11-17,13:08:00,16322,Minor,0228h,01,STS,Bypass Freq Out Range
2020-11-17,13:07:59,16177,Info.,0228h,00,STS,Bypass Freq Normal
2020-11-17,13:07:58,16120,Minor,0228h,01,STS,Bypass Freq Out Range
2020-11-17,13:07:57,15988,Info.,0228h,00,STS,Bypass Freq Normal
2020-11-17,13:07:56,15825,Minor,0228h,01,STS,Bypass Freq Out Range
2020-11-17,13:07:51,15399,Info.,0228h,00,STS,Bypass Freq Normal
2020-11-17,13:07:50,15279,Minor,0228h,01,STS,Bypass Freq Out Range
2020-11-17,13:07:49,15155,Info.,0228h,00,STS,Bypass Freq Normal
2020-11-17,13:07:45,14756,Minor,0228h,01,STS,Bypass Freq Out Range
2020-11-17,13:07:39,14218,Info.,0228h,00,STS,Bypass Freq Normal
2020-11-17,13:07:39,14146,Minor,0228h,01,STS,Bypass Freq Out Range
2020-11-17,13:07:37,14001,Info.,0228h,00,STS,Bypass Freq Normal
2020-11-17,13:07:36,13847,Minor,0228h,01,STS,Bypass Freq Out Range
2020-11-17,13:07:35,13729,Info.,0228h,00,STS,Bypass Freq Normal
2020-11-17,13:07:34,13640,Minor,0228h,01,STS,Bypass Freq Out Range
2020-11-17,13:07:32,13499,Info.,0228h,00,STS,Bypass Freq Normal
2020-11-17,13:07:30,13309,Minor,0228h,01,STS,Bypass Freq Out Range
2020-11-17,13:07:30,13233,Info.,0228h,00,STS,Bypass Freq Normal
2020-11-17,13:07:27,13016,Minor,0228h,01,STS,Bypass Freq Out Range
2020-11-17,13:07:24,12666,Info.,0228h,00,STS,Bypass Freq Normal
2020-11-17,13:07:21,12416,Minor,0228h,01,STS,Bypass Freq Out Range
2020-11-17,13:07:20,12294,Info.,0228h,00,STS,Bypass Freq Normal
2020-11-17,13:07:19,12151,Minor,0228h,01,STS,Bypass Freq Out Range
2020-11-17,13:07:17,12008,Info.,0228h,00,STS,Bypass Freq Normal
2020-11-17,13:07:16,11901,Minor,0228h,01,STS,Bypass Freq Out Range
2020-11-17,13:07:15,11776,Info.,0228h,00,STS,Bypass Freq Normal
2020-11-17,13:07:11,11354,Minor,0228h,01,STS,Bypass Freq Out Range
2020-11-17,13:07:08,11114,Info.,0228h,00,STS,Bypass Freq Normal
2020-11-17,13:07:06,10854,Minor,0228h,01,STS,Bypass Freq Out Range
2020-11-17,13:07:04,10709,Info.,0228h,00,STS,Bypass Freq Normal
2020-11-17,13:07:02,10446,Minor,0228h,01,STS,Bypass Freq Out Range
2020-11-17,13:07:01,10327,Info.,0228h,00,STS,Bypass Freq Normal
2020-11-17,13:06:59,10206,Minor,0228h,01,STS,Bypass Freq Out Range
2020-11-17,13:06:58,10089,Info.,0228h,00,STS,Bypass Freq Normal
2020-11-17,13:06:56,9915,Minor,0228h,01,STS,Bypass Freq Out Range
2020-11-17,13:06:56,9840,Info.,0228h,00,STS,Bypass Freq Normal
2020-11-17,13:06:53,9618,Minor,0228h,01,STS,Bypass Freq Out Range
2020-11-17,13:06:52,9513,Info.,0228h,00,STS,Bypass Freq Normal
2020-11-17,13:06:51,9414,Minor,0228h,01,STS,Bypass Freq Out Range
2020-11-17,13:06:49,9218,Info.,0228h,00,STS,Bypass Freq Normal
2020-11-17,13:06:48,9086,Minor,0228h,01,STS,Bypass Freq Out Range
2020-11-17,13:06:46,8921,Info.,0228h,00,STS,Bypass Freq Normal
2020-11-17,13:06:44,8636,Minor,0228h,01,STS,Bypass Freq Out Range
2020-11-17,13:06:38,8038,Info.,0228h,00,STS,Bypass Freq Normal
2020-11-17,13:06:36,7907,Minor,0228h,01,STS,Bypass Freq Out Range
2020-11-17,13:06:34,7722,Info.,0228h,00,STS,Bypass Freq Normal
2020-11-17,13:06:32,7509,Minor,0228h,01,STS,Bypass Freq Out Range
2020-11-17,13:06:31,7398,Info.,0228h,00,STS,Bypass Freq Normal
2020-11-17,13:06:31,7327,Minor,0228h,01,STS,Bypass Freq Out Range
2020-11-17,13:06:29,7147,Info.,0228h,00,STS,Bypass Freq Normal
2020-11-17,13:06:28,7056,Minor,0228h,01,STS,Bypass Freq Out Range
2020-11-17,13:06:26,6874,Info.,0228h,00,STS,Bypass Freq Normal
2020-11-17,13:06:24,6636,Minor,0228h,01,STS,Bypass Freq Out Range
2020-11-17,13:06:22,6515,Info.,0228h,00,STS,Bypass Freq Normal
2020-11-17,13:06:20,6274,Minor,0228h,01,STS,Bypass Freq Out Range
2020-11-17,13:06:19,6163,Info.,0228h,00,STS,Bypass Freq Normal
2020-11-17,13:06:18,6038,Minor,0228h,01,STS,Bypass Freq Out Range
2020-11-17,13:06:16,5894,Info.,0228h,00,STS,Bypass Freq Normal
2020-11-17,13:06:15,5744,Minor,0228h,01,STS,Bypass Freq Out Range
2020-11-17,13:06:14,5656,Info.,0228h,00,STS,Bypass Freq Normal
2020-11-17,13:06:12,5434,Minor,0228h,01,STS,Bypass Freq Out Range
2020-11-17,13:06:10,5313,Info.,0228h,00,STS,Bypass Freq Normal
2020-11-17,13:06:09,5148,Minor,0228h,01,STS,Bypass Freq Out Range
2020-11-17,13:06:08,5037,Info.,0228h,00,STS,Bypass Freq Normal
2020-11-17,13:06:06,4840,Minor,0228h,01,STS,Bypass Freq Out Range
2020-11-17,13:06:05,4738,Info.,0228h,00,STS,Bypass Freq Normal
2020-11-17,13:06:03,4529,Minor,0228h,01,STS,Bypass Freq Out Range
2020-11-17,13:06:02,4442,Info.,0228h,00,STS,Bypass Freq Normal
2020-11-17,13:06:00,4249,Minor,0228h,01,STS,Bypass Freq Out Range
2020-11-17,13:05:59,4128,Info.,0228h,00,STS,Bypass Freq Normal
2020-11-17,13:05:57,3990,Minor,0228h,01,STS,Bypass Freq Out Range
2020-11-17,13:05:56,3914,Info.,0228h,00,STS,Bypass Freq Normal
2020-11-17,13:05:54,3657,Minor,0228h,01,STS,Bypass Freq Out Range
2020-11-17,13:05:53,3551,Info.,0228h,00,STS,Bypass Freq Normal
2020-11-17,13:05:50,3314,Minor,0228h,01,STS,Bypass Freq Out Range
2020-11-17,13:05:49,3215,Info.,0228h,00,STS,Bypass Freq Normal
2020-11-17,13:05:48,3028,Minor,0228h,01,STS,Bypass Freq Out Range
2020-11-17,13:05:46,2922,Info.,0228h,00,STS,Bypass Freq Normal
2020-11-17,13:05:44,2688,Minor,0228h,01,STS,Bypass Freq Out Range
2020-11-17,13:05:43,2589,Info.,0228h,00,STS,Bypass Freq Normal
2020-11-17,13:05:41,2394,Minor,0228h,01,STS,Bypass Freq Out Range
2020-11-17,13:05:40,2281,Info.,0228h,00,STS,Bypass Freq Normal
2020-11-17,13:05:38,2074,Minor,0228h,01,STS,Bypass Freq Out Range
2020-11-17,13:05:37,1982,Info.,0228h,00,STS,Bypass Freq Normal
2020-11-17,13:05:35,1782,Minor,0228h,01,STS,Bypass Freq Out Range
2020-11-17,13:05:34,1645,Info.,0228h,00,STS,Bypass Freq Normal
2020-11-17,13:05:33,1550,Minor,0228h,01,STS,Bypass Freq Out Range
2020-11-17,13:05:32,1463,Info.,0228h,00,STS,Bypass Freq Normal
2020-11-17,13:05:29,1186,Minor,0228h,01,STS,Bypass Freq Out Range
2020-11-17,13:05:28,1077,Info.,0228h,00,STS,Bypass Freq Normal
2020-11-17,13:05:26,917,Minor,0228h,01,STS,Bypass Freq Out Range
2020-11-17,13:05:25,802,Info.,0228h,00,STS,Bypass Freq Normal
2020-11-17,13:05:23,620,Minor,0228h,01,STS,Bypass Freq Out Range
2020-11-17,13:05:22,514,Info.,0228h,00,STS,Bypass Freq Normal
2020-11-17,13:05:20,307,Minor,0228h,01,STS,Bypass Freq Out Range
2020-11-17,13:05:20,232,Info.,0228h,00,STS,Bypass Freq Normal
2020-11-17,13:05:17,65532,Minor,0228h,01,STS,Bypass Freq Out Range
2020-11-17,13:05:16,65423,Info.,0228h,00,STS,Bypass Freq Normal
2020-11-17,13:05:15,65277,Minor,0228h,01,STS,Bypass Freq Out Range
2020-11-17,13:05:14,65182,Info.,0228h,00,STS,Bypass Freq Normal
2020-11-17,13:05:11,64942,Minor,0228h,01,STS,Bypass Freq Out Range
2020-11-17,13:05:10,64817,Info.,0228h,00,STS,Bypass Freq Normal
2020-11-17,13:05:07,64549,Minor,0228h,01,STS,Bypass Freq Out Range
2020-11-17,13:05:06,64442,Info.,0228h,00,STS,Bypass Freq Normal
2020-11-17,13:05:05,64304,Minor,0228h,01,STS,Bypass Freq Out Range
2020-11-17,13:05:04,64178,Info.,0228h,00,STS,Bypass Freq Normal
2020-11-17,13:05:03,64091,Minor,0228h,01,STS,Bypass Freq Out Range
2020-11-17,13:05:02,63980,Info.,0228h,00,STS,Bypass Freq Normal
2020-11-17,13:04:59,63739,Minor,0228h,01,STS,Bypass Freq Out Range
2020-11-17,13:04:58,63626,Info.,0228h,00,STS,Bypass Freq Normal
2020-11-17,13:04:55,63347,Minor,0228h,01,STS,Bypass Freq Out Range
2020-11-17,13:04:54,63228,Info.,0228h,00,STS,Bypass Freq Normal
2020-11-17,13:04:53,63104,Minor,0228h,01,STS,Bypass Freq Out Range
2020-11-17,13:04:52,62983,Info.,0228h,00,STS,Bypass Freq Normal
2020-11-17,13:04:50,62822,Minor,0228h,01,STS,Bypass Freq Out Range
2020-11-17,13:04:49,62755,Info.,0228h,00,STS,Bypass Freq Normal
2020-11-17,13:04:47,62490,Minor,0228h,01,STS,Bypass Freq Out Range
2020-11-17,13:04:46,62385,Info.,0228h,00,STS,Bypass Freq Normal
2020-11-17,13:04:44,62235,Minor,0228h,01,STS,Bypass Freq Out Range
2020-11-17,13:04:43,62104,Info.,0228h,00,STS,Bypass Freq Normal
2020-11-17,13:04:41,61919,Minor,0228h,01,STS,Bypass Freq Out Range
2020-11-17,13:04:40,61793,Info.,0228h,00,STS,Bypass Freq Normal
2020-11-17,13:04:37,61522,Minor,0228h,01,STS,Bypass Freq Out Range
2020-11-17,13:04:36,61423,Info.,0228h,00,STS,Bypass Freq Normal
2020-11-17,13:04:35,61281,Minor,0228h,01,STS,Bypass Freq Out Range
2020-11-17,13:04:33,61144,Info.,0228h,00,STS,Bypass Freq Normal
2020-11-17,13:04:33,61060,Minor,0228h,01,STS,Bypass Freq Out Range
2020-11-17,13:04:32,60977,Info.,0228h,00,STS,Bypass Freq Normal
2020-11-17,13:04:29,60710,Minor,0228h,01,STS,Bypass Freq Out Range
2020-11-17,13:04:28,60593,Info.,0228h,00,STS,Bypass Freq Normal
2020-11-17,13:04:25,60353,Minor,0228h,01,STS,Bypass Freq Out Range
2020-11-17,13:04:24,60234,Info.,0228h,00,STS,Bypass Freq Normal
2020-11-17,13:04:23,60096,Minor,0228h,01,STS,Bypass Freq Out Range
2020-11-17,13:04:22,59987,Info.,0228h,00,STS,Bypass Freq Normal
2020-11-17,13:04:20,59777,Minor,0228h,01,STS,Bypass Freq Out Range
2020-11-17,13:04:19,59698,Info.,0228h,00,STS,Bypass Freq Normal
2020-11-17,13:04:17,59468,Minor,0228h,01,STS,Bypass Freq Out Range
2020-11-17,13:04:15,59342,Info.,0228h,00,STS,Bypass Freq Normal
2020-11-17,13:04:14,59218,Minor,0228h,01,STS,Bypass Freq Out Range
2020-11-17,13:04:13,59134,Info.,0228h,00,STS,Bypass Freq Normal
2020-11-17,13:04:11,58873,Minor,0228h,01,STS,Bypass Freq Out Range
2020-11-17,13:04:10,58767,Info.,0228h,00,STS,Bypass Freq Normal
2020-11-17,13:04:07,58496,Minor,0228h,01,STS,Bypass Freq Out Range
2020-11-17,13:04:06,58388,Info.,0228h,00,STS,Bypass Freq Normal
2020-11-17,13:04:04,58228,Minor,0228h,01,STS,Bypass Freq Out Range
2020-11-17,13:04:03,58106,Info.,0228h,00,STS,Bypass Freq Normal
2020-11-17,13:04:01,57936,Minor,0228h,01,STS,Bypass Freq Out Range
2020-11-17,13:04:01,57860,Info.,0228h,00,STS,Bypass Freq Normal
2020-11-17,13:03:58,57627,Minor,0228h,01,STS,Bypass Freq Out Range
2020-11-17,13:03:57,57517,Info.,0228h,00,STS,Bypass Freq Normal
2020-11-17,13:03:55,57293,Minor,0228h,01,STS,Bypass Freq Out Range
2020-11-17,13:03:54,57179,Info.,0228h,00,STS,Bypass Freq Normal
2020-11-17,13:03:52,57001,Minor,0228h,01,STS,Bypass Freq Out Range
2020-11-17,13:03:51,56892,Info.,0228h,00,STS,Bypass Freq Normal
2020-11-17,13:03:48,56619,Minor,0228h,01,STS,Bypass Freq Out Range
2020-11-17,13:03:47,56528,Info.,0228h,00,STS,Bypass Freq Normal
2020-11-17,13:03:45,56336,Minor,0228h,01,STS,Bypass Freq Out Range
2020-11-17,13:03:44,56222,Info.,0228h,00,STS,Bypass Freq Normal
2020-11-17,13:03:42,56038,Minor,0228h,01,STS,Bypass Freq Out Range
2020-11-17,13:03:41,55955,Info.,0228h,00,STS,Bypass Freq Normal
2020-11-17,13:03:39,55714,Minor,0228h,01,STS,Bypass Freq Out Range
2020-11-17,13:03:38,55600,Info.,0228h,00,STS,Bypass Freq Normal
2020-11-17,13:03:35,55347,Minor,0228h,01,STS,Bypass Freq Out Range
2020-11-17,13:03:34,55183,Info.,0228h,00,STS,Bypass Freq Normal
2020-11-17,13:03:33,55073,Minor,0228h,01,STS,Bypass Freq Out Range
2020-11-17,13:03:31,54865,Info.,0228h,00,STS,Bypass Freq Normal
2020-11-17,13:03:30,54781,Minor,0228h,01,STS,Bypass Freq Out Range
2020-11-17,13:03:28,54564,Info.,0228h,00,STS,Bypass Freq Normal
2020-11-17,13:03:27,54480,Minor,0228h,01,STS,Bypass Freq Out Range
2020-11-17,13:03:25,54319,Info.,0228h,00,STS,Bypass Freq Normal
2020-11-17,13:03:24,54201,Minor,0228h,01,STS,Bypass Freq Out Range
2020-11-17,13:03:23,54091,Info.,0228h,00,STS,Bypass Freq Normal
2020-11-17,13:03:22,54020,Minor,0228h,01,STS,Bypass Freq Out Range
2020-11-17,13:03:20,53852,Info.,0228h,00,STS,Bypass Freq Normal
2020-11-17,13:03:19,53708,Minor,0228h,01,STS,Bypass Freq Out Range
2020-11-17,13:03:18,53601,Info.,0228h,00,STS,Bypass Freq Normal
2020-11-17,13:03:17,53539,Minor,0228h,01,STS,Bypass Freq Out Range
2020-11-17,13:03:15,53353,Info.,0228h,00,STS,Bypass Freq Normal
2020-11-17,13:03:15,53285,Minor,0228h,01,STS,Bypass Freq Out Range
2020-11-17,13:03:14,53182,Info.,0228h,00,STS,Bypass Freq Normal
2020-11-17,13:03:13,53110,Minor,0228h,01,STS,Bypass Freq Out Range
2020-11-17,13:03:11,52923,Info.,0228h,00,STS,Bypass Freq Normal
2020-11-17,13:03:10,52824,Minor,0228h,01,STS,Bypass Freq Out Range
2020-11-17,13:03:09,52725,Info.,0228h,00,STS,Bypass Freq Normal
2020-11-17,13:03:08,52641,Minor,0228h,01,STS,Bypass Freq Out Range
2020-11-17,13:03:05,52318,Info.,0228h,00,STS,Bypass Freq Normal
2020-11-17,13:03:05,52260,Minor,0228h,01,STS,Bypass Freq Out Range
2020-11-17,13:03:01,51881,Info.,0228h,00,STS,Bypass Freq Normal
2020-11-17,13:03:00,51815,Minor,0228h,01,STS,Bypass Freq Out Range
2020-11-17,13:02:58,51642,Info.,0228h,00,STS,Bypass Freq Normal
2020-11-17,13:02:57,51466,Minor,0228h,01,STS,Bypass Freq Out Range
2020-11-17,13:02:56,51363,Info.,0228h,00,STS,Bypass Freq Normal
2020-11-17,13:02:55,51283,Minor,0228h,01,STS,Bypass Freq Out Range
2020-11-17,13:02:53,51118,Info.,0228h,00,STS,Bypass Freq Normal
2020-11-17,13:02:52,51005,Minor,0228h,01,STS,Bypass Freq Out Range
2020-11-17,13:02:51,50918,Info.,0228h,00,STS,Bypass Freq Normal
2020-11-17,13:02:50,50847,Minor,0228h,01,STS,Bypass Freq Out Range
2020-11-17,13:02:47,50490,Info.,0228h,00,STS,Bypass Freq Normal
2020-11-17,13:02:46,50415,Minor,0228h,01,STS,Bypass Freq Out Range
2020-11-17,13:02:45,50269,Info.,0228h,00,STS,Bypass Freq Normal
2020-11-17,13:02:42,50056,Minor,0228h,01,STS,Bypass Freq Out Range
2020-11-17,13:02:42,49961,Info.,0228h,00,STS,Bypass Freq Normal
2020-11-17,13:02:41,49885,Minor,0228h,01,STS,Bypass Freq Out Range
2020-11-17,13:02:37,49556,Info.,0228h,00,STS,Bypass Freq Normal
2020-11-17,13:02:37,49494,Minor,0228h,01,STS,Bypass Freq Out Range
2020-11-17,13:02:33,49105,Info.,0228h,00,STS,Bypass Freq Normal
2020-11-17,13:02:32,49034,Minor,0228h,01,STS,Bypass Freq Out Range
2020-11-17,13:02:30,48829,Info.,0228h,00,STS,Bypass Freq Normal
2020-11-17,13:02:29,48708,Minor,0228h,01,STS,Bypass Freq Out Range
2020-11-17,13:02:28,48578,Info.,0228h,00,STS,Bypass Freq Normal
2020-11-17,13:02:27,48498,Minor,0228h,01,STS,Bypass Freq Out Range
2020-11-17,13:02:25,48321,Info.,0228h,00,STS,Bypass Freq Normal
2020-11-17,13:02:24,48211,Minor,0228h,01,STS,Bypass Freq Out Range
2020-11-17,13:02:19,47725,Info.,0228h,00,STS,Bypass Freq Normal
2020-11-17,13:02:18,47658,Minor,0228h,01,STS,Bypass Freq Out Range
2020-11-17,13:02:17,47481,Info.,0228h,00,STS,Bypass Freq Normal
2020-11-17,13:02:14,47246,Minor,0228h,01,STS,Bypass Freq Out Range
2020-11-17,13:02:14,47163,Info.,0228h,00,STS,Bypass Freq Normal
2020-11-17,13:02:13,47084,Minor,0228h,01,STS,Bypass Freq Out Range
2020-11-17,13:02:09,46746,Info.,0228h,00,STS,Bypass Freq Normal
2020-11-17,13:02:09,46680,Minor,0228h,01,STS,Bypass Freq Out Range
2020-11-17,13:02:07,46499,Info.,0228h,00,STS,Bypass Freq Normal
2020-11-17,13:02:06,46397,Minor,0228h,01,STS,Bypass Freq Out Range
2020-11-17,13:02:05,46301,Info.,0228h,00,STS,Bypass Freq Normal
2020-11-17,13:02:04,46230,Minor,0228h,01,STS,Bypass Freq Out Range
2020-11-17,13:02:02,46057,Info.,0228h,00,STS,Bypass Freq Normal
2020-11-17,13:02:01,45903,Minor,0228h,01,STS,Bypass Freq Out Range
2020-11-17,13:02:00,45788,Info.,0228h,00,STS,Bypass Freq Normal
2020-11-17,13:01:59,45712,Minor,0228h,01,STS,Bypass Freq Out Range
2020-11-17,13:01:57,45544,Info.,0228h,00,STS,Bypass Freq Normal
2020-11-17,13:01:56,45376,Minor,0228h,01,STS,Bypass Freq Out Range
2020-11-17,13:01:55,45292,Info.,0228h,00,STS,Bypass Freq Normal
2020-11-17,13:01:54,45217,Minor,0228h,01,STS,Bypass Freq Out Range
2020-11-17,13:01:51,44875,Info.,0228h,00,STS,Bypass Freq Normal
2020-11-17,13:01:50,44809,Minor,0228h,01,STS,Bypass Freq Out Range
2020-11-17,13:01:48,44611,Info.,0228h,00,STS,Bypass Freq Normal
2020-11-17,13:01:48,44468,Minor,0228h,01,STS,Bypass Freq Out Range
2020-11-17,13:01:46,44345,Info.,0228h,00,STS,Bypass Freq Normal
2020-11-17,13:01:45,44256,Minor,0228h,01,STS,Bypass Freq Out Range
2020-11-17,13:01:44,44095,Info.,0228h,00,STS,Bypass Freq Normal
2020-11-17,13:01:42,43868,Minor,0228h,01,STS,Bypass Freq Out Range
2020-11-17,13:01:41,43781,Info.,0228h,00,STS,Bypass Freq Normal
2020-11-17,13:01:40,43697,Minor,0228h,01,STS,Bypass Freq Out Range
2020-11-17,13:01:37,43540,Info.,0228h,00,STS,Bypass Freq Normal
2020-11-17,13:01:36,43456,Minor,0228h,01,STS,Bypass Freq Out Range
2020-11-17,13:01:35,43345,Info.,0228h,00,STS,Bypass Freq Normal
2020-11-17,13:01:35,43279,Minor,0228h,01,STS,Bypass Freq Out Range
2020-11-17,13:01:33,43114,Info.,0228h,00,STS,Bypass Freq Normal
2020-11-17,13:01:32,43001,Minor,0228h,01,STS,Bypass Freq Out Range
2020-11-17,13:01:31,42874,Info.,0228h,00,STS,Bypass Freq Normal
2020-11-17,13:01:30,42799,Minor,0228h,01,STS,Bypass Freq Out Range
2020-11-17,13:01:28,42630,Info.,0228h,00,STS,Bypass Freq Normal
2020-11-17,13:01:25,42349,Minor,0228h,01,STS,Bypass Freq Out Range
2020-11-17,13:01:25,42265,Info.,0228h,00,STS,Bypass Freq Normal
2020-11-17,13:01:24,42186,Minor,0228h,01,STS,Bypass Freq Out Range
2020-11-17,13:01:22,42037,Info.,0228h,00,STS,Bypass Freq Normal
2020-11-17,13:01:21,41920,Minor,0228h,01,STS,Bypass Freq Out Range
2020-11-17,13:01:20,41824,Info.,0228h,00,STS,Bypass Freq Normal
2020-11-17,13:01:19,41754,Minor,0228h,01,STS,Bypass Freq Out Range
2020-11-17,13:01:16,41378,Info.,0228h,00,STS,Bypass Freq Normal
2020-11-17,13:01:15,41311,Minor,0228h,01,STS,Bypass Freq Out Range
2020-11-17,13:01:13,41118,Info.,0228h,00,STS,Bypass Freq Normal
2020-11-17,13:01:10,40834,Minor,0228h,01,STS,Bypass Freq Out Range
2020-11-17,13:01:09,40747,Info.,0228h,00,STS,Bypass Freq Normal
2020-11-17,13:01:08,40654,Minor,0228h,01,STS,Bypass Freq Out Range
2020-11-17,13:01:05,40318,Info.,0228h,00,STS,Bypass Freq Normal
2020-11-17,13:01:05,40260,Minor,0228h,01,STS,Bypass Freq Out Range
2020-11-17,13:01:03,40076,Info.,0228h,00,STS,Bypass Freq Normal
2020-11-17,13:01:02,39963,Minor,0228h,01,STS,Bypass Freq Out Range
2020-11-17,13:01:01,39872,Info.,0228h,00,STS,Bypass Freq Normal
2020-11-17,13:01:00,39801,Minor,0228h,01,STS,Bypass Freq Out Range
2020-11-17,13:00:56,39444,Info.,0228h,00,STS,Bypass Freq Normal
2020-11-17,13:00:56,39386,Minor,0228h,01,STS,Bypass Freq Out Range
2020-11-17,13:00:54,39216,Info.,0228h,00,STS,Bypass Freq Normal
2020-11-17,13:00:52,38961,Minor,0228h,01,STS,Bypass Freq Out Range
2020-11-17,13:00:51,38882,Info.,0228h,00,STS,Bypass Freq Normal
2020-11-17,13:00:50,38802,Minor,0228h,01,STS,Bypass Freq Out Range
2020-11-17,13:00:47,38491,Info.,0228h,00,STS,Bypass Freq Normal
2020-11-17,13:00:46,38425,Minor,0228h,01,STS,Bypass Freq Out Range
2020-11-17,13:00:44,38252,Info.,0228h,00,STS,Bypass Freq Normal
2020-11-17,13:00:42,38022,Minor,0228h,01,STS,Bypass Freq Out Range
2020-11-17,13:00:41,37947,Info.,0228h,00,STS,Bypass Freq Normal
2020-11-17,13:00:41,37875,Minor,0228h,01,STS,Bypass Freq Out Range
2020-11-17,13:00:39,37703,Info.,0228h,00,STS,Bypass Freq Normal
2020-11-17,13:00:38,37593,Minor,0228h,01,STS,Bypass Freq Out Range
2020-11-17,13:00:37,37486,Info.,0228h,00,STS,Bypass Freq Normal
2020-11-17,13:00:36,37437,Minor,0228h,01,STS,Bypass Freq Out Range
2020-11-17,13:00:35,37261,Info.,0228h,00,STS,Bypass Freq Normal
2020-11-17,13:00:33,37159,Minor,0228h,01,STS,Bypass Freq Out Range
2020-11-17,13:00:33,37071,Info.,0228h,00,STS,Bypass Freq Normal
2020-11-17,13:00:32,36996,Minor,0228h,01,STS,Bypass Freq Out Range
2020-11-17,13:00:30,36855,Info.,0228h,00,STS,Bypass Freq Normal
2020-11-17,13:00:29,36745,Minor,0228h,01,STS,Bypass Freq Out Range
2020-11-17,13:00:28,36654,Info.,0228h,00,STS,Bypass Freq Normal
2020-11-17,13:00:28,36583,Minor,0228h,01,STS,Bypass Freq Out Range
2020-11-17,13:00:24,36208,Info.,0228h,00,STS,Bypass Freq Normal
2020-11-17,13:00:23,36137,Minor,0228h,01,STS,Bypass Freq Out Range
2020-11-17,13:00:21,35951,Info.,0228h,00,STS,Bypass Freq Normal
2020-11-17,13:00:20,35779,Minor,0228h,01,STS,Bypass Freq Out Range
2020-11-17,13:00:19,35692,Info.,0228h,00,STS,Bypass Freq Normal
2020-11-17,13:00:18,35621,Minor,0228h,01,STS,Bypass Freq Out Range
2020-11-17,13:00:14,35253,Info.,0228h,00,STS,Bypass Freq Normal
2020-11-17,13:00:14,35194,Minor,0228h,01,STS,Bypass Freq Out Range
2020-11-17,13:00:12,35026,Info.,0228h,00,STS,Bypass Freq Normal
2020-11-17,13:00:11,34898,Minor,0228h,01,STS,Bypass Freq Out Range
2020-11-17,13:00:10,34803,Info.,0228h,00,STS,Bypass Freq Normal
2020-11-17,13:00:09,34732,Minor,0228h,01,STS,Bypass Freq Out Range
2020-11-17,13:00:06,34394,Info.,0228h,00,STS,Bypass Freq Normal
2020-11-17,13:00:05,34332,Minor,0228h,01,STS,Bypass Freq Out Range
2020-11-17,13:00:03,34139,Info.,0228h,00,STS,Bypass Freq Normal
2020-11-17,13:00:01,33862,Minor,0228h,01,STS,Bypass Freq Out Range
2020-11-17,13:00:00,33782,Info.,0228h,00,STS,Bypass Freq Normal
2020-11-17,12:59:59,33702,Minor,0228h,01,STS,Bypass Freq Out Range
2020-11-17,12:59:57,33553,Info.,0228h,00,STS,Bypass Freq Normal
2020-11-17,12:59:56,33417,Minor,0228h,01,STS,Bypass Freq Out Range
2020-11-17,12:59:55,33330,Info.,0228h,00,STS,Bypass Freq Normal
2020-11-17,12:59:55,33268,Minor,0228h,01,STS,Bypass Freq Out Range
2020-11-17,12:59:53,33087,Info.,0228h,00,STS,Bypass Freq Normal
2020-11-17,12:59:51,32911,Minor,0228h,01,STS,Bypass Freq Out Range
2020-11-17,12:59:50,32832,Info.,0228h,00,STS,Bypass Freq Normal
2020-11-17,12:59:49,32752,Minor,0228h,01,STS,Bypass Freq Out Range
2020-11-17,12:59:48,32583,Info.,0228h,00,STS,Bypass Freq Normal
2020-11-17,12:59:47,32470,Minor,0228h,01,STS,Bypass Freq Out Range
2020-11-17,12:59:46,32366,Info.,0228h,00,STS,Bypass Freq Normal
2020-11-17,12:59:45,32309,Minor,0228h,01,STS,Bypass Freq Out Range
2020-11-17,12:59:43,32148,Info.,0228h,00,STS,Bypass Freq Normal
2020-11-17,12:59:42,32035,Minor,0228h,01,STS,Bypass Freq Out Range
2020-11-17,12:59:41,31948,Info.,0228h,00,STS,Bypass Freq Normal
2020-11-17,12:59:41,31873,Minor,0228h,01,STS,Bypass Freq Out Range
2020-11-17,12:59:39,31712,Info.,0228h,00,STS,Bypass Freq Normal
2020-11-17,12:59:38,31625,Minor,0228h,01,STS,Bypass Freq Out Range
2020-11-17,12:59:37,31529,Info.,0228h,00,STS,Bypass Freq Normal
2020-11-17,12:59:37,31472,Minor,0228h,01,STS,Bypass Freq Out Range
2020-11-17,12:59:35,31283,Info.,0228h,00,STS,Bypass Freq Normal
2020-11-17,12:59:34,31173,Minor,0228h,01,STS,Bypass Freq Out Range
2020-11-17,12:59:29,30717,Info.,0228h,00,STS,Bypass Freq Normal
2020-11-17,12:59:28,30651,Minor,0228h,01,STS,Bypass Freq Out Range
2020-11-17,12:59:26,30458,Info.,0228h,00,STS,Bypass Freq Normal
2020-11-17,12:59:24,30238,Minor,0228h,01,STS,Bypass Freq Out Range
2020-11-17,12:59:23,30158,Info.,0228h,00,STS,Bypass Freq Normal
2020-11-17,12:59:23,30074,Minor,0228h,01,STS,Bypass Freq Out Range
2020-11-17,12:59:21,29922,Info.,0228h,00,STS,Bypass Freq Normal
2020-11-17,12:59:20,29846,Minor,0228h,01,STS,Bypass Freq Out Range
2020-11-17,12:59:19,29739,Info.,0228h,00,STS,Bypass Freq Normal
2020-11-17,12:59:19,29677,Minor,0228h,01,STS,Bypass Freq Out Range
2020-11-17,12:59:17,29500,Info.,0228h,00,STS,Bypass Freq Normal
2020-11-17,12:59:15,29266,Minor,0228h,01,STS,Bypass Freq Out Range
2020-11-17,12:59:14,29186,Info.,0228h,00,STS,Bypass Freq Normal
2020-11-17,12:59:13,29093,Minor,0228h,01,STS,Bypass Freq Out Range
2020-11-17,12:59:11,28953,Info.,0228h,00,STS,Bypass Freq Normal
2020-11-17,12:59:10,28832,Minor,0228h,01,STS,Bypass Freq Out Range
2020-11-17,12:59:09,28749,Info.,0228h,00,STS,Bypass Freq Normal
2020-11-17,12:59:09,28682,Minor,0228h,01,STS,Bypass Freq Out Range
2020-11-17,12:59:07,28530,Info.,0228h,00,STS,Bypass Freq Normal
2020-11-17,12:59:05,28343,Minor,0228h,01,STS,Bypass Freq Out Range
2020-11-17,12:59:05,28263,Info.,0228h,00,STS,Bypass Freq Normal
2020-11-17,12:59:04,28187,Minor,0228h,01,STS,Bypass Freq Out Range
2020-11-17,12:59:02,28043,Info.,0228h,00,STS,Bypass Freq Normal
2020-11-17,12:59:01,27881,Minor,0228h,01,STS,Bypass Freq Out Range
2020-11-17,12:59:00,27794,Info.,0228h,00,STS,Bypass Freq Normal
2020-11-17,12:58:59,27740,Minor,0228h,01,STS,Bypass Freq Out Range
2020-11-17,12:58:58,27583,Info.,0228h,00,STS,Bypass Freq Normal
2020-11-17,12:58:56,27445,Minor,0228h,01,STS,Bypass Freq Out Range
2020-11-17,12:58:56,27365,Info.,0228h,00,STS,Bypass Freq Normal
2020-11-17,12:58:55,27290,Minor,0228h,01,STS,Bypass Freq Out Range
2020-11-17,12:58:54,27164,Info.,0228h,00,STS,Bypass Freq Normal
2020-11-17,12:58:52,26974,Minor,0228h,01,STS,Bypass Freq Out Range
2020-11-17,12:58:51,26911,Info.,0228h,00,STS,Bypass Freq Normal
2020-11-17,12:58:50,26849,Minor,0228h,01,STS,Bypass Freq Out Range
2020-11-17,12:58:49,26688,Info.,0228h,00,STS,Bypass Freq Normal
2020-11-17,12:58:47,26512,Minor,0228h,01,STS,Bypass Freq Out Range
2020-11-17,12:58:46,26436,Info.,0228h,00,STS,Bypass Freq Normal
2020-11-17,12:58:46,26366,Minor,0228h,01,STS,Bypass Freq Out Range
2020-11-17,12:58:44,26217,Info.,0228h,00,STS,Bypass Freq Normal
2020-11-17,12:58:43,26063,Minor,0228h,01,STS,Bypass Freq Out Range
2020-11-17,12:58:42,25992,Info.,0228h,00,STS,Bypass Freq Normal
2020-11-17,12:58:41,25930,Minor,0228h,01,STS,Bypass Freq Out Range
2020-11-17,12:58:40,25777,Info.,0228h,00,STS,Bypass Freq Normal
2020-11-17,12:58:39,25671,Minor,0228h,01,STS,Bypass Freq Out Range
2020-11-17,12:58:38,25584,Info.,0228h,00,STS,Bypass Freq Normal
2020-11-17,12:58:37,25513,Minor,0228h,01,STS,Bypass Freq Out Range
2020-11-17,12:58:36,25364,Info.,0228h,00,STS,Bypass Freq Normal
2020-11-17,12:58:34,25243,Minor,0228h,01,STS,Bypass Freq Out Range
2020-11-17,12:58:34,25160,Info.,0228h,00,STS,Bypass Freq Normal
2020-11-17,12:58:33,25098,Minor,0228h,01,STS,Bypass Freq Out Range
2020-11-17,12:58:31,24949,Info.,0228h,00,STS,Bypass Freq Normal
2020-11-17,12:58:30,24810,Minor,0228h,01,STS,Bypass Freq Out Range
2020-11-17,12:58:29,24731,Info.,0228h,00,STS,Bypass Freq Normal
2020-11-17,12:58:29,24673,Minor,0228h,01,STS,Bypass Freq Out Range
2020-11-17,12:58:27,24536,Info.,0228h,00,STS,Bypass Freq Normal
2020-11-17,12:58:26,24382,Minor,0228h,01,STS,Bypass Freq Out Range
2020-11-17,12:58:25,24322,Info.,0228h,00,STS,Bypass Freq Normal
2020-11-17,12:58:25,24261,Minor,0228h,01,STS,Bypass Freq Out Range
2020-11-17,12:58:23,24128,Info.,0228h,00,STS,Bypass Freq Normal
2020-11-17,12:58:22,24030,Minor,0228h,01,STS,Bypass Freq Out Range
2020-11-17,12:58:21,23954,Info.,0228h,00,STS,Bypass Freq Normal
2020-11-17,12:58:21,23887,Minor,0228h,01,STS,Bypass Freq Out Range
2020-11-17,12:58:19,23759,Info.,0228h,00,STS,Bypass Freq Normal
2020-11-17,12:58:18,23594,Minor,0228h,01,STS,Bypass Freq Out Range
2020-11-17,12:58:17,23534,Info.,0228h,00,STS,Bypass Freq Normal
2020-11-17,12:58:17,23476,Minor,0228h,01,STS,Bypass Freq Out Range
2020-11-17,12:58:15,23335,Info.,0228h,00,STS,Bypass Freq Normal
2020-11-17,12:58:14,23171,Minor,0228h,01,STS,Bypass Freq Out Range
2020-11-17,12:58:13,23111,Info.,0228h,00,STS,Bypass Freq Normal
2020-11-17,12:58:12,23053,Minor,0228h,01,STS,Bypass Freq Out Range
2020-11-17,12:58:11,22913,Info.,0228h,00,STS,Bypass Freq Normal
2020-11-17,12:58:10,22803,Minor,0228h,01,STS,Bypass Freq Out Range
2020-11-17,12:58:09,22731,Info.,0228h,00,STS,Bypass Freq Normal
2020-11-17,12:58:09,22673,Minor,0228h,01,STS,Bypass Freq Out Range
2020-11-17,12:58:07,22545,Info.,0228h,00,STS,Bypass Freq Normal
2020-11-17,12:58:06,22442,Minor,0228h,01,STS,Bypass Freq Out Range
2020-11-17,12:58:06,22375,Info.,0228h,00,STS,Bypass Freq Normal
2020-11-17,12:58:05,22317,Minor,0228h,01,STS,Bypass Freq Out Range
2020-11-17,12:58:04,22180,Info.,0228h,00,STS,Bypass Freq Normal
2020-11-17,12:58:03,22086,Minor,0228h,01,STS,Bypass Freq Out Range
2020-11-17,12:58:02,22018,Info.,0228h,00,STS,Bypass Freq Normal
2020-11-17,12:58:02,21961,Minor,0228h,01,STS,Bypass Freq Out Range
2020-11-17,12:58:00,21828,Info.,0228h,00,STS,Bypass Freq Normal
2020-11-17,12:57:59,21733,Minor,0228h,01,STS,Bypass Freq Out Range
2020-11-17,12:57:59,21665,Info.,0228h,00,STS,Bypass Freq Normal
2020-11-17,12:57:58,21608,Minor,0228h,01,STS,Bypass Freq Out Range
2020-11-17,12:57:57,21487,Info.,0228h,00,STS,Bypass Freq Normal
2020-11-17,12:57:56,21377,Minor,0228h,01,STS,Bypass Freq Out Range
2020-11-17,12:57:55,21317,Info.,0228h,00,STS,Bypass Freq Normal
2020-11-17,12:57:54,21259,Minor,0228h,01,STS,Bypass Freq Out Range
2020-11-17,12:57:53,21138,Info.,0228h,00,STS,Bypass Freq Normal
2020-11-17,12:57:52,21033,Minor,0228h,01,STS,Bypass Freq Out Range
2020-11-17,12:57:50,20834,Info.,8660h,01,INV #2,Inverter PLL async
2020-11-17,12:57:50,20831,Info.,8660h,01,INV #3,Inverter PLL async
2020-11-17,12:57:50,20830,Info.,8660h,01,INV #6,Inverter PLL async
2020-11-17,12:57:50,20826,Info.,8660h,01,INV #5,Inverter PLL async
2020-11-17,12:57:50,20808,Info.,8660h,01,INV #1,Inverter PLL async
2020-11-17,12:57:50,20798,Info.,8660h,01,INV #8,Inverter PLL async
2020-11-17,12:57:50,20798,Info.,8660h,01,INV #4,Inverter PLL async
2020-11-17,12:57:50,20795,Info.,8660h,01,INV #7,Inverter PLL async
2020-11-17,11:43:18,32354,Info.,5004h,01,STS,On Line
2020-11-17,11:43:14,31953,Info.,0100h,00,STS,Mains Input Volt Normal
2020-11-17,11:43:14,31943,Info.,0228h,00,STS,Bypass Freq Normal
2020-11-17,11:43:14,31943,Info.,0128h,00,STS,Mains Input Freq Normal
2020-11-17,11:43:14,31924,Info.,0200h,00,STS,Bypass Volt Normal
2020-11-17,11:42:49,29471,Minor,0128h,01,STS,Mains Input Freq Out Range
2020-11-17,11:42:49,29429,Minor,0228h,01,STS,Bypass Freq Out Range
2020-11-17,11:42:46,29119,Minor,0200h,01,STS,Bypass Volt Out Range
2020-11-17,11:42:45,29083,Info.,5003h,01,STS,Load on Battery
2020-11-17,11:42:45,29083,Minor,0100h,05,STS,Mains Input Volt Out Range
2020-11-16,20:12:14,16754,Info.,5004h,01,STS,On Line
2020-11-16,20:12:10,16348,Info.,0100h,00,STS,Mains Input Volt Normal
2020-11-16,20:12:10,16315,Info.,5003h,01,STS,Load on Battery
2020-11-16,20:12:10,16315,Minor,0100h,02,STS,Mains Input Volt Out Range
2020-11-16,20:09:12,64089,Info.,5004h,01,STS,On Line
2020-11-16,20:09:08,63695,Info.,0100h,00,STS,Mains Input Volt Normal
2020-11-16,20:09:08,63685,Info.,0228h,00,STS,Bypass Freq Normal
2020-11-16,20:09:08,63685,Info.,0128h,00,STS,Mains Input Freq Normal
2020-11-16,20:09:08,63664,Info.,0200h,00,STS,Bypass Volt Normal
2020-11-16,20:09:01,62940,Minor,0200h,01,STS,Bypass Volt Out Range
2020-11-16,20:09:01,62936,Minor,0128h,01,STS,Mains Input Freq Out Range
2020-11-16,20:09:00,62898,Minor,0228h,01,STS,Bypass Freq Out Range
2020-11-16,20:09:00,62892,Info.,5003h,01,STS,Load on Battery
2020-11-16,20:09:00,62892,Minor,0100h,05,STS,Mains Input Volt Out Range
2020-11-16,20:08:46,61419,Info.,5004h,01,STS,On Line
2020-11-16,20:08:42,61014,Info.,0100h,00,STS,Mains Input Volt Normal
2020-11-16,20:08:41,60983,Info.,5003h,01,STS,Load on Battery
2020-11-16,20:08:41,60983,Minor,0100h,05,STS,Mains Input Volt Out Range
2020-11-16,17:16:17,9591,Info.,5004h,01,STS,On Line
2020-11-16,17:16:13,9197,Info.,0100h,00,STS,Mains Input Volt Normal
2020-11-16,17:16:13,9187,Info.,0228h,00,STS,Bypass Freq Normal
2020-11-16,17:16:13,9187,Info.,0128h,00,STS,Mains Input Freq Normal
2020-11-16,17:16:13,9164,Info.,0200h,00,STS,Bypass Volt Normal
2020-11-16,17:15:50,6909,Minor,0128h,01,STS,Mains Input Freq Out Range
2020-11-16,17:15:50,6874,Minor,0228h,01,STS,Bypass Freq Out Range
2020-11-16,17:15:47,6590,Minor,0200h,01,STS,Bypass Volt Out Range
2020-11-16,17:15:47,6552,Info.,5003h,01,STS,Load on Battery
2020-11-16,17:15:47,6551,Minor,0100h,02,STS,Mains Input Volt Out Range
2020-11-15,07:40:04,36798,Info.,5004h,01,STS,On Line
2020-11-15,07:40:00,36395,Info.,0100h,00,STS,Mains Input Volt Normal
2020-11-15,07:40:00,36363,Info.,5003h,01,STS,Load on Battery
2020-11-15,07:40:00,36362,Minor,0100h,03,STS,Mains Input Volt Out Range
2020-11-15,04:36:21,48653,Info.,5004h,01,STS,On Line
2020-11-15,04:36:17,48243,Info.,0100h,00,STS,Mains Input Volt Normal
2020-11-15,04:36:17,48233,Info.,0228h,00,STS,Bypass Freq Normal
2020-11-15,04:36:17,48233,Info.,0128h,00,STS,Mains Input Freq Normal
2020-11-15,04:36:16,48212,Info.,0200h,00,STS,Bypass Volt Normal
2020-11-15,04:36:06,47161,Minor,0128h,01,STS,Mains Input Freq Out Range
2020-11-15,04:36:05,47116,Minor,0228h,01,STS,Bypass Freq Out Range
2020-11-15,04:36:05,47106,Info.,0228h,00,STS,Bypass Freq Normal
2020-11-15,04:36:05,47106,Info.,0128h,00,STS,Mains Input Freq Normal
2020-11-15,04:35:50,45601,Minor,0128h,01,STS,Mains Input Freq Out Range
2020-11-15,04:35:50,45562,Minor,0228h,01,STS,Bypass Freq Out Range
2020-11-15,04:35:50,45552,Info.,0228h,00,STS,Bypass Freq Normal
2020-11-15,04:35:50,45548,Info.,0128h,00,STS,Mains Input Freq Normal
2020-11-15,04:35:49,45501,Minor,0128h,01,STS,Mains Input Freq Out Range
2020-11-15,04:35:49,45456,Minor,0228h,01,STS,Bypass Freq Out Range
2020-11-15,04:35:49,45428,Minor,0200h,01,STS,Bypass Volt Out Range
2020-11-15,04:35:48,45378,Info.,5003h,01,STS,Load on Battery
2020-11-15,04:35:48,45378,Minor,0100h,05,STS,Mains Input Volt Out Range
2020-11-11,14:59:57,32841,Info.,5004h,01,STS,On Line
2020-11-11,14:59:53,32447,Info.,0100h,00,STS,Mains Input Volt Normal
2020-11-11,14:59:52,32437,Info.,5003h,01,STS,Load on Battery
2020-11-11,14:59:52,32437,Minor,0100h,05,STS,Mains Input Volt Out Range
2020-11-11,14:18:26,45966,Info.,5004h,01,STS,On Line
2020-11-11,14:18:22,45567,Info.,0100h,00,STS,Mains Input Volt Normal
2020-11-11,14:18:22,45556,Info.,0228h,00,STS,Bypass Freq Normal
2020-11-11,14:18:22,45556,Info.,0128h,00,STS,Mains Input Freq Normal
2020-11-11,14:18:22,45536,Info.,0200h,00,STS,Bypass Volt Normal
2020-11-11,14:17:55,42799,Minor,0128h,01,STS,Mains Input Freq Out Range
2020-11-11,14:17:54,42782,Minor,0200h,01,STS,Bypass Volt Out Range
2020-11-11,14:17:54,42756,Minor,0228h,01,STS,Bypass Freq Out Range
2020-11-11,14:17:54,42733,Info.,5003h,01,STS,Load on Battery
2020-11-11,14:17:54,42733,Minor,0100h,05,STS,Mains Input Volt Out Range
2020-11-09,17:42:10,45086,Info.,5004h,01,STS,On Line
2020-11-09,17:42:06,44690,Info.,0100h,00,STS,Mains Input Volt Normal
2020-11-09,17:42:06,44680,Info.,5003h,01,STS,Load on Battery
2020-11-09,17:42:06,44680,Minor,0100h,05,STS,Mains Input Volt Out Range
2020-11-09,14:44:48,29552,Info.,5004h,01,STS,On Line
2020-11-09,14:44:44,29153,Info.,0100h,00,STS,Mains Input Volt Normal
2020-11-09,14:44:44,29122,Info.,5003h,01,STS,Load on Battery
2020-11-09,14:44:44,29122,Minor,0100h,05,STS,Mains Input Volt Out Range
2020-11-07,16:39:43,20069,Info.,5004h,01,STS,On Line
2020-11-07,16:39:39,19663,Info.,0100h,00,STS,Mains Input Volt Normal
2020-11-07,16:39:39,19653,Info.,5003h,01,STS,Load on Battery
2020-11-07,16:39:39,19653,Minor,0100h,05,STS,Mains Input Volt Out Range
2020-11-07,15:41:35,64486,Info.,5004h,01,STS,On Line
2020-11-07,15:41:31,64090,Info.,0100h,00,STS,Mains Input Volt Normal
2020-11-07,15:41:31,64080,Info.,0228h,00,STS,Bypass Freq Normal
2020-11-07,15:41:31,64080,Info.,0128h,00,STS,Mains Input Freq Normal
2020-11-07,15:41:31,64060,Info.,0200h,00,STS,Bypass Volt Normal
2020-11-07,15:41:05,61405,Minor,0128h,01,STS,Mains Input Freq Out Range
2020-11-07,15:41:05,61404,Minor,0200h,01,STS,Bypass Volt Out Range
2020-11-07,15:41:04,61363,Minor,0228h,01,STS,Bypass Freq Out Range
2020-11-07,15:41:04,61356,Info.,5003h,01,STS,Load on Battery
2020-11-07,15:41:04,61356,Minor,0100h,05,STS,Mains Input Volt Out Range
2020-11-07,15:19:11,61118,Info.,5004h,01,STS,On Line
2020-11-07,15:19:07,60720,Info.,0100h,00,STS,Mains Input Volt Normal
2020-11-07,15:19:07,60689,Info.,5003h,01,STS,Load on Battery
2020-11-07,15:19:07,60688,Minor,0100h,03,STS,Mains Input Volt Out Range
2020-11-07,14:58:50,4594,Info.,5004h,01,STS,On Line
2020-11-07,14:58:46,4193,Info.,0100h,00,STS,Mains Input Volt Normal
2020-11-07,14:58:46,4183,Info.,0228h,00,STS,Bypass Freq Normal
2020-11-07,14:58:46,4183,Info.,0128h,00,STS,Mains Input Freq Normal
2020-11-07,14:58:46,4163,Info.,0200h,00,STS,Bypass Volt Normal
2020-11-07,14:58:17,1305,Minor,0200h,01,STS,Bypass Volt Out Range
2020-11-07,14:58:17,1305,Minor,0128h,01,STS,Mains Input Freq Out Range
2020-11-07,14:58:17,1262,Minor,0228h,01,STS,Bypass Freq Out Range
2020-11-07,14:58:17,1255,Minor,0100h,05,STS,Mains Input Volt Out Range
2020-11-07,14:58:17,1255,Info.,5003h,01,STS,Load on Battery
2020-11-04,19:14:20,63062,Info.,5004h,01,STS,On Line
2020-11-04,19:14:16,62660,Info.,0100h,00,STS,Mains Input Volt Normal
2020-11-04,19:14:16,62650,Info.,5003h,01,STS,Load on Battery
2020-11-04,19:14:16,62650,Minor,0100h,05,STS,Mains Input Volt Out Range
2020-11-04,18:40:57,59429,Info.,5004h,01,STS,On Line
2020-11-04,18:40:53,59035,Info.,0100h,00,STS,Mains Input Volt Normal
2020-11-04,18:40:53,59025,Info.,0228h,00,STS,Bypass Freq Normal
2020-11-04,18:40:53,59025,Info.,0128h,00,STS,Mains Input Freq Normal
2020-11-04,18:40:53,59004,Info.,0200h,00,STS,Bypass Volt Normal
2020-11-04,18:40:47,58357,Minor,0128h,01,STS,Mains Input Freq Out Range
2020-11-04,18:40:46,58319,Minor,0200h,01,STS,Bypass Volt Out Range
2020-11-04,18:40:46,58308,Minor,0228h,01,STS,Bypass Freq Out Range
2020-11-04,18:40:46,58302,Info.,0228h,00,STS,Bypass Freq Normal
2020-11-04,18:40:46,58272,Minor,0228h,01,STS,Bypass Freq Out Range
2020-11-04,18:40:46,58270,Info.,5003h,01,STS,Load on Battery
2020-11-04,18:40:46,58270,Minor,0100h,03,STS,Mains Input Volt Out Range
2020-11-04,18:40:10,54720,Info.,5004h,01,STS,On Line
2020-11-04,18:40:06,54320,Info.,0100h,00,STS,Mains Input Volt Normal
2020-11-04,18:40:06,54314,Info.,0228h,00,STS,Bypass Freq Normal
2020-11-04,18:40:06,54309,Info.,0128h,00,STS,Mains Input Freq Normal
2020-11-04,18:40:06,54295,Info.,0200h,00,STS,Bypass Volt Normal
2020-11-04,18:40:06,54262,Minor,0128h,01,STS,Mains Input Freq Out Range
2020-11-04,18:40:05,54228,Minor,0200h,01,STS,Bypass Volt Out Range
2020-11-04,18:40:05,54216,Minor,0228h,01,STS,Bypass Freq Out Range
2020-11-04,18:40:05,54211,Info.,0228h,00,STS,Bypass Freq Normal
2020-11-04,18:40:05,54208,Minor,0228h,01,STS,Bypass Freq Out Range
2020-11-04,18:40:05,54204,Info.,0228h,00,STS,Bypass Freq Normal
2020-11-04,18:40:05,54192,Minor,0228h,01,STS,Bypass Freq Out Range
2020-11-04,18:40:05,54191,Info.,0228h,00,STS,Bypass Freq Normal
2020-11-04,18:40:05,54181,Minor,0228h,01,STS,Bypass Freq Out Range
2020-11-04,18:40:05,54178,Info.,5003h,01,STS,Load on Battery
2020-11-04,18:40:05,54178,Minor,0100h,03,STS,Mains Input Volt Out Range
2020-11-04,18:28:56,52826,Info.,5004h,01,STS,On Line
2020-11-04,18:28:52,52425,Info.,0100h,00,STS,Mains Input Volt Normal
2020-11-04,18:28:52,52415,Info.,0228h,00,STS,Bypass Freq Normal
2020-11-04,18:28:52,52415,Info.,0128h,00,STS,Mains Input Freq Normal
2020-11-04,18:28:52,52395,Info.,0200h,00,STS,Bypass Volt Normal
2020-11-04,18:28:25,49711,Minor,0128h,01,STS,Mains Input Freq Out Range
2020-11-04,18:28:24,49672,Minor,0200h,01,STS,Bypass Volt Out Range
2020-11-04,18:28:24,49644,Minor,0228h,01,STS,Bypass Freq Out Range
2020-11-04,18:28:24,49636,Info.,0228h,00,STS,Bypass Freq Normal
2020-11-04,18:28:24,49630,Minor,0228h,01,STS,Bypass Freq Out Range
2020-11-04,18:28:24,49628,Info.,0228h,00,STS,Bypass Freq Normal
2020-11-04,18:28:24,49626,Minor,0228h,01,STS,Bypass Freq Out Range
2020-11-04,18:28:24,49622,Info.,5003h,01,STS,Load on Battery
2020-11-04,18:28:24,49622,Minor,0100h,05,STS,Mains Input Volt Out Range
2020-11-04,18:27:42,45446,Info.,5004h,01,STS,On Line
2020-11-04,18:27:38,45046,Info.,0100h,00,STS,Mains Input Volt Normal
2020-11-04,18:27:38,45040,Info.,0228h,00,STS,Bypass Freq Normal
2020-11-04,18:27:38,45036,Info.,0128h,00,STS,Mains Input Freq Normal
2020-11-04,18:27:38,45023,Info.,0200h,00,STS,Bypass Volt Normal
2020-11-04,18:27:23,43536,Minor,0128h,01,STS,Mains Input Freq Out Range
2020-11-04,18:27:23,43507,Minor,0200h,01,STS,Bypass Volt Out Range
2020-11-04,18:27:23,43495,Minor,0228h,01,STS,Bypass Freq Out Range
2020-11-04,18:27:23,43493,Info.,0228h,00,STS,Bypass Freq Normal
2020-11-04,18:27:23,43489,Minor,0228h,01,STS,Bypass Freq Out Range
2020-11-04,18:27:23,43487,Info.,0228h,00,STS,Bypass Freq Normal
2020-11-04,18:27:22,43481,Minor,0228h,01,STS,Bypass Freq Out Range
2020-11-04,18:27:22,43476,Info.,0228h,00,STS,Bypass Freq Normal
2020-11-04,18:27:22,43475,Minor,0228h,01,STS,Bypass Freq Out Range
2020-11-04,18:27:22,43472,Info.,0228h,00,STS,Bypass Freq Normal
2020-11-04,18:27:22,43459,Minor,0228h,01,STS,Bypass Freq Out Range
2020-11-04,18:27:22,43458,Minor,0100h,03,STS,Mains Input Volt Out Range
2020-11-04,18:27:22,43454,Info.,0100h,00,STS,Mains Input Volt Normal
2020-11-04,18:27:22,43444,Info.,0228h,00,STS,Bypass Freq Normal
2020-11-04,18:27:22,43444,Info.,0128h,00,STS,Mains Input Freq Normal
2020-11-04,18:27:22,43425,Info.,0200h,00,STS,Bypass Volt Normal
2020-11-04,18:27:22,43393,Minor,0128h,01,STS,Mains Input Freq Out Range
2020-11-04,18:27:21,43361,Minor,0200h,01,STS,Bypass Volt Out Range
2020-11-04,18:27:21,43340,Minor,0228h,01,STS,Bypass Freq Out Range
2020-11-04,18:27:21,43334,Info.,0228h,00,STS,Bypass Freq Normal
2020-11-04,18:27:21,43328,Minor,0228h,01,STS,Bypass Freq Out Range
2020-11-04,18:27:21,43326,Info.,0228h,00,STS,Bypass Freq Normal
2020-11-04,18:27:21,43314,Minor,0228h,01,STS,Bypass Freq Out Range
2020-11-04,18:27:21,43311,Info.,5003h,01,STS,Load on Battery
2020-11-04,18:27:21,43311,Minor,0100h,03,STS,Mains Input Volt Out Range
2020-11-03,01:42:08,52520,Info.,5004h,01,STS,On Line
2020-11-03,01:42:04,52124,Info.,0100h,00,STS,Mains Input Volt Normal
2020-11-03,01:42:04,52114,Info.,0228h,00,STS,Bypass Freq Normal
2020-11-03,01:42:04,52114,Info.,0128h,00,STS,Mains Input Freq Normal
2020-11-03,01:42:04,52095,Info.,0200h,00,STS,Bypass Volt Normal
2020-11-03,01:42:04,52067,Minor,0128h,01,STS,Mains Input Freq Out Range
2020-11-03,01:42:03,52047,Minor,0200h,01,STS,Bypass Volt Out Range
2020-11-03,01:42:03,52025,Minor,0228h,01,STS,Bypass Freq Out Range
2020-11-03,01:42:03,51999,Info.,5003h,01,STS,Load on Battery
2020-11-03,01:42:03,51999,Minor,0100h,02,STS,Mains Input Volt Out Range
2020-11-02,12:03:27,55760,Info.,5004h,01,STS,On Line
2020-11-02,12:03:23,55361,Info.,0100h,00,STS,Mains Input Volt Normal
2020-11-02,12:03:23,55351,Info.,0228h,00,STS,Bypass Freq Normal
2020-11-02,12:03:23,55351,Info.,0128h,00,STS,Mains Input Freq Normal
2020-11-02,12:03:22,55333,Info.,0200h,00,STS,Bypass Volt Normal
2020-11-02,12:03:17,54831,Minor,0128h,01,STS,Mains Input Freq Out Range
2020-11-02,12:03:17,54811,Minor,0200h,01,STS,Bypass Volt Out Range
2020-11-02,12:03:17,54783,Minor,0228h,01,STS,Bypass Freq Out Range
2020-11-02,12:03:17,54769,Info.,5003h,01,STS,Load on Battery
2020-11-02,12:03:17,54769,Minor,0100h,03,STS,Mains Input Volt Out Range
2020-11-01,17:06:11,48183,Info.,5004h,01,STS,On Line
2020-11-01,17:06:07,47784,Info.,0100h,00,STS,Mains Input Volt Normal
2020-11-01,17:06:07,47774,Info.,0228h,00,STS,Bypass Freq Normal
2020-11-01,17:06:07,47774,Info.,0128h,00,STS,Mains Input Freq Normal
2020-11-01,17:06:07,47755,Info.,0200h,00,STS,Bypass Volt Normal
2020-11-01,17:06:07,47729,Minor,0128h,01,STS,Mains Input Freq Out Range
2020-11-01,17:06:06,47686,Minor,0228h,01,STS,Bypass Freq Out Range
2020-11-01,17:06:06,47678,Info.,5003h,01,STS,Load on Battery
2020-11-01,17:06:06,47678,Minor,0100h,02,STS,Mains Input Volt Out Range
2020-11-01,17:06:06,47673,Minor,0200h,01,STS,Bypass Volt Out Range
2020-11-01,10:16:26,14475,Info.,5004h,01,STS,On Line
2020-11-01,10:16:22,14082,Info.,0100h,00,STS,Mains Input Volt Normal
2020-11-01,10:16:22,14072,Info.,0228h,00,STS,Bypass Freq Normal
2020-11-01,10:16:22,14072,Info.,0128h,00,STS,Mains Input Freq Normal
2020-11-01,10:16:22,14056,Info.,0200h,00,STS,Bypass Volt Normal
2020-11-01,10:16:17,13552,Minor,0128h,01,STS,Mains Input Freq Out Range
2020-11-01,10:16:17,13536,Minor,0200h,01,STS,Bypass Volt Out Range
2020-11-01,10:16:16,13513,Minor,0228h,01,STS,Bypass Freq Out Range
2020-11-01,10:16:16,13505,Info.,5003h,01,STS,Load on Battery
2020-11-01,10:16:16,13505,Minor,0100h,05,STS,Mains Input Volt Out Range
2020-11-01,00:44:48,58044,Info.,5004h,01,STS,On Line
2020-11-01,00:44:44,57640,Info.,0100h,00,STS,Mains Input Volt Normal
2020-11-01,00:44:43,57589,Minor,0100h,03,STS,Mains Input Volt Out Range
2020-11-01,00:44:43,57588,Info.,5003h,01,STS,Load on Battery
2020-10-31,10:41:38,45475,Info.,5004h,01,STS,On Line
2020-10-31,10:41:33,45082,Info.,0100h,00,STS,Mains Input Volt Normal
2020-10-31,10:41:33,45072,Info.,5003h,01,STS,Load on Battery
2020-10-31,10:41:33,45072,Minor,0100h,05,STS,Mains Input Volt Out Range
2020-10-27,03:43:52,7785,Info.,5004h,01,STS,On Line
2020-10-27,03:43:48,7390,Info.,0100h,00,STS,Mains Input Volt Normal
2020-10-27,03:43:48,7360,Info.,5003h,01,STS,Load on Battery
2020-10-27,03:43:48,7360,Minor,0100h,02,STS,Mains Input Volt Out Range
2020-10-25,00:39:29,37472,Info.,5004h,01,STS,On Line
2020-10-25,00:39:25,37080,Info.,0100h,00,STS,Mains Input Volt Normal
2020-10-25,00:39:25,37070,Info.,0228h,00,STS,Bypass Freq Normal
2020-10-25,00:39:25,37070,Info.,0128h,00,STS,Mains Input Freq Normal
2020-10-25,00:39:24,37051,Info.,0200h,00,STS,Bypass Volt Normal
2020-10-25,00:39:19,36547,Minor,0128h,01,STS,Mains Input Freq Out Range
2020-10-25,00:39:19,36508,Minor,0228h,01,STS,Bypass Freq Out Range
2020-10-25,00:39:19,36501,Info.,5003h,01,STS,Load on Battery
2020-10-25,00:39:19,36501,Minor,0100h,05,STS,Mains Input Volt Out Range
2020-10-25,00:39:19,36501,Minor,0200h,01,STS,Bypass Volt Out Range
2020-10-24,16:48:31,29900,Info.,5004h,01,STS,On Line
2020-10-24,16:48:27,29506,Info.,0100h,00,STS,Mains Input Volt Normal
2020-10-24,16:48:27,29498,Info.,0228h,00,STS,Bypass Freq Normal
2020-10-24,16:48:27,29496,Info.,0128h,00,STS,Mains Input Freq Normal
2020-10-24,16:48:27,29481,Info.,0200h,00,STS,Bypass Volt Normal
2020-10-24,16:37:40,30299,Minor,0200h,01,STS,Bypass Volt Out Range
2020-10-24,16:37:40,30298,Minor,0128h,01,STS,Mains Input Freq Out Range
2020-10-24,16:37:40,30257,Minor,0228h,01,STS,Bypass Freq Out Range
2020-10-24,16:37:40,30249,Minor,0100h,05,STS,Mains Input Volt Out Range
2020-10-24,16:37:40,30249,Info.,5003h,01,STS,Load on Battery
2020-10-22,11:45:51,5207,Info.,5004h,01,STS,On Line
2020-10-22,11:45:47,4814,Info.,0100h,00,STS,Mains Input Volt Normal
2020-10-22,11:45:46,4763,Info.,5003h,01,STS,Load on Battery
2020-10-22,11:45:46,4763,Minor,0100h,05,STS,Mains Input Volt Out Range
2020-10-19,10:52:06,43511,Info.,5004h,01,STS,On Line
2020-10-19,10:52:02,43102,Info.,0100h,00,STS,Mains Input Volt Normal
2020-10-19,10:52:02,43092,Info.,0228h,00,STS,Bypass Freq Normal
2020-10-19,10:52:02,43092,Info.,0128h,00,STS,Mains Input Freq Normal
2020-10-19,10:52:02,43076,Info.,0200h,00,STS,Bypass Volt Normal
2020-10-19,10:51:57,42563,Minor,0128h,01,STS,Mains Input Freq Out Range
2020-10-19,10:51:57,42563,Minor,0200h,01,STS,Bypass Volt Out Range
2020-10-19,10:51:56,42518,Minor,0228h,01,STS,Bypass Freq Out Range
2020-10-19,10:51:56,42515,Minor,0100h,03,STS,Mains Input Volt Out Range
2020-10-19,10:51:56,42515,Info.,5003h,01,STS,Load on Battery
2020-10-18,06:33:45,11613,Info.,5004h,01,STS,On Line
2020-10-18,06:33:41,11214,Info.,0100h,00,STS,Mains Input Volt Normal
2020-10-18,06:33:41,11204,Info.,0228h,00,STS,Bypass Freq Normal
2020-10-18,06:33:41,11204,Info.,0128h,00,STS,Mains Input Freq Normal
2020-10-18,06:33:40,11186,Info.,0200h,00,STS,Bypass Volt Normal
2020-10-18,06:33:35,10684,Minor,0128h,01,STS,Mains Input Freq Out Range
2020-10-18,06:33:35,10660,Minor,0200h,01,STS,Bypass Volt Out Range
2020-10-18,06:33:35,10641,Minor,0228h,01,STS,Bypass Freq Out Range
2020-10-18,06:33:35,10635,Info.,5003h,01,STS,Load on Battery
2020-10-18,06:33:35,10635,Minor,0100h,05,STS,Mains Input Volt Out Range
2020-10-16,17:18:04,32682,Info.,5004h,01,STS,On Line
2020-10-16,17:18:00,32287,Info.,0100h,00,STS,Mains Input Volt Normal
2020-10-16,17:17:59,32252,Info.,5003h,01,STS,Load on Battery
2020-10-16,17:17:59,32252,Minor,0100h,05,STS,Mains Input Volt Out Range
2020-10-16,17:17:58,32162,Info.,5004h,01,STS,On Line
2020-10-16,17:17:54,31761,Info.,0100h,00,STS,Mains Input Volt Normal
2020-10-16,17:17:54,31726,Info.,5003h,01,STS,Load on Battery
2020-10-16,17:17:54,31726,Minor,0100h,05,STS,Mains Input Volt Out Range
2020-10-16,17:00:16,56983,Info.,5004h,01,STS,On Line
2020-10-16,17:00:12,56587,Info.,0100h,00,STS,Mains Input Volt Normal
2020-10-16,17:00:12,56555,Minor,0100h,05,STS,Mains Input Volt Out Range
2020-10-16,17:00:12,56555,Info.,5003h,01,STS,Load on Battery
2020-10-16,07:39:48,36680,Info.,5004h,01,STS,On Line
2020-10-16,07:39:44,36282,Info.,0100h,00,STS,Mains Input Volt Normal
2020-10-16,07:39:44,36272,Info.,0228h,00,STS,Bypass Freq Normal
2020-10-16,07:39:44,36272,Info.,0128h,00,STS,Mains Input Freq Normal
2020-10-16,07:39:44,36253,Info.,0200h,00,STS,Bypass Volt Normal
2020-10-15,20:34:34,43021,Minor,0128h,01,STS,Mains Input Freq Out Range
2020-10-15,20:34:34,42985,Minor,0228h,01,STS,Bypass Freq Out Range
2020-10-15,20:34:30,42660,Info.,0127h,00,STS,Mains Input Phase Sequence Normal
2020-10-15,20:34:30,42660,Info.,0227h,00,STS,Bypass Input Phase Sequence Normal
2020-10-15,20:34:30,42650,Minor,0200h,01,STS,Bypass Volt Out Range
2020-10-15,20:34:30,42649,Minor,0227h,01,STS,Bypass Input Phase Sequence Abnormal
2020-10-15,20:34:30,42648,Minor,0127h,01,STS,Mains Input Phase Sequence Abnormal
2020-10-15,20:34:30,42610,Info.,5003h,01,STS,Load on Battery
2020-10-15,20:34:30,42610,Minor,0100h,02,STS,Mains Input Volt Out Range
2020-10-11,10:54:44,15875,Info.,5004h,01,STS,On Line
2020-10-11,10:54:40,15476,Info.,0100h,00,STS,Mains Input Volt Normal
2020-10-11,10:54:40,15466,Info.,0228h,00,STS,Bypass Freq Normal
2020-10-11,10:54:40,15466,Info.,0128h,00,STS,Mains Input Freq Normal
2020-10-11,10:54:39,15447,Info.,0200h,00,STS,Bypass Volt Normal
2020-10-11,10:53:32,8747,Minor,0200h,01,STS,Bypass Volt Out Range
2020-10-11,10:53:32,8744,Minor,0128h,01,STS,Mains Input Freq Out Range
2020-10-11,10:53:32,8707,Minor,0228h,01,STS,Bypass Freq Out Range
2020-10-11,10:53:32,8699,Info.,5003h,01,STS,Load on Battery
2020-10-11,10:53:32,8699,Minor,0100h,05,STS,Mains Input Volt Out Range
2020-10-10,12:09:27,16314,Info.,5004h,01,STS,On Line
2020-10-10,12:09:23,15910,Info.,0100h,00,STS,Mains Input Volt Normal
2020-10-10,12:09:23,15900,Info.,0228h,00,STS,Bypass Freq Normal
2020-10-10,12:09:23,15900,Info.,0128h,00,STS,Mains Input Freq Normal
2020-10-10,12:09:23,15882,Info.,0200h,00,STS,Bypass Volt Normal
2020-10-10,11:25:21,13838,Minor,0200h,01,STS,Bypass Volt Out Range
2020-10-10,11:25:21,13838,Minor,0128h,01,STS,Mains Input Freq Out Range
2020-10-10,11:25:20,13796,Minor,0228h,01,STS,Bypass Freq Out Range
2020-10-10,11:25:20,13789,Info.,5003h,01,STS,Load on Battery
2020-10-10,11:25:20,13789,Minor,0100h,02,STS,Mains Input Volt Out Range
2020-10-09,11:40:57,52956,Info.,5004h,01,STS,On Line
2020-10-09,11:40:53,52559,Info.,0100h,00,STS,Mains Input Volt Normal
2020-10-09,11:40:53,52528,Info.,5003h,01,STS,Load on Battery
2020-10-09,11:40:53,52527,Minor,0100h,05,STS,Mains Input Volt Out Range
2020-10-09,10:30:00,20512,Info.,5004h,01,STS,On Line
2020-10-09,10:29:56,20110,Info.,0100h,00,STS,Mains Input Volt Normal
2020-10-09,10:29:56,20100,Info.,0228h,00,STS,Bypass Freq Normal
2020-10-09,10:29:56,20100,Info.,0128h,00,STS,Mains Input Freq Normal
2020-10-09,10:29:56,20078,Info.,0200h,00,STS,Bypass Volt Normal
2020-10-09,10:29:31,17624,Minor,0128h,01,STS,Mains Input Freq Out Range
2020-10-09,10:29:31,17582,Minor,0228h,01,STS,Bypass Freq Out Range
2020-10-09,10:29:28,17314,Minor,0200h,01,STS,Bypass Volt Out Range
2020-10-09,10:29:28,17272,Info.,5003h,01,STS,Load on Battery
2020-10-09,10:29:28,17272,Minor,0100h,02,STS,Mains Input Volt Out Range
2020-10-08,13:44:23,18124,Info.,5004h,01,STS,On Line
2020-10-08,13:43:48,14615,Info.,2601h,01,STS,Manual ON
2020-10-08,13:43:48,14615,Info.,501Fh,01,STS,Soft Start
2020-10-08,13:43:12,11041,Info.,2600h,01,STS,Manual OFF
2020-10-08,13:43:12,11041,Info.,5002h,01,STS,Load on Bypass
2020-10-08,13:41:50,2814,Info.,02A0h,00,STS,Bypass STS Module Repair Switch Close
2020-10-08,13:41:42,2031,Critical,02A0h,01,STS,Bypass STS Module Repair Switch Open
2020-10-08,13:24:15,28398,Info.,5004h,01,STS,On Line
2020-10-08,13:24:11,27995,Info.,0100h,00,STS,Mains Input Volt Normal
2020-10-08,13:24:11,27985,Info.,0228h,00,STS,Bypass Freq Normal
2020-10-08,13:24:11,27985,Info.,0128h,00,STS,Mains Input Freq Normal
2020-10-08,13:24:11,27965,Info.,0200h,00,STS,Bypass Volt Normal
2020-10-08,13:23:04,21229,Minor,0200h,01,STS,Bypass Volt Out Range
2020-10-08,13:23:04,21222,Minor,0228h,01,STS,Bypass Freq Out Range
2020-10-08,13:23:04,21222,Minor,0128h,01,STS,Mains Input Freq Out Range
2020-10-08,13:23:03,21181,Info.,5003h,01,STS,Load on Battery
2020-10-08,13:23:03,21180,Minor,0100h,03,STS,Mains Input Volt Out Range
2020-10-08,13:21:55,14398,Info.,5004h,01,STS,On Line
2020-10-08,13:21:51,14004,Info.,0100h,00,STS,Mains Input Volt Normal
2020-10-08,13:21:51,13993,Info.,0228h,00,STS,Bypass Freq Normal
2020-10-08,13:21:51,13993,Info.,0128h,00,STS,Mains Input Freq Normal
2020-10-08,13:21:51,13975,Info.,0200h,00,STS,Bypass Volt Normal
2020-10-08,13:20:17,4518,Minor,0200h,01,STS,Bypass Volt Out Range
2020-10-08,13:20:16,4512,Minor,0128h,01,STS,Mains Input Freq Out Range
2020-10-08,13:20:16,4504,Minor,0228h,01,STS,Bypass Freq Out Range
2020-10-08,13:20:16,4471,Info.,5003h,01,STS,Load on Battery
2020-10-08,13:20:16,4470,Minor,0100h,03,STS,Mains Input Volt Out Range
2020-10-08,12:09:26,38221,Info.,5004h,01,STS,On Line
2020-10-08,12:09:22,37828,Info.,1011h,01,STS,Battery Test Aborted
2020-10-08,12:07:53,28928,Info.,5003h,01,STS,Load on Battery
2020-10-08,12:07:32,26815,Info.,1013h,01,STS,Battery Test In Progress
2020-10-08,11:14:18,35139,Info.,5004h,01,STS,On Line
2020-10-08,11:14:14,34741,Info.,0100h,00,STS,Mains Input Volt Normal
2020-10-08,11:14:14,34731,Info.,0228h,00,STS,Bypass Freq Normal
2020-10-08,11:14:14,34731,Info.,0128h,00,STS,Mains Input Freq Normal
2020-10-08,11:14:14,34711,Info.,0200h,00,STS,Bypass Volt Normal
2020-10-08,11:13:57,32999,Minor,0200h,01,STS,Bypass Volt Out Range
2020-10-08,11:13:57,32994,Minor,0228h,01,STS,Bypass Freq Out Range
2020-10-08,11:13:57,32994,Minor,0128h,01,STS,Mains Input Freq Out Range
2020-10-08,11:13:57,32951,Info.,5003h,01,STS,Load on Battery
2020-10-08,11:13:57,32951,Minor,0100h,03,STS,Mains Input Volt Out Range
2020-10-08,11:08:48,2070,Info.,5004h,01,STS,On Line
2020-10-08,11:08:44,1678,Info.,1010h,01,STS,Battery Test Passed
2020-10-08,11:03:45,37314,Info.,5003h,01,STS,Load on Battery
2020-10-08,11:03:24,35201,Info.,1013h,01,STS,Battery Test In Progress
2020-10-08,10:37:07,8606,Info.,5004h,01,STS,On Line
2020-10-08,10:36:32,5098,Info.,2601h,01,STS,Manual ON
2020-10-08,10:36:32,5098,Info.,501Fh,01,STS,Soft Start
2020-10-08,10:35:26,64001,Info.,2600h,01,STS,Manual OFF
2020-10-08,10:35:26,64001,Info.,5002h,01,STS,Load on Bypass
2020-10-08,10:26:36,11082,Info.,6480h,00,PFC #1,PM Repair Switch Close
2020-10-08,10:26:14,8874,Minor,6480h,01,PFC #1,PM Repair Switch Open
2020-10-07,16:36:52,15400,Info.,5004h,01,STS,On Line
2020-10-07,16:36:17,11905,Info.,2601h,01,STS,Manual ON
2020-10-07,16:36:17,11905,Info.,501Fh,01,STS,Soft Start
2020-10-07,16:35:15,5710,Info.,1003h,00,STS,Battery Connected
2020-10-07,16:27:29,24566,Moderate,1003h,01,STS,Battery Disconnected
2020-10-07,16:24:30,6730,Info.,5002h,01,STS,Load on Bypass
2020-10-07,16:24:30,6729,Info.,2600h,01,STS,Manual OFF
2020-10-07,16:21:48,56012,Info.,5004h,01,STS,On Line
2020-10-07,16:21:44,55603,Info.,0100h,00,STS,Mains Input Volt Normal
2020-10-07,16:21:44,55593,Info.,0228h,00,STS,Bypass Freq Normal
2020-10-07,16:21:44,55593,Info.,0128h,00,STS,Mains Input Freq Normal
2020-10-07,16:21:43,55573,Info.,0200h,00,STS,Bypass Volt Normal
2020-10-07,16:21:03,51557,Minor,0200h,01,STS,Bypass Volt Out Range
2020-10-07,16:21:03,51550,Minor,0128h,01,STS,Mains Input Freq Out Range
2020-10-07,16:21:03,51511,Minor,0228h,01,STS,Bypass Freq Out Range
2020-10-07,16:21:03,51508,Info.,5003h,01,STS,Load on Battery
2020-10-07,16:21:03,51508,Minor,0100h,03,STS,Mains Input Volt Out Range
2020-10-07,16:18:31,36292,Info.,5004h,01,STS,On Line
2020-10-07,16:17:55,32784,Info.,2601h,01,STS,Manual ON
2020-10-07,16:17:55,32784,Info.,501Fh,01,STS,Soft Start
2020-10-07,16:17:39,31148,Info.,5028h,00,STS,Exit Burn In Mode
2020-10-07,16:17:16,28831,Info.,2600h,01,STS,Manual OFF
2020-10-07,16:16:01,21332,Info.,5009h,01,STS,On Energy Recycle
2020-10-07,16:15:26,17838,Info.,2601h,01,STS,Manual ON
2020-10-07,16:15:26,17838,Info.,501Fh,01,STS,Soft Start
2020-10-07,16:14:44,13611,Info.,5028h,01,STS,Enter Burn In Mode
2020-10-07,16:14:22,11473,Info.,2600h,01,STS,Manual OFF
2020-10-07,16:14:22,11473,Info.,5002h,01,STS,Load on Bypass
2020-10-07,15:55:09,27224,Info.,5004h,01,STS,On Line
2020-10-07,15:54:09,21185,Info.,0100h,00,STS,Mains Input Volt Normal
2020-10-07,15:54:09,21175,Info.,5002h,01,STS,Load on Bypass
2020-10-07,15:54:09,21174,Info.,0228h,00,STS,Bypass Freq Normal
2020-10-07,15:54:09,21174,Info.,0128h,00,STS,Mains Input Freq Normal
2020-10-07,15:54:08,21155,Info.,0200h,00,STS,Bypass Volt Normal
2020-10-07,15:53:30,17314,Info.,501Fh,01,STS,Soft Start
2020-10-07,15:53:30,17314,Info.,2601h,01,STS,Manual ON
2020-10-07,15:52:54,13755,Minor,0200h,01,STS,Bypass Volt Out Range
2020-10-07,15:52:54,13753,Info.,5005h,01,STS,No Output
2020-10-07,15:52:54,13749,Minor,0128h,01,STS,Mains Input Freq Out Range
2020-10-07,15:52:54,13709,Minor,0228h,01,STS,Bypass Freq Out Range
2020-10-07,15:52:54,13706,Minor,0100h,03,STS,Mains Input Volt Out Range
2020-10-07,15:52:30,11325,Info.,5002h,01,STS,Load on Bypass
2020-10-07,15:52:30,11324,Info.,2600h,01,STS,Manual OFF
2020-10-07,15:51:03,2569,Info.,5004h,01,STS,On Line
2020-10-07,15:50:50,1291,Info.,0100h,00,STS,Mains Input Volt Normal
2020-10-07,15:50:50,1281,Info.,0228h,00,STS,Bypass Freq Normal
2020-10-07,15:50:50,1281,Info.,0128h,00,STS,Mains Input Freq Normal
2020-10-07,15:50:49,1262,Info.,0200h,00,STS,Bypass Volt Normal
2020-10-07,15:50:19,63762,Minor,0200h,01,STS,Bypass Volt Out Range
2020-10-07,15:50:19,63754,Minor,0128h,01,STS,Mains Input Freq Out Range
2020-10-07,15:50:19,63714,Minor,0228h,01,STS,Bypass Freq Out Range
2020-10-07,15:50:19,63712,Minor,0100h,03,STS,Mains Input Volt Out Range
2020-10-07,15:50:19,63712,Info.,5003h,01,STS,Load on Battery
2020-10-07,15:49:00,55861,Info.,6480h,00,PFC #1,PM Repair Switch Close
2020-10-07,15:48:42,54084,Minor,6480h,01,PFC #1,PM Repair Switch Open
2020-10-07,15:46:36,41450,Info.,5004h,01,STS,On Line
2020-10-07,15:46:01,37946,Info.,2601h,01,STS,Manual ON
2020-10-07,15:46:01,37946,Info.,501Fh,01,STS,Soft Start
2020-10-07,15:45:22,34040,Info.,1003h,00,STS,Battery Connected
2020-10-07,15:41:11,8916,Info.,6480h,00,PFC #8,PM Repair Switch Close
2020-10-07,15:41:10,8820,Info.,6480h,00,PFC #7,PM Repair Switch Close
2020-10-07,15:41:08,8678,Info.,6480h,00,PFC #6,PM Repair Switch Close
2020-10-07,15:41:08,8627,Info.,6480h,00,PFC #5,PM Repair Switch Close
2020-10-07,15:41:07,8536,Info.,6480h,00,PFC #4,PM Repair Switch Close
2020-10-07,15:41:06,8439,Info.,6480h,00,PFC #3,PM Repair Switch Close
2020-10-07,15:41:03,8197,Info.,6480h,00,PFC #2,PM Repair Switch Close
2020-10-07,15:41:02,8055,Info.,6480h,00,PFC #1,PM Repair Switch Close
2020-10-07,15:40:46,6499,Info.,5002h,01,STS,Load on Bypass
2020-10-07,15:40:09,2690,Info.,8660h,00,INV #6,INV PLL Locked
2020-10-07,15:40:09,2682,Info.,8660h,00,INV #8,INV PLL Locked
2020-10-07,15:40:09,2664,Info.,8660h,00,INV #1,INV PLL Locked
2020-10-07,15:40:09,2662,Info.,8660h,00,INV #2,INV PLL Locked
2020-10-07,15:40:09,2659,Info.,8660h,00,INV #5,INV PLL Locked
2020-10-07,15:40:09,2659,Info.,8660h,00,INV #4,INV PLL Locked
2020-10-07,15:40:09,2658,Info.,8660h,00,INV #7,INV PLL Locked
2020-10-07,15:40:09,2658,Info.,8660h,00,INV #3,INV PLL Locked
2020-10-07,15:40:03,2000,Minor,6480h,01,PFC #8,PM Repair Switch Open
2020-10-07,15:40:03,2000,Minor,6480h,01,PFC #7,PM Repair Switch Open
2020-10-07,15:40:03,2000,Minor,6480h,01,PFC #6,PM Repair Switch Open
2020-10-07,15:40:03,2000,Minor,6480h,01,PFC #5,PM Repair Switch Open
2020-10-07,15:40:03,2000,Minor,6480h,01,PFC #4,PM Repair Switch Open
2020-10-07,15:40:03,2000,Minor,6480h,01,PFC #3,PM Repair Switch Open
2020-10-07,15:40:03,2000,Minor,6480h,01,PFC #2,PM Repair Switch Open
2020-10-07,15:40:03,2000,Minor,6480h,01,PFC #1,PM Repair Switch Open
2020-10-07,15:40:03,2000,Info.,8660h,01,INV #8,Inverter PLL async
2020-10-07,15:40:03,2000,Info.,8660h,01,INV #7,Inverter PLL async
2020-10-07,15:40:03,2000,Info.,8660h,01,INV #6,Inverter PLL async
2020-10-07,15:40:03,2000,Info.,8660h,01,INV #5,Inverter PLL async
2020-10-07,15:40:03,2000,Info.,8660h,01,INV #4,Inverter PLL async
2020-10-07,15:40:03,2000,Info.,8660h,01,INV #3,Inverter PLL async
2020-10-07,15:40:03,2000,Info.,8660h,01,INV #2,Inverter PLL async
2020-10-07,15:40:03,2000,Info.,8660h,01,INV #1,Inverter PLL async
2020-10-07,15:40:03,2000,Info.,5005h,01,STS,No Output
2020-10-07,15:40:03,2000,Moderate,1003h,01,STS,Battery Disconnected
2020-10-07,12:13:03,13437,Info.,5005h,01,STS,No Output
2020-10-07,12:13:03,13435,Info.,0228h,00,STS,Bypass Freq Normal
2020-10-07,12:13:03,13434,Critical,1109h,02,STS,
2020-10-07,12:13:02,13427,Critical,2530h,01,STS,Parallel I/O Abnormal
2020-10-07,12:13:02,13419,Minor,0228h,01,STS,Bypass Freq Out Range
2020-10-07,12:13:02,13410,Minor,0100h,03,STS,Mains Input Volt Out Range
2020-10-07,12:11:32,4367,Info.,2600h,01,STS,Manual OFF
2020-10-07,12:11:32,4367,Info.,5002h,01,STS,Load on Bypass
2020-10-07,12:57:59,1824,Info.,5004h,01,STS,On Line
2020-10-07,12:57:06,62057,Info.,2601h,01,STS,Manual ON
2020-10-07,12:57:06,62057,Info.,501Fh,01,STS,Soft Start
2020-10-07,12:55:02,49668,Info.,6480h,00,PFC #1,PM Repair Switch Close
2020-10-07,12:47:50,6499,Info.,5002h,01,STS,Load on Bypass
2020-10-07,12:47:11,2557,Info.,8660h,00,INV #1,INV PLL Locked
2020-10-07,12:47:06,2000,Minor,6480h,01,PFC #1,PM Repair Switch Open
2020-10-07,12:47:06,2000,Info.,8660h,01,INV #1,Inverter PLL async
2020-10-07,12:47:06,2000,Info.,5005h,01,STS,No Output
