Humid,Temp,date,sensorName
37,24,2022-12-15 00:00:00.062,Visalar
36,24,2022-12-15 00:01:00.062,Visalar
36,24,2022-12-15 00:02:00.047,Visalar
36,24,2022-12-15 00:03:00.062,Visalar
36,24,2022-12-15 00:04:00.062,Visalar
36,24,2022-12-15 00:05:00.062,Visalar
36,24,2022-12-15 00:06:00.021,Visalar
36,24,2022-12-15 00:07:00.062,Visalar
36,24,2022-12-15 00:08:00.003,Visalar
36,24,2022-12-15 00:09:00.062,Visalar
36,24,2022-12-15 00:10:00.015,Visalar
36,24,2022-12-15 00:11:00.062,Visalar
36,24,2022-12-15 00:12:00.062,Visalar
36,24,2022-12-15 00:13:00.062,Visalar
36,24,2022-12-15 00:14:00.062,Visalar
36,24,2022-12-15 00:15:00.062,Visalar
36,24,2022-12-15 00:16:00.062,Visalar
36,24,2022-12-15 00:17:00.024,Visalar
36,24,2022-12-15 00:18:00.062,Visalar
36,24,2022-12-15 00:19:00.062,Visalar
36,24,2022-12-15 00:20:00.061,Visalar
36,24,2022-12-15 00:21:00.062,Visalar
36,24,2022-12-15 00:22:00.062,Visalar
36,24,2022-12-15 00:23:00.062,Visalar
36,24,2022-12-15 00:24:00.004,Visalar
36,24,2022-12-15 00:25:00.004,Visalar
36,24,2022-12-15 00:26:00.004,Visalar
36,24,2022-12-15 00:27:00.004,Visalar
36,24,2022-12-15 00:28:00.004,Visalar
36,24,2022-12-15 00:29:00.062,Visalar
36,24,2022-12-15 00:30:00.062,Visalar
36,24,2022-12-15 00:31:00.062,Visalar
36,24,2022-12-15 00:32:00.062,Visalar
36,24,2022-12-15 00:33:00.062,Visalar
36,24,2022-12-15 00:34:00.056,Visalar
36,24,2022-12-15 00:35:00.061,Visalar
37,24,2022-12-15 00:36:00.062,Visalar
37,24,2022-12-15 00:37:00.062,Visalar
37,24,2022-12-15 00:38:00.062,Visalar
37,24,2022-12-15 00:39:00.062,Visalar
37,24,2022-12-15 00:40:00.062,Visalar
37,24,2022-12-15 00:41:00.024,Visalar
37,24,2022-12-15 00:42:00.062,Visalar
37,24,2022-12-15 00:43:00.012,Visalar
37,24,2022-12-15 00:44:00.062,Visalar
37,24,2022-12-15 00:45:00.056,Visalar
37,24,2022-12-15 00:46:00.038,Visalar
37,24,2022-12-15 00:48:00.062,Visalar
37,24,2022-12-15 00:49:00.062,Visalar
37,24,2022-12-15 00:50:00.060,Visalar
36,24,2022-12-15 00:51:00.062,Visalar
36,24,2022-12-15 00:52:00.032,Visalar
36,24,2022-12-15 00:53:00.003,Visalar
36,24,2022-12-15 00:54:00.062,Visalar
36,24,2022-12-15 00:55:00.062,Visalar
36,24,2022-12-15 00:56:00.010,Visalar
36,24,2022-12-15 00:57:00.062,Visalar
36,24,2022-12-15 00:58:00.062,Visalar
36,24,2022-12-15 00:59:00.062,Visalar
36,24,2022-12-15 01:00:00.062,Visalar
36,24,2022-12-15 01:01:00.004,Visalar
36,24,2022-12-15 01:02:00.062,Visalar
36,24,2022-12-15 01:03:00.062,Visalar
36,24,2022-12-15 01:04:00.062,Visalar
36,24,2022-12-15 01:05:00.062,Visalar
36,24,2022-12-15 01:06:00.004,Visalar
36,24,2022-12-15 01:07:00.062,Visalar
36,24,2022-12-15 01:08:00.062,Visalar
36,24,2022-12-15 01:09:00.062,Visalar
36,24,2022-12-15 01:10:00.062,Visalar
36,24,2022-12-15 01:11:00.012,Visalar
36,24,2022-12-15 01:12:00.062,Visalar
36,24,2022-12-15 01:13:00.062,Visalar
36,24,2022-12-15 01:14:00.062,Visalar
36,24,2022-12-15 01:15:00.062,Visalar
36,24,2022-12-15 01:16:00.062,Visalar
36,24,2022-12-15 01:17:00.062,Visalar
36,24,2022-12-15 01:18:00.062,Visalar
36,24,2022-12-15 01:19:00.004,Visalar
36,24,2022-12-15 01:20:00.050,Visalar
36,24,2022-12-15 01:21:00.062,Visalar
36,24,2022-12-15 01:22:00.062,Visalar
36,24,2022-12-15 01:23:00.010,Visalar
36,24,2022-12-15 01:24:00.062,Visalar
36,24,2022-12-15 01:25:00.003,Visalar
36,24,2022-12-15 01:26:00.062,Visalar
36,24,2022-12-15 01:27:00.062,Visalar
36,24,2022-12-15 01:28:00.061,Visalar
36,24,2022-12-15 01:29:00.007,Visalar
36,24,2022-12-15 01:30:00.016,Visalar
36,24,2022-12-15 01:31:00.062,Visalar
36,24,2022-12-15 01:32:00.010,Visalar
36,24,2022-12-15 01:33:00.060,Visalar
36,24,2022-12-15 01:34:00.022,Visalar
36,24,2022-12-15 01:35:00.053,Visalar
36,24,2022-12-15 01:36:00.005,Visalar
36,24,2022-12-15 01:37:00.062,Visalar
36,24,2022-12-15 01:38:00.060,Visalar
37,24,2022-12-15 01:39:00.062,Visalar
37,24,2022-12-15 01:40:00.062,Visalar
37,24,2022-12-15 01:41:00.062,Visalar
37,24,2022-12-15 01:42:00.061,Visalar
37,24,2022-12-15 01:43:00.062,Visalar
37,24,2022-12-15 01:44:00.062,Visalar
37,24,2022-12-15 01:45:00.062,Visalar
37,24,2022-12-15 01:46:00.037,Visalar
37,24,2022-12-15 01:47:00.062,Visalar
37,24,2022-12-15 01:48:00.052,Visalar
37,24,2022-12-15 01:49:00.036,Visalar
37,24,2022-12-15 01:50:00.012,Visalar
37,24,2022-12-15 01:51:00.012,Visalar
37,24,2022-12-15 01:52:00.022,Visalar
37,24,2022-12-15 01:53:00.032,Visalar
37,24,2022-12-15 01:54:00.015,Visalar
37,25,2022-12-15 01:55:00.062,Visalar
37,24,2022-12-15 01:56:00.062,Visalar
37,24,2022-12-15 01:57:00.062,Visalar
37,24,2022-12-15 01:58:00.058,Visalar
37,24,2022-12-15 01:59:00.062,Visalar
37,24,2022-12-15 02:00:00.062,Visalar
37,24,2022-12-15 02:01:00.062,Visalar
37,24,2022-12-15 02:02:00.062,Visalar
37,24,2022-12-15 02:03:00.062,Visalar
37,24,2022-12-15 02:04:00.062,Visalar
37,24,2022-12-15 02:05:00.010,Visalar
37,24,2022-12-15 02:06:00.004,Visalar
37,24,2022-12-15 02:07:00.062,Visalar
37,24,2022-12-15 02:08:00.062,Visalar
37,24,2022-12-15 02:09:00.004,Visalar
37,24,2022-12-15 02:10:00.004,Visalar
37,24,2022-12-15 02:11:00.062,Visalar
37,24,2022-12-15 02:12:00.062,Visalar
37,24,2022-12-15 02:13:00.024,Visalar
37,24,2022-12-15 02:14:00.062,Visalar
37,24,2022-12-15 02:15:00.056,Visalar
37,24,2022-12-15 02:16:00.012,Visalar
37,24,2022-12-15 02:17:00.012,Visalar
37,24,2022-12-15 02:18:00.012,Visalar
37,24,2022-12-15 02:19:00.012,Visalar
37,24,2022-12-15 02:20:00.012,Visalar
37,24,2022-12-15 02:21:00.061,Visalar
37,24,2022-12-15 02:22:00.062,Visalar
37,24,2022-12-15 02:23:00.004,Visalar
37,24,2022-12-15 02:24:00.062,Visalar
37,24,2022-12-15 02:25:00.046,Visalar
37,24,2022-12-15 02:26:00.012,Visalar
37,24,2022-12-15 02:27:00.012,Visalar
37,24,2022-12-15 02:28:00.012,Visalar
37,24,2022-12-15 02:29:00.012,Visalar
36,24,2022-12-15 02:30:00.012,Visalar
36,24,2022-12-15 02:31:00.012,Visalar
36,24,2022-12-15 02:32:00.012,Visalar
36,24,2022-12-15 02:33:00.012,Visalar
36,24,2022-12-15 02:34:00.037,Visalar
37,24,2022-12-15 02:35:00.062,Visalar
36,24,2022-12-15 02:36:00.062,Visalar
37,24,2022-12-15 02:37:00.062,Visalar
37,24,2022-12-15 02:38:00.062,Visalar
37,24,2022-12-15 02:39:00.062,Visalar
36,24,2022-12-15 02:40:00.062,Visalar
36,24,2022-12-15 02:41:00.062,Visalar
37,24,2022-12-15 02:42:00.062,Visalar
37,24,2022-12-15 02:43:00.005,Visalar
37,24,2022-12-15 02:44:00.062,Visalar
37,24,2022-12-15 02:45:00.062,Visalar
37,24,2022-12-15 02:47:00.062,Visalar
37,24,2022-12-15 02:48:00.062,Visalar
37,24,2022-12-15 02:49:00.060,Visalar
37,24,2022-12-15 02:50:00.062,Visalar
37,24,2022-12-15 02:51:00.062,Visalar
37,24,2022-12-15 02:52:00.062,Visalar
37,24,2022-12-15 02:53:00.062,Visalar
37,24,2022-12-15 02:54:00.062,Visalar
37,24,2022-12-15 02:55:00.062,Visalar
37,24,2022-12-15 02:56:00.019,Visalar
37,24,2022-12-15 02:57:00.062,Visalar
37,24,2022-12-15 02:58:00.004,Visalar
37,24,2022-12-15 02:59:00.062,Visalar
37,24,2022-12-15 03:00:00.004,Visalar
37,24,2022-12-15 03:01:00.062,Visalar
37,24,2022-12-15 03:02:00.062,Visalar
37,24,2022-12-15 03:03:00.062,Visalar
37,24,2022-12-15 03:04:00.062,Visalar
37,24,2022-12-15 03:05:00.049,Visalar
37,24,2022-12-15 03:06:00.062,Visalar
37,24,2022-12-15 03:07:00.062,Visalar
37,24,2022-12-15 03:08:00.062,Visalar
37,24,2022-12-15 03:09:00.062,Visalar
37,24,2022-12-15 03:10:00.004,Visalar
37,24,2022-12-15 03:11:00.021,Visalar
37,24,2022-12-15 03:12:00.062,Visalar
37,24,2022-12-15 03:13:00.012,Visalar
37,24,2022-12-15 03:14:00.062,Visalar
37,24,2022-12-15 03:15:00.003,Visalar
37,24,2022-12-15 03:16:00.062,Visalar
37,24,2022-12-15 03:17:00.062,Visalar
37,24,2022-12-15 03:18:00.062,Visalar
37,24,2022-12-15 03:19:00.056,Visalar
37,24,2022-12-15 03:20:00.004,Visalar
37,24,2022-12-15 03:21:00.004,Visalar
37,24,2022-12-15 03:22:00.044,Visalar
37,24,2022-12-15 03:23:00.032,Visalar
37,24,2022-12-15 03:24:00.012,Visalar
37,24,2022-12-15 03:25:00.062,Visalar
37,24,2022-12-15 03:26:00.033,Visalar
37,24,2022-12-15 03:27:00.062,Visalar
37,24,2022-12-15 03:28:00.062,Visalar
37,24,2022-12-15 03:29:00.062,Visalar
37,24,2022-12-15 03:30:00.062,Visalar
37,24,2022-12-15 03:31:00.062,Visalar
37,24,2022-12-15 03:32:00.062,Visalar
37,24,2022-12-15 03:33:00.062,Visalar
37,24,2022-12-15 03:35:00.062,Visalar
38,24,2022-12-15 03:36:00.040,Visalar
38,24,2022-12-15 03:37:00.060,Visalar
37,24,2022-12-15 03:38:00.012,Visalar
37,24,2022-12-15 03:39:00.047,Visalar
37,24,2022-12-15 03:40:00.062,Visalar
37,24,2022-12-15 03:41:00.062,Visalar
37,24,2022-12-15 03:42:00.062,Visalar
37,24,2022-12-15 03:43:00.004,Visalar
37,24,2022-12-15 03:44:00.043,Visalar
37,24,2022-12-15 03:45:00.010,Visalar
37,24,2022-12-15 03:46:00.032,Visalar
37,24,2022-12-15 03:47:00.062,Visalar
37,24,2022-12-15 03:48:00.062,Visalar
37,24,2022-12-15 03:49:00.062,Visalar
37,24,2022-12-15 03:50:00.061,Visalar
37,24,2022-12-15 03:51:00.061,Visalar
37,24,2022-12-15 03:52:00.062,Visalar
37,24,2022-12-15 03:53:00.010,Visalar
37,24,2022-12-15 03:54:00.024,Visalar
37,24,2022-12-15 03:55:00.062,Visalar
37,24,2022-12-15 03:56:00.062,Visalar
37,24,2022-12-15 03:57:00.062,Visalar
37,24,2022-12-15 03:58:00.062,Visalar
37,24,2022-12-15 03:59:00.019,Visalar
37,24,2022-12-15 04:00:00.062,Visalar
37,24,2022-12-15 04:01:00.011,Visalar
38,24,2022-12-15 04:02:00.062,Visalar
38,24,2022-12-15 04:03:00.062,Visalar
38,24,2022-12-15 04:04:00.062,Visalar
38,24,2022-12-15 04:05:00.062,Visalar
38,24,2022-12-15 04:06:00.062,Visalar
38,24,2022-12-15 04:07:00.062,Visalar
38,24,2022-12-15 04:08:00.062,Visalar
38,24,2022-12-15 04:09:00.062,Visalar
38,24,2022-12-15 04:10:00.062,Visalar
38,24,2022-12-15 04:11:00.062,Visalar
38,24,2022-12-15 04:12:00.062,Visalar
38,24,2022-12-15 04:13:00.062,Visalar
38,24,2022-12-15 04:14:00.062,Visalar
38,24,2022-12-15 04:15:00.062,Visalar
38,24,2022-12-15 04:16:00.062,Visalar
38,24,2022-12-15 04:17:00.062,Visalar
38,24,2022-12-15 04:18:00.062,Visalar
38,24,2022-12-15 04:19:00.062,Visalar
38,24,2022-12-15 04:20:00.062,Visalar
38,24,2022-12-15 04:21:00.062,Visalar
38,24,2022-12-15 04:22:00.062,Visalar
38,24,2022-12-15 04:23:00.062,Visalar
38,24,2022-12-15 04:24:00.062,Visalar
38,24,2022-12-15 04:25:00.060,Visalar
38,24,2022-12-15 04:26:00.004,Visalar
38,24,2022-12-15 04:27:00.011,Visalar
38,24,2022-12-15 04:28:00.019,Visalar
38,24,2022-12-15 04:29:00.012,Visalar
38,24,2022-12-15 04:30:00.062,Visalar
38,24,2022-12-15 04:31:00.062,Visalar
38,24,2022-12-15 04:32:00.062,Visalar
38,24,2022-12-15 04:33:00.062,Visalar
38,24,2022-12-15 04:34:00.062,Visalar
38,24,2022-12-15 04:35:00.062,Visalar
38,24,2022-12-15 04:36:00.062,Visalar
38,24,2022-12-15 04:37:00.056,Visalar
38,24,2022-12-15 04:38:00.062,Visalar
38,24,2022-12-15 04:39:00.062,Visalar
38,24,2022-12-15 04:40:00.062,Visalar
38,24,2022-12-15 04:41:00.062,Visalar
38,24,2022-12-15 04:42:00.004,Visalar
38,24,2022-12-15 04:43:00.062,Visalar
38,24,2022-12-15 04:44:00.062,Visalar
38,24,2022-12-15 04:45:00.062,Visalar
38,24,2022-12-15 04:46:00.062,Visalar
38,24,2022-12-15 04:47:00.056,Visalar
38,24,2022-12-15 04:48:00.062,Visalar
38,24,2022-12-15 04:49:00.049,Visalar
37,24,2022-12-15 04:50:00.020,Visalar
37,24,2022-12-15 04:51:00.061,Visalar
37,24,2022-12-15 04:52:00.012,Visalar
37,24,2022-12-15 04:53:00.062,Visalar
37,24,2022-12-15 04:54:00.062,Visalar
37,24,2022-12-15 04:55:00.062,Visalar
37,24,2022-12-15 04:56:00.062,Visalar
37,24,2022-12-15 04:57:00.012,Visalar
37,24,2022-12-15 04:58:00.062,Visalar
37,24,2022-12-15 04:59:00.062,Visalar
37,24,2022-12-15 05:00:00.062,Visalar
37,24,2022-12-15 05:01:00.062,Visalar
37,24,2022-12-15 05:02:00.062,Visalar
37,24,2022-12-15 05:03:00.062,Visalar
37,24,2022-12-15 05:04:00.062,Visalar
37,24,2022-12-15 05:05:00.062,Visalar
37,24,2022-12-15 05:06:00.062,Visalar
37,24,2022-12-15 05:07:00.062,Visalar
37,24,2022-12-15 05:08:00.031,Visalar
37,24,2022-12-15 05:09:00.062,Visalar
37,24,2022-12-15 05:11:00.062,Visalar
37,24,2022-12-15 05:12:00.062,Visalar
37,24,2022-12-15 05:13:00.054,Visalar
36,24,2022-12-15 05:14:00.062,Visalar
36,24,2022-12-15 05:15:00.062,Visalar
36,24,2022-12-15 05:16:00.062,Visalar
37,24,2022-12-15 05:17:00.062,Visalar
37,24,2022-12-15 05:18:00.062,Visalar
37,24,2022-12-15 05:19:00.062,Visalar
37,24,2022-12-15 05:20:00.062,Visalar
37,24,2022-12-15 05:21:00.062,Visalar
37,24,2022-12-15 05:22:00.062,Visalar
37,24,2022-12-15 05:23:00.062,Visalar
37,24,2022-12-15 05:24:00.062,Visalar
37,24,2022-12-15 05:25:00.062,Visalar
37,24,2022-12-15 05:26:00.062,Visalar
37,24,2022-12-15 05:27:00.062,Visalar
37,24,2022-12-15 05:28:00.062,Visalar
37,24,2022-12-15 05:29:00.046,Visalar
37,24,2022-12-15 05:30:00.062,Visalar
37,24,2022-12-15 05:31:00.062,Visalar
37,24,2022-12-15 05:32:00.010,Visalar
37,24,2022-12-15 05:33:00.032,Visalar
37,24,2022-12-15 05:34:00.061,Visalar
37,24,2022-12-15 05:35:00.021,Visalar
37,24,2022-12-15 05:36:00.055,Visalar
37,24,2022-12-15 05:37:00.061,Visalar
37,24,2022-12-15 05:38:00.062,Visalar
37,24,2022-12-15 05:39:00.062,Visalar
37,24,2022-12-15 05:40:00.028,Visalar
37,24,2022-12-15 05:41:00.061,Visalar
37,24,2022-12-15 05:42:00.062,Visalar
37,24,2022-12-15 05:43:00.061,Visalar
37,24,2022-12-15 05:44:00.012,Visalar
37,24,2022-12-15 05:45:00.062,Visalar
37,24,2022-12-15 05:46:00.062,Visalar
37,24,2022-12-15 05:47:00.061,Visalar
37,24,2022-12-15 05:48:00.061,Visalar
37,24,2022-12-15 05:49:00.051,Visalar
37,24,2022-12-15 05:50:00.062,Visalar
37,24,2022-12-15 05:51:00.008,Visalar
37,24,2022-12-15 05:52:00.031,Visalar
37,24,2022-12-15 05:53:00.012,Visalar
37,24,2022-12-15 05:54:00.062,Visalar
37,24,2022-12-15 05:55:00.015,Visalar
37,24,2022-12-15 05:56:00.062,Visalar
37,24,2022-12-15 05:57:00.062,Visalar
37,24,2022-12-15 05:58:00.062,Visalar
37,24,2022-12-15 05:59:00.062,Visalar
37,24,2022-12-15 06:00:00.062,Visalar
37,24,2022-12-15 06:01:00.060,Visalar
37,24,2022-12-15 06:02:00.062,Visalar
37,24,2022-12-15 06:03:00.062,Visalar
37,24,2022-12-15 06:04:00.062,Visalar
37,24,2022-12-15 06:05:00.058,Visalar
37,24,2022-12-15 06:06:00.062,Visalar
37,24,2022-12-15 06:07:00.062,Visalar
37,24,2022-12-15 06:08:00.062,Visalar
37,24,2022-12-15 06:09:00.062,Visalar
37,24,2022-12-15 06:10:00.062,Visalar
37,24,2022-12-15 06:11:00.062,Visalar
37,24,2022-12-15 06:12:00.062,Visalar
37,24,2022-12-15 06:13:00.062,Visalar
37,24,2022-12-15 06:14:00.012,Visalar
37,24,2022-12-15 06:15:00.008,Visalar
37,24,2022-12-15 06:16:00.012,Visalar
37,24,2022-12-15 06:17:00.012,Visalar
37,24,2022-12-15 06:18:00.012,Visalar
37,24,2022-12-15 06:19:00.012,Visalar
37,24,2022-12-15 06:20:00.004,Visalar
37,24,2022-12-15 06:21:00.062,Visalar
37,24,2022-12-15 06:22:00.053,Visalar
37,24,2022-12-15 06:23:00.062,Visalar
37,24,2022-12-15 06:24:00.004,Visalar
37,24,2022-12-15 06:25:00.061,Visalar
37,24,2022-12-15 06:26:00.042,Visalar
37,24,2022-12-15 06:27:00.062,Visalar
37,24,2022-12-15 06:28:00.062,Visalar
37,24,2022-12-15 06:29:00.061,Visalar
37,24,2022-12-15 06:30:00.062,Visalar
37,24,2022-12-15 06:31:00.062,Visalar
37,24,2022-12-15 06:32:00.061,Visalar
37,24,2022-12-15 06:33:00.041,Visalar
37,24,2022-12-15 06:34:00.062,Visalar
37,24,2022-12-15 06:35:00.025,Visalar
37,24,2022-12-15 06:36:00.012,Visalar
37,24,2022-12-15 06:37:00.062,Visalar
37,24,2022-12-15 06:38:00.062,Visalar
37,24,2022-12-15 06:39:00.062,Visalar
37,24,2022-12-15 06:40:00.012,Visalar
37,24,2022-12-15 06:41:00.048,Visalar
37,24,2022-12-15 06:42:00.062,Visalar
37,24,2022-12-15 06:43:00.048,Visalar
37,24,2022-12-15 06:44:00.062,Visalar
37,24,2022-12-15 06:45:00.004,Visalar
37,24,2022-12-15 06:46:00.062,Visalar
37,24,2022-12-15 06:47:00.004,Visalar
37,24,2022-12-15 06:48:00.004,Visalar
37,24,2022-12-15 06:49:00.060,Visalar
36,24,2022-12-15 06:50:00.044,Visalar
37,24,2022-12-15 06:51:00.062,Visalar
37,24,2022-12-15 06:52:00.062,Visalar
37,24,2022-12-15 06:53:00.062,Visalar
37,24,2022-12-15 06:54:00.062,Visalar
37,24,2022-12-15 06:55:00.062,Visalar
37,24,2022-12-15 06:56:00.062,Visalar
37,24,2022-12-15 06:57:00.062,Visalar
37,24,2022-12-15 06:58:00.045,Visalar
37,24,2022-12-15 06:59:00.062,Visalar
37,24,2022-12-15 07:00:00.012,Visalar
37,24,2022-12-15 07:01:00.012,Visalar
37,24,2022-12-15 07:02:00.062,Visalar
37,24,2022-12-15 07:03:00.041,Visalar
37,24,2022-12-15 07:04:00.062,Visalar
37,24,2022-12-15 07:05:00.059,Visalar
37,24,2022-12-15 07:06:00.062,Visalar
37,24,2022-12-15 07:07:00.062,Visalar
37,24,2022-12-15 07:08:00.062,Visalar
37,24,2022-12-15 07:09:00.062,Visalar
37,24,2022-12-15 07:10:00.062,Visalar
37,24,2022-12-15 07:11:00.062,Visalar
37,24,2022-12-15 07:12:00.062,Visalar
37,24,2022-12-15 07:13:00.023,Visalar
36,24,2022-12-15 07:14:00.062,Visalar
36,24,2022-12-15 07:15:00.062,Visalar
36,24,2022-12-15 07:16:00.062,Visalar
36,24,2022-12-15 07:17:00.011,Visalar
36,24,2022-12-15 07:18:00.062,Visalar
36,24,2022-12-15 07:19:00.062,Visalar
36,24,2022-12-15 07:20:00.062,Visalar
36,24,2022-12-15 07:21:00.062,Visalar
36,24,2022-12-15 07:22:00.062,Visalar
36,24,2022-12-15 07:23:00.052,Visalar
36,24,2022-12-15 07:24:00.062,Visalar
36,24,2022-12-15 07:25:00.062,Visalar
36,24,2022-12-15 07:26:00.062,Visalar
36,24,2022-12-15 07:27:00.004,Visalar
36,24,2022-12-15 07:28:00.062,Visalar
36,24,2022-12-15 07:29:00.062,Visalar
36,24,2022-12-15 07:30:00.062,Visalar
36,24,2022-12-15 07:31:00.062,Visalar
36,24,2022-12-15 07:32:00.062,Visalar
36,24,2022-12-15 07:33:00.062,Visalar
36,24,2022-12-15 07:34:00.062,Visalar
36,24,2022-12-15 07:35:00.023,Visalar
36,24,2022-12-15 07:36:00.062,Visalar
38,24,2022-12-15 07:38:00.012,Visalar
38,24,2022-12-15 07:39:00.062,Visalar
38,24,2022-12-15 07:40:00.062,Visalar
38,24,2022-12-15 07:41:00.062,Visalar
38,24,2022-12-15 07:42:00.062,Visalar
38,24,2022-12-15 07:43:00.062,Visalar
38,24,2022-12-15 07:44:00.062,Visalar
38,24,2022-12-15 07:45:00.062,Visalar
38,24,2022-12-15 07:46:00.023,Visalar
38,24,2022-12-15 07:47:00.062,Visalar
38,24,2022-12-15 07:48:00.062,Visalar
38,24,2022-12-15 07:49:00.062,Visalar
38,24,2022-12-15 07:50:00.004,Visalar
38,24,2022-12-15 07:51:00.005,Visalar
38,24,2022-12-15 07:52:00.060,Visalar
38,24,2022-12-15 07:53:00.062,Visalar
38,24,2022-12-15 07:54:00.062,Visalar
38,24,2022-12-15 07:55:00.062,Visalar
38,24,2022-12-15 07:56:00.062,Visalar
38,24,2022-12-15 07:57:00.062,Visalar
38,24,2022-12-15 07:58:00.004,Visalar
38,24,2022-12-15 07:59:00.062,Visalar
38,24,2022-12-15 08:00:00.062,Visalar
38,24,2022-12-15 08:01:00.053,Visalar
38,24,2022-12-15 08:02:00.022,Visalar
38,24,2022-12-15 08:03:00.056,Visalar
38,24,2022-12-15 08:04:00.015,Visalar
38,24,2022-12-15 08:05:00.012,Visalar
38,24,2022-12-15 08:06:00.062,Visalar
38,24,2022-12-15 08:07:00.062,Visalar
38,24,2022-12-15 08:08:00.062,Visalar
38,24,2022-12-15 08:09:00.062,Visalar
38,24,2022-12-15 08:10:00.061,Visalar
38,24,2022-12-15 08:11:00.033,Visalar
38,24,2022-12-15 08:12:00.062,Visalar
38,24,2022-12-15 08:13:00.062,Visalar
38,24,2022-12-15 08:14:00.061,Visalar
38,24,2022-12-15 08:15:00.062,Visalar
38,24,2022-12-15 08:16:00.062,Visalar
38,24,2022-12-15 08:17:00.061,Visalar
38,24,2022-12-15 08:18:00.061,Visalar
38,24,2022-12-15 08:19:00.062,Visalar
38,24,2022-12-15 08:20:00.012,Visalar
38,24,2022-12-15 08:21:00.061,Visalar
38,24,2022-12-15 08:22:00.024,Visalar
38,24,2022-12-15 08:23:00.062,Visalar
38,24,2022-12-15 08:24:00.062,Visalar
38,24,2022-12-15 08:26:00.062,Visalar
38,24,2022-12-15 08:27:00.062,Visalar
38,24,2022-12-15 08:28:00.062,Visalar
38,24,2022-12-15 08:29:00.012,Visalar
38,24,2022-12-15 08:30:00.062,Visalar
38,24,2022-12-15 08:31:00.062,Visalar
38,24,2022-12-15 08:32:00.059,Visalar
38,24,2022-12-15 08:33:00.062,Visalar
38,24,2022-12-15 08:34:00.062,Visalar
38,24,2022-12-15 08:35:00.062,Visalar
38,24,2022-12-15 08:36:00.052,Visalar
38,24,2022-12-15 08:37:00.028,Visalar
38,24,2022-12-15 08:38:00.022,Visalar
38,24,2022-12-15 08:39:00.004,Visalar
38,24,2022-12-15 08:40:00.055,Visalar
38,24,2022-12-15 08:41:00.062,Visalar
38,24,2022-12-15 08:42:00.062,Visalar
38,24,2022-12-15 08:43:00.062,Visalar
38,24,2022-12-15 08:44:00.062,Visalar
38,24,2022-12-15 08:45:00.062,Visalar
38,24,2022-12-15 08:46:00.062,Visalar
38,24,2022-12-15 08:47:00.062,Visalar
38,24,2022-12-15 08:48:00.024,Visalar
38,24,2022-12-15 08:49:00.062,Visalar
36,24,2022-12-15 08:50:00.062,Visalar
36,24,2022-12-15 08:51:00.012,Visalar
36,24,2022-12-15 08:52:00.006,Visalar
36,24,2022-12-15 08:53:00.026,Visalar
36,24,2022-12-15 08:54:00.062,Visalar
36,24,2022-12-15 08:55:00.021,Visalar
36,24,2022-12-15 08:56:00.062,Visalar
36,24,2022-12-15 08:57:00.062,Visalar
36,24,2022-12-15 08:58:00.062,Visalar
36,24,2022-12-15 08:59:00.062,Visalar
36,24,2022-12-15 09:00:00.062,Visalar
36,24,2022-12-15 09:01:00.062,Visalar
36,24,2022-12-15 09:02:00.062,Visalar
36,24,2022-12-15 09:03:00.062,Visalar
36,24,2022-12-15 09:04:00.062,Visalar
36,24,2022-12-15 09:05:00.062,Visalar
36,24,2022-12-15 09:06:00.062,Visalar
36,24,2022-12-15 09:07:00.062,Visalar
36,24,2022-12-15 09:08:00.061,Visalar
36,24,2022-12-15 09:09:00.062,Visalar
36,24,2022-12-15 09:10:00.062,Visalar
36,24,2022-12-15 09:11:00.062,Visalar
36,24,2022-12-15 09:12:00.062,Visalar
36,24,2022-12-15 09:13:00.061,Visalar
36,24,2022-12-15 09:15:00.062,Visalar
36,24,2022-12-15 09:16:00.062,Visalar
36,24,2022-12-15 09:17:00.062,Visalar
36,24,2022-12-15 09:18:00.062,Visalar
36,24,2022-12-15 09:19:00.062,Visalar
36,24,2022-12-15 09:20:00.023,Visalar
36,24,2022-12-15 09:21:00.004,Visalar
36,24,2022-12-15 09:22:00.062,Visalar
36,24,2022-12-15 09:23:00.062,Visalar
36,24,2022-12-15 09:24:00.062,Visalar
36,24,2022-12-15 09:25:00.062,Visalar
36,24,2022-12-15 09:26:00.062,Visalar
36,24,2022-12-15 09:27:00.004,Visalar
36,24,2022-12-15 09:28:00.061,Visalar
36,24,2022-12-15 09:29:00.062,Visalar
36,24,2022-12-15 09:30:00.015,Visalar
36,24,2022-12-15 09:31:00.004,Visalar
36,24,2022-12-15 09:32:00.061,Visalar
36,24,2022-12-15 09:33:00.012,Visalar
36,24,2022-12-15 09:34:00.062,Visalar
36,24,2022-12-15 09:35:00.034,Visalar
36,24,2022-12-15 09:36:00.061,Visalar
36,24,2022-12-15 09:37:00.061,Visalar
36,24,2022-12-15 09:38:00.011,Visalar
36,24,2022-12-15 09:39:00.062,Visalar
36,24,2022-12-15 09:40:00.062,Visalar
36,24,2022-12-15 09:41:00.062,Visalar
36,24,2022-12-15 09:42:00.005,Visalar
36,24,2022-12-15 09:43:00.005,Visalar
36,24,2022-12-15 09:44:00.062,Visalar
36,24,2022-12-15 09:45:00.062,Visalar
36,24,2022-12-15 09:46:00.062,Visalar
36,24,2022-12-15 09:47:00.008,Visalar
36,24,2022-12-15 09:48:00.062,Visalar
36,24,2022-12-15 09:49:00.062,Visalar
36,24,2022-12-15 09:50:00.012,Visalar
36,24,2022-12-15 09:51:00.011,Visalar
36,24,2022-12-15 09:52:00.011,Visalar
36,24,2022-12-15 09:53:00.062,Visalar
36,24,2022-12-15 09:54:00.062,Visalar
36,24,2022-12-15 09:55:00.048,Visalar
36,24,2022-12-15 09:56:00.062,Visalar
36,24,2022-12-15 09:57:00.062,Visalar
36,24,2022-12-15 09:58:00.011,Visalar
36,24,2022-12-15 09:59:00.062,Visalar
36,24,2022-12-15 10:00:00.004,Visalar
36,24,2022-12-15 10:01:00.062,Visalar
36,24,2022-12-15 10:02:00.061,Visalar
36,24,2022-12-15 10:04:00.061,Visalar
36,24,2022-12-15 10:05:00.062,Visalar
36,24,2022-12-15 10:06:00.062,Visalar
36,24,2022-12-15 10:07:00.062,Visalar
36,24,2022-12-15 10:08:00.060,Visalar
36,24,2022-12-15 10:09:00.010,Visalar
36,24,2022-12-15 10:10:00.062,Visalar
36,24,2022-12-15 10:11:00.062,Visalar
36,24,2022-12-15 10:12:00.031,Visalar
36,24,2022-12-15 10:13:00.062,Visalar
36,24,2022-12-15 10:14:00.062,Visalar
36,24,2022-12-15 10:15:00.004,Visalar
36,24,2022-12-15 10:16:00.008,Visalar
36,24,2022-12-15 10:17:00.062,Visalar
36,24,2022-12-15 10:18:00.062,Visalar
36,24,2022-12-15 10:19:00.062,Visalar
36,24,2022-12-15 10:20:00.050,Visalar
36,24,2022-12-15 10:21:00.062,Visalar
36,24,2022-12-15 10:22:00.012,Visalar
36,24,2022-12-15 10:23:00.062,Visalar
36,24,2022-12-15 10:24:00.062,Visalar
36,24,2022-12-15 10:25:00.062,Visalar
36,24,2022-12-15 10:26:00.062,Visalar
36,24,2022-12-15 10:27:00.062,Visalar
36,24,2022-12-15 10:28:00.053,Visalar
36,24,2022-12-15 10:29:00.062,Visalar
36,24,2022-12-15 10:30:00.062,Visalar
36,24,2022-12-15 10:31:00.062,Visalar
36,24,2022-12-15 10:32:00.062,Visalar
36,24,2022-12-15 10:33:00.062,Visalar
36,24,2022-12-15 10:34:00.062,Visalar
36,24,2022-12-15 10:35:00.062,Visalar
36,24,2022-12-15 10:36:00.062,Visalar
36,24,2022-12-15 10:37:00.062,Visalar
36,24,2022-12-15 10:38:00.062,Visalar
36,24,2022-12-15 10:39:00.062,Visalar
36,24,2022-12-15 10:40:00.062,Visalar
36,24,2022-12-15 10:41:00.062,Visalar
36,24,2022-12-15 10:42:00.062,Visalar
36,24,2022-12-15 10:43:00.012,Visalar
36,24,2022-12-15 10:44:00.062,Visalar
36,24,2022-12-15 10:45:00.062,Visalar
36,24,2022-12-15 10:46:00.062,Visalar
36,24,2022-12-15 10:47:00.062,Visalar
36,24,2022-12-15 10:48:00.061,Visalar
36,24,2022-12-15 10:49:00.062,Visalar
36,24,2022-12-15 10:50:00.062,Visalar
36,24,2022-12-15 10:51:00.061,Visalar
36,24,2022-12-15 10:52:00.062,Visalar
36,24,2022-12-15 10:53:00.054,Visalar
36,24,2022-12-15 10:54:00.019,Visalar
36,24,2022-12-15 10:55:00.011,Visalar
36,24,2022-12-15 10:56:00.062,Visalar
36,24,2022-12-15 10:57:00.061,Visalar
36,24,2022-12-15 10:58:00.062,Visalar
36,24,2022-12-15 10:59:00.062,Visalar
36,24,2022-12-15 11:00:00.062,Visalar
36,24,2022-12-15 11:01:00.062,Visalar
36,24,2022-12-15 11:02:00.062,Visalar
36,24,2022-12-15 11:03:00.061,Visalar
36,24,2022-12-15 11:04:00.062,Visalar
36,24,2022-12-15 11:05:00.061,Visalar
36,24,2022-12-15 11:06:00.062,Visalar
36,24,2022-12-15 11:07:00.062,Visalar
36,24,2022-12-15 11:08:00.062,Visalar
36,24,2022-12-15 11:09:00.061,Visalar
36,24,2022-12-15 11:10:00.032,Visalar
36,24,2022-12-15 11:11:00.012,Visalar
36,24,2022-12-15 11:12:00.062,Visalar
36,24,2022-12-15 11:13:00.004,Visalar
36,24,2022-12-15 11:14:00.004,Visalar
36,24,2022-12-15 11:15:00.060,Visalar
38,23,2022-12-15 11:16:00.062,Visalar
38,23,2022-12-15 11:17:00.062,Visalar
38,23,2022-12-15 11:18:00.062,Visalar
38,23,2022-12-15 11:19:00.062,Visalar
38,23,2022-12-15 11:20:00.061,Visalar
38,23,2022-12-15 11:21:00.062,Visalar
38,23,2022-12-15 11:22:00.061,Visalar
38,23,2022-12-15 11:23:00.062,Visalar
38,23,2022-12-15 11:24:00.062,Visalar
38,23,2022-12-15 11:25:00.061,Visalar
38,23,2022-12-15 11:26:00.062,Visalar
38,23,2022-12-15 11:27:00.062,Visalar
38,23,2022-12-15 11:28:00.062,Visalar
38,23,2022-12-15 11:29:00.011,Visalar
38,23,2022-12-15 11:30:00.062,Visalar
38,23,2022-12-15 11:31:00.062,Visalar
38,23,2022-12-15 11:32:00.027,Visalar
38,23,2022-12-15 11:33:00.012,Visalar
38,23,2022-12-15 11:34:00.062,Visalar
38,23,2022-12-15 11:35:00.034,Visalar
38,23,2022-12-15 11:36:00.003,Visalar
38,23,2022-12-15 11:37:00.008,Visalar
38,23,2022-12-15 11:38:00.012,Visalar
38,23,2022-12-15 11:39:00.011,Visalar
47,22,2022-12-15 11:40:00.062,Visalar
47,22,2022-12-15 11:41:00.062,Visalar
47,22,2022-12-15 11:42:00.062,Visalar
47,22,2022-12-15 11:43:00.062,Visalar
47,22,2022-12-15 11:44:00.062,Visalar
47,22,2022-12-15 11:45:00.062,Visalar
47,22,2022-12-15 11:46:00.062,Visalar
47,22,2022-12-15 11:47:00.052,Visalar
47,22,2022-12-15 11:48:00.032,Visalar
48,22,2022-12-15 11:49:00.020,Visalar
48,22,2022-12-15 11:50:00.061,Visalar
48,22,2022-12-15 11:51:00.062,Visalar
48,22,2022-12-15 11:52:00.062,Visalar
48,22,2022-12-15 11:53:00.062,Visalar
48,22,2022-12-15 11:54:00.062,Visalar
48,22,2022-12-15 11:55:00.062,Visalar
49,22,2022-12-15 11:56:00.062,Visalar
49,22,2022-12-15 11:57:00.062,Visalar
49,22,2022-12-15 11:58:00.004,Visalar
49,22,2022-12-15 11:59:00.062,Visalar
49,22,2022-12-15 12:00:00.062,Visalar
49,22,2022-12-15 12:01:00.062,Visalar
49,22,2022-12-15 12:02:00.012,Visalar
49,22,2022-12-15 12:03:00.060,Visalar
49,22,2022-12-15 12:04:00.019,Visalar
49,22,2022-12-15 12:05:00.005,Visalar
49,22,2022-12-15 12:06:00.012,Visalar
50,22,2022-12-15 12:07:00.054,Visalar
50,22,2022-12-15 12:08:00.062,Visalar
50,22,2022-12-15 12:09:00.043,Visalar
50,22,2022-12-15 12:10:00.004,Visalar
50,21,2022-12-15 12:11:00.061,Visalar
50,21,2022-12-15 12:12:00.062,Visalar
50,21,2022-12-15 12:13:00.062,Visalar
51,21,2022-12-15 12:14:00.062,Visalar
51,21,2022-12-15 12:15:00.062,Visalar
51,21,2022-12-15 12:16:00.062,Visalar
51,21,2022-12-15 12:17:00.047,Visalar
51,21,2022-12-15 12:18:00.062,Visalar
51,21,2022-12-15 12:19:00.062,Visalar
51,21,2022-12-15 12:20:00.062,Visalar
52,21,2022-12-15 12:21:00.062,Visalar
52,21,2022-12-15 12:22:00.062,Visalar
52,21,2022-12-15 12:23:00.004,Visalar
52,21,2022-12-15 12:24:00.062,Visalar
52,21,2022-12-15 12:25:00.062,Visalar
52,21,2022-12-15 12:26:00.062,Visalar
52,21,2022-12-15 12:27:00.049,Visalar
49,21,2022-12-15 12:28:00.012,Visalar
50,21,2022-12-15 12:29:00.062,Visalar
50,21,2022-12-15 12:30:00.062,Visalar
50,21,2022-12-15 12:31:00.046,Visalar
50,21,2022-12-15 12:32:00.062,Visalar
50,21,2022-12-15 12:33:00.062,Visalar
50,21,2022-12-15 12:34:00.062,Visalar
50,21,2022-12-15 12:35:00.062,Visalar
51,21,2022-12-15 12:36:00.062,Visalar
51,21,2022-12-15 12:37:00.048,Visalar
51,21,2022-12-15 12:38:00.024,Visalar
51,21,2022-12-15 12:39:00.004,Visalar
51,21,2022-12-15 12:40:00.062,Visalar
51,21,2022-12-15 12:41:00.062,Visalar
51,21,2022-12-15 12:42:00.062,Visalar
52,21,2022-12-15 12:43:00.062,Visalar
52,21,2022-12-15 12:44:00.062,Visalar
52,21,2022-12-15 12:45:00.062,Visalar
52,21,2022-12-15 12:46:00.062,Visalar
52,21,2022-12-15 12:47:00.052,Visalar
52,21,2022-12-15 12:48:00.032,Visalar
52,21,2022-12-15 12:49:00.012,Visalar
53,21,2022-12-15 12:50:00.012,Visalar
53,21,2022-12-15 12:51:00.060,Visalar
55,21,2022-12-15 12:52:00.062,Visalar
55,21,2022-12-15 12:53:00.062,Visalar
56,21,2022-12-15 12:54:00.062,Visalar
56,21,2022-12-15 12:55:00.062,Visalar
56,21,2022-12-15 12:56:00.062,Visalar
56,21,2022-12-15 12:57:00.062,Visalar
56,21,2022-12-15 12:58:00.062,Visalar
56,21,2022-12-15 12:59:00.048,Visalar
56,21,2022-12-15 13:00:00.032,Visalar
56,21,2022-12-15 13:01:00.040,Visalar
56,21,2022-12-15 13:02:00.033,Visalar
57,21,2022-12-15 13:03:00.062,Visalar
57,21,2022-12-15 13:04:00.062,Visalar
57,21,2022-12-15 13:05:00.062,Visalar
57,21,2022-12-15 13:06:00.062,Visalar
57,21,2022-12-15 13:07:00.062,Visalar
57,21,2022-12-15 13:08:00.062,Visalar
57,21,2022-12-15 13:09:00.062,Visalar
57,21,2022-12-15 13:10:00.062,Visalar
58,21,2022-12-15 13:11:00.013,Visalar
58,21,2022-12-15 13:12:00.062,Visalar
58,21,2022-12-15 13:13:00.062,Visalar
58,21,2022-12-15 13:14:00.062,Visalar
58,21,2022-12-15 13:15:00.061,Visalar
61,21,2022-12-15 13:16:00.062,Visalar
61,21,2022-12-15 13:17:00.062,Visalar
62,21,2022-12-15 13:18:00.056,Visalar
62,21,2022-12-15 13:19:00.062,Visalar
62,21,2022-12-15 13:20:00.005,Visalar
62,21,2022-12-15 13:21:00.004,Visalar
62,21,2022-12-15 13:22:00.012,Visalar
62,21,2022-12-15 13:23:00.012,Visalar
62,21,2022-12-15 13:24:00.012,Visalar
62,21,2022-12-15 13:25:00.041,Visalar
62,21,2022-12-15 13:26:00.011,Visalar
62,21,2022-12-15 13:27:00.062,Visalar
62,21,2022-12-15 13:28:00.062,Visalar
62,21,2022-12-15 13:29:00.062,Visalar
62,21,2022-12-15 13:30:00.062,Visalar
62,21,2022-12-15 13:31:00.062,Visalar
63,21,2022-12-15 13:32:00.062,Visalar
63,21,2022-12-15 13:33:00.062,Visalar
63,21,2022-12-15 13:34:00.062,Visalar
63,21,2022-12-15 13:35:00.062,Visalar
63,21,2022-12-15 13:37:00.062,Visalar
63,21,2022-12-15 13:38:00.062,Visalar
63,21,2022-12-15 13:39:00.060,Visalar
63,21,2022-12-15 13:40:00.062,Visalar
63,21,2022-12-15 13:41:00.062,Visalar
63,21,2022-12-15 13:42:00.062,Visalar
63,21,2022-12-15 13:43:00.062,Visalar
63,21,2022-12-15 13:44:00.062,Visalar
63,21,2022-12-15 13:45:00.062,Visalar
63,21,2022-12-15 13:46:00.062,Visalar
64,21,2022-12-15 13:47:00.062,Visalar
64,21,2022-12-15 13:48:00.004,Visalar
64,21,2022-12-15 13:49:00.062,Visalar
64,21,2022-12-15 13:50:00.042,Visalar
64,21,2022-12-15 13:51:00.062,Visalar
64,21,2022-12-15 13:52:00.021,Visalar
64,21,2022-12-15 13:53:00.062,Visalar
64,21,2022-12-15 13:54:00.062,Visalar
64,21,2022-12-15 13:55:00.062,Visalar
64,21,2022-12-15 13:56:00.062,Visalar
64,21,2022-12-15 13:57:00.062,Visalar
64,21,2022-12-15 13:58:00.062,Visalar
64,21,2022-12-15 13:59:00.062,Visalar
64,21,2022-12-15 14:00:00.062,Visalar
64,21,2022-12-15 14:01:00.062,Visalar
64,22,2022-12-15 14:02:00.062,Visalar
64,22,2022-12-15 14:03:00.061,Visalar
65,21,2022-12-15 14:04:00.062,Visalar
65,21,2022-12-15 14:05:00.061,Visalar
65,21,2022-12-15 14:06:00.062,Visalar
65,21,2022-12-15 14:07:00.062,Visalar
65,21,2022-12-15 14:08:00.022,Visalar
65,21,2022-12-15 14:09:00.062,Visalar
65,21,2022-12-15 14:10:00.062,Visalar
65,21,2022-12-15 14:11:00.062,Visalar
65,21,2022-12-15 14:12:00.062,Visalar
65,21,2022-12-15 14:13:00.062,Visalar
65,21,2022-12-15 14:14:00.062,Visalar
65,21,2022-12-15 14:15:00.062,Visalar
65,21,2022-12-15 14:16:00.061,Visalar
65,21,2022-12-15 14:17:00.016,Visalar
65,22,2022-12-15 14:18:00.062,Visalar
65,21,2022-12-15 14:19:00.062,Visalar
65,21,2022-12-15 14:20:00.062,Visalar
65,21,2022-12-15 14:21:00.062,Visalar
66,21,2022-12-15 14:22:00.051,Visalar
66,21,2022-12-15 14:23:00.056,Visalar
66,22,2022-12-15 14:25:00.002,Visalar
66,22,2022-12-15 14:26:00.062,Visalar
66,22,2022-12-15 14:27:00.060,Visalar
65,22,2022-12-15 14:28:00.062,Visalar
65,22,2022-12-15 14:29:00.004,Visalar
65,22,2022-12-15 14:30:00.004,Visalar
65,22,2022-12-15 14:31:00.004,Visalar
65,22,2022-12-15 14:32:00.004,Visalar
65,22,2022-12-15 14:33:00.062,Visalar
65,22,2022-12-15 14:34:00.062,Visalar
65,22,2022-12-15 14:35:00.062,Visalar
65,22,2022-12-15 14:36:00.053,Visalar
65,22,2022-12-15 14:37:00.061,Visalar
65,22,2022-12-15 14:38:00.039,Visalar
65,22,2022-12-15 14:39:00.062,Visalar
65,22,2022-12-15 14:40:00.061,Visalar
65,22,2022-12-15 14:41:00.062,Visalar
65,22,2022-12-15 14:42:00.011,Visalar
65,22,2022-12-15 14:43:00.004,Visalar
65,22,2022-12-15 14:44:00.061,Visalar
65,22,2022-12-15 14:45:00.062,Visalar
65,22,2022-12-15 14:46:00.062,Visalar
65,22,2022-12-15 14:47:00.031,Visalar
65,22,2022-12-15 14:48:00.062,Visalar
65,22,2022-12-15 14:49:00.032,Visalar
65,22,2022-12-15 14:50:00.062,Visalar
65,22,2022-12-15 14:51:00.063,Visalar
51,18,2022-12-15 14:52:00.062,Visalar
51,18,2022-12-15 14:53:00.062,Visalar
51,18,2022-12-15 14:54:00.062,Visalar
51,18,2022-12-15 14:55:00.062,Visalar
51,18,2022-12-15 14:56:00.062,Visalar
51,18,2022-12-15 14:57:00.052,Visalar
51,18,2022-12-15 14:58:00.032,Visalar
50,18,2022-12-15 14:59:00.012,Visalar
50,18,2022-12-15 15:00:00.062,Visalar
50,18,2022-12-15 15:01:00.062,Visalar
50,18,2022-12-15 15:02:00.062,Visalar
50,18,2022-12-15 15:03:00.062,Visalar
50,18,2022-12-15 15:04:00.062,Visalar
50,18,2022-12-15 15:05:00.062,Visalar
50,18,2022-12-15 15:06:00.062,Visalar
50,18,2022-12-15 15:07:00.060,Visalar
50,18,2022-12-15 15:08:00.036,Visalar
50,18,2022-12-15 15:09:00.034,Visalar
49,18,2022-12-15 15:10:00.062,Visalar
49,18,2022-12-15 15:11:00.013,Visalar
49,18,2022-12-15 15:12:00.062,Visalar
49,18,2022-12-15 15:13:00.055,Visalar
49,18,2022-12-15 15:14:00.062,Visalar
52,18,2022-12-15 15:15:00.062,Visalar
52,18,2022-12-15 15:16:00.062,Visalar
52,18,2022-12-15 15:17:00.062,Visalar
51,18,2022-12-15 15:18:00.012,Visalar
51,18,2022-12-15 15:19:00.062,Visalar
51,18,2022-12-15 15:20:00.012,Visalar
51,18,2022-12-15 15:21:00.019,Visalar
51,18,2022-12-15 15:22:00.060,Visalar
51,18,2022-12-15 15:23:00.062,Visalar
51,18,2022-12-15 15:24:00.062,Visalar
51,18,2022-12-15 15:25:00.062,Visalar
51,18,2022-12-15 15:26:00.062,Visalar
51,18,2022-12-15 15:27:00.062,Visalar
51,18,2022-12-15 15:28:00.012,Visalar
51,18,2022-12-15 15:29:00.062,Visalar
51,18,2022-12-15 15:30:00.062,Visalar
51,18,2022-12-15 15:31:00.062,Visalar
51,18,2022-12-15 15:32:00.062,Visalar
50,18,2022-12-15 15:33:00.062,Visalar
50,18,2022-12-15 15:34:00.062,Visalar
50,18,2022-12-15 15:35:00.012,Visalar
50,18,2022-12-15 15:36:00.062,Visalar
50,18,2022-12-15 15:37:00.004,Visalar
50,18,2022-12-15 15:38:00.060,Visalar
67,17,2022-12-15 15:39:00.062,Visalar
67,17,2022-12-15 15:40:00.062,Visalar
67,17,2022-12-15 15:41:00.062,Visalar
67,17,2022-12-15 15:42:00.062,Visalar
67,17,2022-12-15 15:43:00.062,Visalar
68,17,2022-12-15 15:44:00.024,Visalar
68,17,2022-12-15 15:45:00.062,Visalar
68,17,2022-12-15 15:46:00.062,Visalar
68,17,2022-12-15 15:47:00.006,Visalar
68,17,2022-12-15 15:48:00.051,Visalar
68,17,2022-12-15 15:49:00.062,Visalar
68,17,2022-12-15 15:50:00.042,Visalar
68,17,2022-12-15 15:51:00.024,Visalar
68,17,2022-12-15 15:52:00.062,Visalar
69,17,2022-12-15 15:53:00.004,Visalar
69,17,2022-12-15 15:54:00.044,Visalar
69,17,2022-12-15 15:55:00.011,Visalar
69,17,2022-12-15 15:56:00.061,Visalar
69,17,2022-12-15 15:57:00.062,Visalar
69,17,2022-12-15 15:58:00.062,Visalar
69,17,2022-12-15 15:59:00.023,Visalar
69,17,2022-12-15 16:00:00.062,Visalar
69,17,2022-12-15 16:01:00.061,Visalar
69,17,2022-12-15 16:02:00.011,Visalar
55,18,2022-12-15 16:03:00.012,Visalar
55,18,2022-12-15 16:04:00.062,Visalar
55,18,2022-12-15 16:05:00.062,Visalar
54,18,2022-12-15 16:06:00.054,Visalar
54,18,2022-12-15 16:07:00.062,Visalar
54,18,2022-12-15 16:08:00.061,Visalar
54,17,2022-12-15 16:09:00.004,Visalar
54,17,2022-12-15 16:10:00.062,Visalar
54,17,2022-12-15 16:11:00.041,Visalar
54,17,2022-12-15 16:12:00.062,Visalar
53,17,2022-12-15 16:13:00.062,Visalar
53,17,2022-12-15 16:14:00.062,Visalar
53,17,2022-12-15 16:15:00.062,Visalar
53,17,2022-12-15 16:16:00.062,Visalar
53,17,2022-12-15 16:17:00.062,Visalar
53,17,2022-12-15 16:18:00.062,Visalar
53,17,2022-12-15 16:19:00.062,Visalar
52,17,2022-12-15 16:20:00.024,Visalar
52,17,2022-12-15 16:21:00.062,Visalar
52,17,2022-12-15 16:22:00.062,Visalar
52,17,2022-12-15 16:24:00.062,Visalar
52,17,2022-12-15 16:25:00.038,Visalar
52,17,2022-12-15 16:26:00.023,Visalar
78,18,2022-12-15 16:27:00.062,Visalar
78,18,2022-12-15 16:28:00.062,Visalar
78,18,2022-12-15 16:29:00.062,Visalar
78,18,2022-12-15 16:30:00.062,Visalar
78,18,2022-12-15 16:31:00.062,Visalar
78,18,2022-12-15 16:32:00.061,Visalar
78,18,2022-12-15 16:33:00.062,Visalar
78,18,2022-12-15 16:34:00.062,Visalar
78,18,2022-12-15 16:35:00.062,Visalar
78,18,2022-12-15 16:36:00.062,Visalar
78,18,2022-12-15 16:37:00.062,Visalar
78,18,2022-12-15 16:38:00.062,Visalar
78,18,2022-12-15 16:39:00.062,Visalar
78,18,2022-12-15 16:40:00.062,Visalar
78,18,2022-12-15 16:41:00.062,Visalar
78,18,2022-12-15 16:42:00.062,Visalar
78,18,2022-12-15 16:43:00.062,Visalar
78,18,2022-12-15 16:44:00.062,Visalar
78,18,2022-12-15 16:45:00.062,Visalar
78,18,2022-12-15 16:46:00.008,Visalar
78,18,2022-12-15 16:47:00.062,Visalar
78,18,2022-12-15 16:48:00.062,Visalar
78,18,2022-12-15 16:49:00.062,Visalar
78,18,2022-12-15 16:50:00.063,Visalar
68,17,2022-12-15 16:51:00.061,Visalar
68,17,2022-12-15 16:52:00.062,Visalar
68,17,2022-12-15 16:53:00.004,Visalar
69,17,2022-12-15 16:54:00.004,Visalar
69,17,2022-12-15 16:55:00.062,Visalar
69,17,2022-12-15 16:56:00.062,Visalar
69,17,2022-12-15 16:57:00.062,Visalar
69,17,2022-12-15 16:58:00.062,Visalar
69,17,2022-12-15 16:59:00.032,Visalar
69,17,2022-12-15 17:00:00.062,Visalar
69,17,2022-12-15 17:01:00.062,Visalar
69,17,2022-12-15 17:02:00.062,Visalar
70,17,2022-12-15 17:03:00.010,Visalar
70,17,2022-12-15 17:04:00.062,Visalar
70,17,2022-12-15 17:05:00.062,Visalar
70,17,2022-12-15 17:06:00.056,Visalar
70,17,2022-12-15 17:07:00.032,Visalar
70,17,2022-12-15 17:08:00.012,Visalar
70,17,2022-12-15 17:09:00.004,Visalar
70,17,2022-12-15 17:11:00.062,Visalar
70,17,2022-12-15 17:12:00.062,Visalar
71,17,2022-12-15 17:13:00.060,Visalar
51,17,2022-12-15 17:14:00.062,Visalar
52,17,2022-12-15 17:15:00.062,Visalar
52,17,2022-12-15 17:16:00.062,Visalar
52,17,2022-12-15 17:17:00.062,Visalar
52,17,2022-12-15 17:18:00.059,Visalar
52,17,2022-12-15 17:19:00.035,Visalar
52,17,2022-12-15 17:20:00.011,Visalar
52,17,2022-12-15 17:21:00.046,Visalar
52,17,2022-12-15 17:22:00.012,Visalar
52,17,2022-12-15 17:23:00.062,Visalar
53,17,2022-12-15 17:24:00.061,Visalar
53,17,2022-12-15 17:25:00.062,Visalar
53,17,2022-12-15 17:26:00.062,Visalar
53,17,2022-12-15 17:27:00.062,Visalar
53,17,2022-12-15 17:28:00.061,Visalar
53,17,2022-12-15 17:29:00.056,Visalar
53,17,2022-12-15 17:30:00.062,Visalar
54,17,2022-12-15 17:31:00.005,Visalar
54,17,2022-12-15 17:32:00.057,Visalar
54,17,2022-12-15 17:33:00.062,Visalar
54,17,2022-12-15 17:34:00.062,Visalar
54,17,2022-12-15 17:35:00.062,Visalar
55,17,2022-12-15 17:36:00.060,Visalar
55,17,2022-12-15 17:37:00.033,Visalar
76,19,2022-12-15 17:38:00.062,Visalar
76,19,2022-12-15 17:39:00.042,Visalar
75,19,2022-12-15 17:40:00.004,Visalar
75,19,2022-12-15 17:41:00.004,Visalar
75,19,2022-12-15 17:42:00.062,Visalar
75,19,2022-12-15 17:43:00.062,Visalar
75,19,2022-12-15 17:44:00.036,Visalar
75,19,2022-12-15 17:45:00.062,Visalar
74,19,2022-12-15 17:46:00.061,Visalar
74,19,2022-12-15 17:47:00.062,Visalar
74,19,2022-12-15 17:48:00.062,Visalar
74,19,2022-12-15 17:49:00.062,Visalar
74,19,2022-12-15 17:50:00.062,Visalar
73,19,2022-12-15 17:51:00.057,Visalar
73,19,2022-12-15 17:52:00.062,Visalar
73,19,2022-12-15 17:53:00.056,Visalar
73,19,2022-12-15 17:54:00.062,Visalar
72,19,2022-12-15 17:55:00.062,Visalar
72,19,2022-12-15 17:56:00.062,Visalar
72,19,2022-12-15 17:57:00.056,Visalar
72,19,2022-12-15 17:59:00.062,Visalar
72,19,2022-12-15 18:00:00.062,Visalar
71,19,2022-12-15 18:01:00.060,Visalar
74,20,2022-12-15 18:02:00.062,Visalar
74,20,2022-12-15 18:03:00.023,Visalar
74,20,2022-12-15 18:04:00.062,Visalar
74,20,2022-12-15 18:05:00.012,Visalar
74,20,2022-12-15 18:06:00.062,Visalar
74,20,2022-12-15 18:07:00.062,Visalar
74,20,2022-12-15 18:08:00.062,Visalar
74,20,2022-12-15 18:09:00.062,Visalar
74,20,2022-12-15 18:10:00.062,Visalar
74,20,2022-12-15 18:11:00.062,Visalar
74,20,2022-12-15 18:12:00.062,Visalar
74,20,2022-12-15 18:13:00.062,Visalar
74,20,2022-12-15 18:14:00.062,Visalar
74,20,2022-12-15 18:15:00.062,Visalar
74,20,2022-12-15 18:16:00.062,Visalar
74,20,2022-12-15 18:17:00.062,Visalar
74,20,2022-12-15 18:18:00.024,Visalar
74,20,2022-12-15 18:19:00.062,Visalar
74,20,2022-12-15 18:20:00.062,Visalar
74,20,2022-12-15 18:21:00.062,Visalar
74,20,2022-12-15 18:22:00.062,Visalar
74,20,2022-12-15 18:23:00.019,Visalar
74,20,2022-12-15 18:24:00.062,Visalar
74,20,2022-12-15 18:25:00.006,Visalar
53,20,2022-12-15 18:26:00.062,Visalar
53,20,2022-12-15 18:27:00.062,Visalar
53,20,2022-12-15 18:28:00.062,Visalar
53,20,2022-12-15 18:29:00.062,Visalar
53,20,2022-12-15 18:30:00.062,Visalar
53,20,2022-12-15 18:31:00.062,Visalar
53,20,2022-12-15 18:32:00.061,Visalar
53,20,2022-12-15 18:33:00.062,Visalar
53,20,2022-12-15 18:34:00.061,Visalar
53,20,2022-12-15 18:35:00.062,Visalar
53,20,2022-12-15 18:36:00.022,Visalar
53,20,2022-12-15 18:37:00.061,Visalar
53,20,2022-12-15 18:38:00.060,Visalar
53,20,2022-12-15 18:39:00.061,Visalar
53,20,2022-12-15 18:40:00.021,Visalar
54,20,2022-12-15 18:41:00.041,Visalar
54,20,2022-12-15 18:42:00.062,Visalar
54,20,2022-12-15 18:43:00.062,Visalar
54,20,2022-12-15 18:44:00.028,Visalar
54,20,2022-12-15 18:45:00.062,Visalar
54,20,2022-12-15 18:47:00.062,Visalar
54,20,2022-12-15 18:48:00.012,Visalar
54,20,2022-12-15 18:49:00.060,Visalar
70,20,2022-12-15 18:50:00.056,Visalar
70,20,2022-12-15 18:51:00.062,Visalar
70,20,2022-12-15 18:52:00.062,Visalar
70,20,2022-12-15 18:53:00.003,Visalar
70,20,2022-12-15 18:54:00.062,Visalar
70,20,2022-12-15 18:55:00.062,Visalar
70,20,2022-12-15 18:56:00.062,Visalar
70,20,2022-12-15 18:57:00.061,Visalar
70,20,2022-12-15 18:58:00.062,Visalar
70,20,2022-12-15 18:59:00.062,Visalar
70,20,2022-12-15 19:00:00.062,Visalar
70,20,2022-12-15 19:01:00.061,Visalar
70,20,2022-12-15 19:02:00.061,Visalar
70,20,2022-12-15 19:03:00.061,Visalar
70,20,2022-12-15 19:04:00.062,Visalar
70,20,2022-12-15 19:05:00.062,Visalar
70,20,2022-12-15 19:06:00.062,Visalar
70,20,2022-12-15 19:07:00.062,Visalar
70,20,2022-12-15 19:08:00.019,Visalar
70,20,2022-12-15 19:09:00.019,Visalar
70,20,2022-12-15 19:10:00.062,Visalar
70,20,2022-12-15 19:11:00.062,Visalar
70,20,2022-12-15 19:12:00.062,Visalar
70,20,2022-12-15 19:13:00.062,Visalar
56,21,2022-12-15 19:14:00.062,Visalar
56,21,2022-12-15 19:15:00.012,Visalar
56,21,2022-12-15 19:16:00.062,Visalar
56,21,2022-12-15 19:17:00.062,Visalar
55,21,2022-12-15 19:18:00.062,Visalar
55,21,2022-12-15 19:19:00.062,Visalar
55,21,2022-12-15 19:20:00.062,Visalar
55,21,2022-12-15 19:21:00.062,Visalar
55,21,2022-12-15 19:22:00.062,Visalar
55,21,2022-12-15 19:23:00.062,Visalar
54,21,2022-12-15 19:24:00.062,Visalar
54,21,2022-12-15 19:25:00.012,Visalar
54,21,2022-12-15 19:26:00.062,Visalar
54,21,2022-12-15 19:27:00.037,Visalar
54,21,2022-12-15 19:28:00.062,Visalar
54,21,2022-12-15 19:29:00.012,Visalar
54,21,2022-12-15 19:30:00.012,Visalar
53,20,2022-12-15 19:31:00.019,Visalar
53,20,2022-12-15 19:32:00.012,Visalar
53,20,2022-12-15 19:33:00.012,Visalar
53,20,2022-12-15 19:35:00.026,Visalar
53,20,2022-12-15 19:36:00.004,Visalar
53,20,2022-12-15 19:37:00.060,Visalar
69,20,2022-12-15 19:38:00.062,Visalar
69,20,2022-12-15 19:39:00.062,Visalar
69,20,2022-12-15 19:40:00.062,Visalar
69,20,2022-12-15 19:41:00.062,Visalar
69,20,2022-12-15 19:42:00.012,Visalar
69,20,2022-12-15 19:43:00.062,Visalar
69,20,2022-12-15 19:44:00.062,Visalar
70,20,2022-12-15 19:45:00.012,Visalar
70,20,2022-12-15 19:46:00.012,Visalar
70,20,2022-12-15 19:47:00.062,Visalar
70,20,2022-12-15 19:48:00.041,Visalar
70,20,2022-12-15 19:49:00.062,Visalar
70,20,2022-12-15 19:50:00.062,Visalar
70,20,2022-12-15 19:51:00.062,Visalar
70,20,2022-12-15 19:52:00.062,Visalar
70,20,2022-12-15 19:53:00.062,Visalar
70,20,2022-12-15 19:54:00.062,Visalar
70,20,2022-12-15 19:55:00.056,Visalar
70,20,2022-12-15 19:56:00.062,Visalar
70,20,2022-12-15 19:57:00.029,Visalar
70,20,2022-12-15 19:58:00.062,Visalar
70,20,2022-12-15 19:59:00.062,Visalar
70,20,2022-12-15 20:00:00.062,Visalar
71,20,2022-12-15 20:01:00.012,Visalar
73,21,2022-12-15 20:02:00.042,Visalar
73,21,2022-12-15 20:03:00.062,Visalar
73,21,2022-12-15 20:04:00.020,Visalar
73,21,2022-12-15 20:05:00.062,Visalar
73,21,2022-12-15 20:06:00.036,Visalar
73,21,2022-12-15 20:07:00.062,Visalar
72,21,2022-12-15 20:08:00.011,Visalar
72,21,2022-12-15 20:09:00.061,Visalar
72,21,2022-12-15 20:10:00.062,Visalar
72,21,2022-12-15 20:11:00.062,Visalar
72,21,2022-12-15 20:12:00.061,Visalar
72,21,2022-12-15 20:13:00.012,Visalar
72,21,2022-12-15 20:14:00.031,Visalar
72,21,2022-12-15 20:15:00.062,Visalar
72,21,2022-12-15 20:16:00.012,Visalar
72,21,2022-12-15 20:17:00.062,Visalar
72,21,2022-12-15 20:18:00.061,Visalar
71,21,2022-12-15 20:19:00.062,Visalar
71,21,2022-12-15 20:20:00.061,Visalar
71,21,2022-12-15 20:21:00.062,Visalar
71,21,2022-12-15 20:23:00.062,Visalar
71,21,2022-12-15 20:24:00.062,Visalar
71,21,2022-12-15 20:25:00.060,Visalar
62,20,2022-12-15 20:26:00.011,Visalar
63,20,2022-12-15 20:27:00.003,Visalar
63,20,2022-12-15 20:28:00.004,Visalar
63,20,2022-12-15 20:29:00.062,Visalar
63,20,2022-12-15 20:30:00.023,Visalar
63,20,2022-12-15 20:31:00.011,Visalar
63,20,2022-12-15 20:32:00.011,Visalar
63,20,2022-12-15 20:33:00.012,Visalar
63,20,2022-12-15 20:34:00.012,Visalar
63,20,2022-12-15 20:35:00.011,Visalar
64,20,2022-12-15 20:36:00.023,Visalar
64,20,2022-12-15 20:37:00.062,Visalar
64,20,2022-12-15 20:38:00.010,Visalar
64,20,2022-12-15 20:39:00.062,Visalar
64,20,2022-12-15 20:40:00.062,Visalar
64,20,2022-12-15 20:41:00.041,Visalar
64,20,2022-12-15 20:42:00.062,Visalar
64,20,2022-12-15 20:43:00.016,Visalar
64,20,2022-12-15 20:44:00.037,Visalar
65,20,2022-12-15 20:45:00.062,Visalar
65,20,2022-12-15 20:46:00.056,Visalar
65,20,2022-12-15 20:47:00.062,Visalar
65,20,2022-12-15 20:48:00.062,Visalar
65,20,2022-12-15 20:49:00.062,Visalar
75,21,2022-12-15 20:50:00.062,Visalar
75,21,2022-12-15 20:51:00.062,Visalar
75,21,2022-12-15 20:52:00.062,Visalar
75,21,2022-12-15 20:53:00.062,Visalar
75,21,2022-12-15 20:54:00.062,Visalar
75,21,2022-12-15 20:55:00.062,Visalar
75,21,2022-12-15 20:56:00.063,Visalar
75,21,2022-12-15 20:57:00.062,Visalar
75,21,2022-12-15 20:58:00.051,Visalar
75,21,2022-12-15 20:59:00.062,Visalar
75,21,2022-12-15 21:00:00.062,Visalar
75,21,2022-12-15 21:01:00.024,Visalar
75,21,2022-12-15 21:02:00.062,Visalar
75,21,2022-12-15 21:03:00.062,Visalar
75,21,2022-12-15 21:04:00.062,Visalar
75,21,2022-12-15 21:05:00.062,Visalar
75,21,2022-12-15 21:06:00.062,Visalar
75,21,2022-12-15 21:07:00.062,Visalar
75,21,2022-12-15 21:08:00.062,Visalar
75,21,2022-12-15 21:09:00.005,Visalar
76,21,2022-12-15 21:10:00.061,Visalar
76,21,2022-12-15 21:11:00.012,Visalar
76,21,2022-12-15 21:12:00.062,Visalar
76,21,2022-12-15 21:13:00.060,Visalar
56,20,2022-12-15 21:14:00.062,Visalar
56,20,2022-12-15 21:15:00.062,Visalar
56,20,2022-12-15 21:16:00.062,Visalar
56,20,2022-12-15 21:17:00.062,Visalar
56,20,2022-12-15 21:18:00.061,Visalar
56,20,2022-12-15 21:19:00.062,Visalar
56,20,2022-12-15 21:20:00.062,Visalar
56,20,2022-12-15 21:21:00.062,Visalar
56,20,2022-12-15 21:22:00.062,Visalar
56,20,2022-12-15 21:23:00.062,Visalar
56,20,2022-12-15 21:24:00.062,Visalar
56,20,2022-12-15 21:25:00.062,Visalar
56,20,2022-12-15 21:26:00.062,Visalar
56,20,2022-12-15 21:27:00.062,Visalar
56,20,2022-12-15 21:28:00.062,Visalar
56,20,2022-12-15 21:29:00.062,Visalar
56,20,2022-12-15 21:30:00.062,Visalar
56,20,2022-12-15 21:31:00.062,Visalar
56,20,2022-12-15 21:32:00.062,Visalar
56,20,2022-12-15 21:33:00.062,Visalar
56,20,2022-12-15 21:34:00.051,Visalar
56,20,2022-12-15 21:35:00.062,Visalar
56,20,2022-12-15 21:36:00.062,Visalar
56,20,2022-12-15 21:37:00.004,Visalar
73,20,2022-12-15 21:38:00.062,Visalar
73,20,2022-12-15 21:39:00.062,Visalar
73,20,2022-12-15 21:40:00.061,Visalar
73,20,2022-12-15 21:41:00.062,Visalar
73,20,2022-12-15 21:42:00.020,Visalar
74,20,2022-12-15 21:43:00.014,Visalar
74,20,2022-12-15 21:44:00.062,Visalar
74,20,2022-12-15 21:45:00.062,Visalar
74,20,2022-12-15 21:46:00.062,Visalar
74,20,2022-12-15 21:47:00.062,Visalar
74,20,2022-12-15 21:48:00.012,Visalar
74,20,2022-12-15 21:49:00.062,Visalar
74,20,2022-12-15 21:50:00.012,Visalar
74,20,2022-12-15 21:51:00.062,Visalar
74,20,2022-12-15 21:52:00.062,Visalar
74,20,2022-12-15 21:53:00.062,Visalar
74,20,2022-12-15 21:54:00.062,Visalar
74,20,2022-12-15 21:55:00.062,Visalar
74,20,2022-12-15 21:56:00.062,Visalar
74,20,2022-12-15 21:57:00.004,Visalar
74,20,2022-12-15 21:58:00.004,Visalar
74,20,2022-12-15 21:59:00.062,Visalar
74,20,2022-12-15 22:00:00.062,Visalar
75,20,2022-12-15 22:01:00.010,Visalar
62,20,2022-12-15 22:02:00.062,Visalar
62,20,2022-12-15 22:03:00.062,Visalar
61,20,2022-12-15 22:04:00.062,Visalar
61,20,2022-12-15 22:05:00.062,Visalar
61,20,2022-12-15 22:06:00.062,Visalar
61,20,2022-12-15 22:07:00.062,Visalar
61,20,2022-12-15 22:08:00.062,Visalar
61,20,2022-12-15 22:09:00.062,Visalar
61,20,2022-12-15 22:10:00.062,Visalar
60,20,2022-12-15 22:11:00.062,Visalar
60,20,2022-12-15 22:12:00.062,Visalar
60,20,2022-12-15 22:13:00.062,Visalar
60,20,2022-12-15 22:14:00.062,Visalar
60,20,2022-12-15 22:15:00.062,Visalar
60,20,2022-12-15 22:16:00.062,Visalar
60,20,2022-12-15 22:17:00.035,Visalar
60,20,2022-12-15 22:18:00.062,Visalar
60,20,2022-12-15 22:19:00.062,Visalar
59,20,2022-12-15 22:20:00.062,Visalar
59,20,2022-12-15 22:21:00.062,Visalar
59,20,2022-12-15 22:22:00.024,Visalar
59,20,2022-12-15 22:23:00.062,Visalar
59,20,2022-12-15 22:24:00.062,Visalar
59,20,2022-12-15 22:25:00.062,Visalar
71,20,2022-12-15 22:26:00.062,Visalar
71,20,2022-12-15 22:27:00.062,Visalar
71,20,2022-12-15 22:28:00.062,Visalar
71,20,2022-12-15 22:29:00.062,Visalar
72,20,2022-12-15 22:30:00.062,Visalar
72,20,2022-12-15 22:31:00.062,Visalar
72,20,2022-12-15 22:32:00.062,Visalar
72,20,2022-12-15 22:33:00.062,Visalar
72,20,2022-12-15 22:34:00.062,Visalar
72,20,2022-12-15 22:35:00.052,Visalar
72,20,2022-12-15 22:36:00.062,Visalar
72,20,2022-12-15 22:37:00.053,Visalar
72,20,2022-12-15 22:38:00.062,Visalar
72,20,2022-12-15 22:39:00.062,Visalar
72,20,2022-12-15 22:40:00.020,Visalar
72,20,2022-12-15 22:41:00.062,Visalar
72,20,2022-12-15 22:42:00.062,Visalar
73,20,2022-12-15 22:43:00.037,Visalar
73,20,2022-12-15 22:44:00.004,Visalar
73,20,2022-12-15 22:45:00.062,Visalar
73,20,2022-12-15 22:46:00.004,Visalar
73,20,2022-12-15 22:47:00.012,Visalar
73,20,2022-12-15 22:48:00.062,Visalar
76,20,2022-12-15 22:50:00.062,Visalar
76,20,2022-12-15 22:51:00.062,Visalar
76,20,2022-12-15 22:52:00.009,Visalar
76,20,2022-12-15 22:53:00.062,Visalar
76,20,2022-12-15 22:54:00.011,Visalar
76,20,2022-12-15 22:55:00.062,Visalar
75,20,2022-12-15 22:56:00.062,Visalar
75,20,2022-12-15 22:57:00.062,Visalar
75,20,2022-12-15 22:58:00.062,Visalar
75,20,2022-12-15 22:59:00.062,Visalar
75,20,2022-12-15 23:00:00.062,Visalar
75,20,2022-12-15 23:01:00.062,Visalar
74,20,2022-12-15 23:02:00.062,Visalar
74,20,2022-12-15 23:03:00.062,Visalar
74,20,2022-12-15 23:04:00.062,Visalar
74,20,2022-12-15 23:05:00.004,Visalar
74,20,2022-12-15 23:06:00.059,Visalar
73,20,2022-12-15 23:07:00.062,Visalar
73,20,2022-12-15 23:08:00.061,Visalar
73,20,2022-12-15 23:09:00.061,Visalar
73,20,2022-12-15 23:10:00.062,Visalar
73,20,2022-12-15 23:11:00.061,Visalar
72,20,2022-12-15 23:12:00.062,Visalar
72,20,2022-12-15 23:13:00.062,Visalar
73,20,2022-12-15 23:14:00.062,Visalar
74,20,2022-12-15 23:15:00.044,Visalar
74,20,2022-12-15 23:16:00.062,Visalar
74,20,2022-12-15 23:17:00.062,Visalar
74,20,2022-12-15 23:18:00.062,Visalar
74,20,2022-12-15 23:19:00.024,Visalar
74,20,2022-12-15 23:20:00.012,Visalar
74,20,2022-12-15 23:21:00.062,Visalar
74,20,2022-12-15 23:22:00.062,Visalar
74,20,2022-12-15 23:23:00.061,Visalar
74,20,2022-12-15 23:24:00.062,Visalar
74,20,2022-12-15 23:25:00.062,Visalar
74,20,2022-12-15 23:26:00.061,Visalar
74,20,2022-12-15 23:27:00.062,Visalar
74,20,2022-12-15 23:28:00.061,Visalar
74,20,2022-12-15 23:29:00.062,Visalar
75,20,2022-12-15 23:30:00.062,Visalar
75,20,2022-12-15 23:31:00.062,Visalar
75,20,2022-12-15 23:32:00.062,Visalar
75,20,2022-12-15 23:33:00.062,Visalar
75,20,2022-12-15 23:34:00.062,Visalar
75,20,2022-12-15 23:35:00.062,Visalar
75,20,2022-12-15 23:36:00.062,Visalar
75,20,2022-12-15 23:37:00.062,Visalar
66,20,2022-12-15 23:39:00.012,Visalar
66,20,2022-12-15 23:40:00.062,Visalar
65,20,2022-12-15 23:41:00.012,Visalar
65,20,2022-12-15 23:42:00.062,Visalar
65,20,2022-12-15 23:43:00.061,Visalar
65,20,2022-12-15 23:44:00.005,Visalar
64,20,2022-12-15 23:45:00.062,Visalar
64,20,2022-12-15 23:46:00.062,Visalar
64,20,2022-12-15 23:47:00.062,Visalar
64,20,2022-12-15 23:48:00.062,Visalar
63,20,2022-12-15 23:49:00.062,Visalar
63,20,2022-12-15 23:50:00.062,Visalar
63,20,2022-12-15 23:51:00.062,Visalar
63,20,2022-12-15 23:52:00.004,Visalar
62,20,2022-12-15 23:53:00.062,Visalar
62,20,2022-12-15 23:54:00.062,Visalar
62,20,2022-12-15 23:55:00.038,Visalar
62,20,2022-12-15 23:56:00.062,Visalar
61,20,2022-12-15 23:57:00.062,Visalar
61,20,2022-12-15 23:58:00.062,Visalar
61,20,2022-12-15 23:59:00.061,Visalar
