Humid,Temp,date,sensorName
79,19,2023-01-03 00:01:00.065,Visalar
79,19,2023-01-03 00:02:00.065,Visalar
79,19,2023-01-03 00:03:00.065,Visalar
79,20,2023-01-03 00:04:00.065,Visalar
79,20,2023-01-03 00:05:00.065,Visalar
79,20,2023-01-03 00:06:00.065,Visalar
79,20,2023-01-03 00:07:00.065,Visalar
79,20,2023-01-03 00:08:00.031,Visalar
79,20,2023-01-03 00:09:00.065,Visalar
79,20,2023-01-03 00:10:00.013,Visalar
79,20,2023-01-03 00:11:00.064,Visalar
79,20,2023-01-03 00:12:00.064,Visalar
79,20,2023-01-03 00:13:00.064,Visalar
79,20,2023-01-03 00:14:00.064,Visalar
79,20,2023-01-03 00:15:00.064,Visalar
79,20,2023-01-03 00:16:00.064,Visalar
79,20,2023-01-03 00:17:00.064,Visalar
79,20,2023-01-03 00:18:00.064,Visalar
79,20,2023-01-03 00:19:00.063,Visalar
79,20,2023-01-03 00:20:00.064,Visalar
79,20,2023-01-03 00:21:00.064,Visalar
79,20,2023-01-03 00:22:00.064,Visalar
79,20,2023-01-03 00:23:00.063,Visalar
79,20,2023-01-03 00:24:00.064,Visalar
80,19,2023-01-03 00:25:00.906,Visalar
80,19,2023-01-03 00:26:09.417,Visalar
80,19,2023-01-03 00:27:04.001,Visalar
80,19,2023-01-03 00:28:07.689,Visalar
80,19,2023-01-03 00:29:07.431,Visalar
80,19,2023-01-03 00:32:09.697,Visalar
80,19,2023-01-03 00:35:09.921,Visalar
80,19,2023-01-03 00:36:06.963,Visalar
80,19,2023-01-03 00:37:00.752,Visalar
80,19,2023-01-03 00:38:00.766,Visalar
80,19,2023-01-03 00:41:14.465,Visalar
80,19,2023-01-03 00:42:07.449,Visalar
80,19,2023-01-03 00:45:16.129,Visalar
80,19,2023-01-03 00:46:06.932,Visalar
80,19,2023-01-03 00:47:05.762,Visalar
80,19,2023-01-03 00:48:05.776,Visalar
80,19,2023-01-03 00:49:07.170,Visalar
80,19,2023-01-03 00:50:06.923,Visalar
81,19,2023-01-03 00:51:06.959,Visalar
81,19,2023-01-03 00:52:06.960,Visalar
81,19,2023-01-03 00:53:05.708,Visalar
81,19,2023-01-03 00:54:06.952,Visalar
81,19,2023-01-03 00:55:06.926,Visalar
81,19,2023-01-03 00:56:06.941,Visalar
81,20,2023-01-03 00:58:05.723,Visalar
81,20,2023-01-03 00:59:07.183,Visalar
80,20,2023-01-03 01:00:06.944,Visalar
80,20,2023-01-03 01:01:06.963,Visalar
80,20,2023-01-03 01:02:06.947,Visalar
80,20,2023-01-03 01:03:06.931,Visalar
80,20,2023-01-03 01:04:06.941,Visalar
79,20,2023-01-03 01:05:06.937,Visalar
79,20,2023-01-03 01:06:00.796,Visalar
79,20,2023-01-03 01:07:00.760,Visalar
79,20,2023-01-03 01:08:06.933,Visalar
78,20,2023-01-03 01:09:06.917,Visalar
78,20,2023-01-03 01:10:05.764,Visalar
78,20,2023-01-03 01:11:06.933,Visalar
78,20,2023-01-03 01:12:06.942,Visalar
77,20,2023-01-03 01:13:06.949,Visalar
77,20,2023-01-03 01:14:06.921,Visalar
77,20,2023-01-03 01:15:00.752,Visalar
77,20,2023-01-03 01:16:00.761,Visalar
76,20,2023-01-03 01:17:00.752,Visalar
76,20,2023-01-03 01:18:06.910,Visalar
76,20,2023-01-03 01:19:06.958,Visalar
76,20,2023-01-03 01:20:00.775,Visalar
80,19,2023-01-03 01:22:06.928,Visalar
80,19,2023-01-03 01:23:06.929,Visalar
80,19,2023-01-03 01:24:06.938,Visalar
80,19,2023-01-03 01:25:00.881,Visalar
80,19,2023-01-03 01:26:06.931,Visalar
80,19,2023-01-03 01:27:06.904,Visalar
80,19,2023-01-03 01:28:05.738,Visalar
80,19,2023-01-03 01:29:07.194,Visalar
81,19,2023-01-03 01:30:00.767,Visalar
81,19,2023-01-03 01:31:05.731,Visalar
81,19,2023-01-03 01:32:07.463,Visalar
81,19,2023-01-03 01:33:08.429,Visalar
81,19,2023-01-03 01:34:05.658,Visalar
81,19,2023-01-03 01:35:00.739,Visalar
81,19,2023-01-03 01:38:10.529,Visalar
81,19,2023-01-03 01:41:10.753,Visalar
81,19,2023-01-03 01:44:10.977,Visalar
81,19,2023-01-03 01:45:00.828,Visalar
81,19,2023-01-03 01:46:00.732,Visalar
81,19,2023-01-03 01:47:06.918,Visalar
81,19,2023-01-03 01:48:06.937,Visalar
81,19,2023-01-03 01:49:06.970,Visalar
81,19,2023-01-03 01:50:06.939,Visalar
81,19,2023-01-03 01:51:07.029,Visalar
83,19,2023-01-03 01:52:06.956,Visalar
83,19,2023-01-03 01:53:00.775,Visalar
83,19,2023-01-03 01:54:06.942,Visalar
83,19,2023-01-03 01:55:00.721,Visalar
83,19,2023-01-03 01:56:00.834,Visalar
83,19,2023-01-03 01:57:06.920,Visalar
83,19,2023-01-03 01:58:06.959,Visalar
83,19,2023-01-03 01:59:06.922,Visalar
83,19,2023-01-03 02:00:06.937,Visalar
83,19,2023-01-03 02:01:06.926,Visalar
83,19,2023-01-03 02:02:06.925,Visalar
83,19,2023-01-03 02:05:10.497,Visalar
83,19,2023-01-03 02:06:00.799,Visalar
83,19,2023-01-03 02:07:07.908,Visalar
83,19,2023-01-03 02:08:07.434,Visalar
83,19,2023-01-03 02:09:05.769,Visalar
83,19,2023-01-03 02:10:06.916,Visalar
83,19,2023-01-03 02:11:06.931,Visalar
83,19,2023-01-03 02:12:06.941,Visalar
83,19,2023-01-03 02:13:06.943,Visalar
83,19,2023-01-03 02:14:06.958,Visalar
83,19,2023-01-03 02:15:00.763,Visalar
83,19,2023-01-03 02:16:00.763,Visalar
83,19,2023-01-03 02:17:06.941,Visalar
84,20,2023-01-03 02:19:06.933,Visalar
84,20,2023-01-03 02:20:06.937,Visalar
84,20,2023-01-03 02:23:09.793,Visalar
84,20,2023-01-03 02:24:05.755,Visalar
83,20,2023-01-03 02:25:00.819,Visalar
83,20,2023-01-03 02:26:00.765,Visalar
83,20,2023-01-03 02:27:05.764,Visalar
83,20,2023-01-03 02:28:06.929,Visalar
83,20,2023-01-03 02:29:06.938,Visalar
83,20,2023-01-03 02:30:06.939,Visalar
83,20,2023-01-03 02:31:06.936,Visalar
83,20,2023-01-03 02:32:06.945,Visalar
83,20,2023-01-03 02:33:06.929,Visalar
83,20,2023-01-03 02:34:06.907,Visalar
83,20,2023-01-03 02:35:00.746,Visalar
82,20,2023-01-03 02:38:10.913,Visalar
82,20,2023-01-03 02:41:11.137,Visalar
82,20,2023-01-03 02:44:11.361,Visalar
82,20,2023-01-03 02:45:00.753,Visalar
82,20,2023-01-03 02:48:10.978,Visalar
82,20,2023-01-03 02:49:06.917,Visalar
81,20,2023-01-03 02:52:14.689,Visalar
81,20,2023-01-03 02:55:10.817,Visalar
81,20,2023-01-03 02:56:00.766,Visalar
83,20,2023-01-03 02:57:05.763,Visalar
83,20,2023-01-03 02:58:07.192,Visalar
83,20,2023-01-03 02:59:06.965,Visalar
83,20,2023-01-03 03:00:00.747,Visalar
83,20,2023-01-03 03:01:06.901,Visalar
83,20,2023-01-03 03:02:00.766,Visalar
83,20,2023-01-03 03:03:05.776,Visalar
83,20,2023-01-03 03:04:06.942,Visalar
83,20,2023-01-03 03:05:05.767,Visalar
83,20,2023-01-03 03:06:00.779,Visalar
83,20,2023-01-03 03:07:06.957,Visalar
83,20,2023-01-03 03:08:06.919,Visalar
83,20,2023-01-03 03:09:06.945,Visalar
83,20,2023-01-03 03:10:06.981,Visalar
83,20,2023-01-03 03:11:06.919,Visalar
83,20,2023-01-03 03:12:06.922,Visalar
83,20,2023-01-03 03:13:06.927,Visalar
83,20,2023-01-03 03:14:06.923,Visalar
83,20,2023-01-03 03:15:06.924,Visalar
83,20,2023-01-03 03:16:00.748,Visalar
83,20,2023-01-03 03:17:05.770,Visalar
83,20,2023-01-03 03:18:07.175,Visalar
83,20,2023-01-03 03:19:05.771,Visalar
83,20,2023-01-03 03:20:06.954,Visalar
70,19,2023-01-03 03:22:00.393,Visalar
70,19,2023-01-03 03:23:00.006,Visalar
70,19,2023-01-03 03:24:00.064,Visalar
70,19,2023-01-03 03:25:00.065,Visalar
70,19,2023-01-03 03:26:00.065,Visalar
70,19,2023-01-03 03:27:00.064,Visalar
70,19,2023-01-03 03:28:00.065,Visalar
71,19,2023-01-03 03:29:00.064,Visalar
71,19,2023-01-03 03:30:00.005,Visalar
71,19,2023-01-03 03:31:00.065,Visalar
71,19,2023-01-03 03:32:00.064,Visalar
71,19,2023-01-03 03:33:00.064,Visalar
71,19,2023-01-03 03:34:00.064,Visalar
71,19,2023-01-03 03:35:00.005,Visalar
71,19,2023-01-03 03:36:00.065,Visalar
71,19,2023-01-03 03:37:00.065,Visalar
72,19,2023-01-03 03:38:00.065,Visalar
72,19,2023-01-03 03:39:00.065,Visalar
72,19,2023-01-03 03:40:00.065,Visalar
72,19,2023-01-03 03:41:00.065,Visalar
72,19,2023-01-03 03:42:00.065,Visalar
72,19,2023-01-03 03:43:00.065,Visalar
72,19,2023-01-03 03:44:00.065,Visalar
72,19,2023-01-03 03:45:00.062,Visalar
63,20,2023-01-03 03:46:00.064,Visalar
63,20,2023-01-03 03:47:00.018,Visalar
63,19,2023-01-03 03:48:00.065,Visalar
63,19,2023-01-03 03:49:00.064,Visalar
63,20,2023-01-03 03:50:00.064,Visalar
63,19,2023-01-03 03:51:00.065,Visalar
63,19,2023-01-03 03:52:00.064,Visalar
63,19,2023-01-03 03:53:00.064,Visalar
62,19,2023-01-03 03:54:00.064,Visalar
62,19,2023-01-03 03:55:00.064,Visalar
62,19,2023-01-03 03:56:00.064,Visalar
62,19,2023-01-03 03:57:00.064,Visalar
62,19,2023-01-03 03:58:00.064,Visalar
62,19,2023-01-03 03:59:00.065,Visalar
62,19,2023-01-03 04:00:00.064,Visalar
62,19,2023-01-03 04:01:00.064,Visalar
62,19,2023-01-03 04:02:00.064,Visalar
62,19,2023-01-03 04:03:00.063,Visalar
62,19,2023-01-03 04:04:00.063,Visalar
62,19,2023-01-03 04:05:00.065,Visalar
62,19,2023-01-03 04:07:00.062,Visalar
62,19,2023-01-03 04:08:00.064,Visalar
62,19,2023-01-03 04:09:00.060,Visalar
83,20,2023-01-03 04:10:00.813,Visalar
83,20,2023-01-03 04:11:00.743,Visalar
83,20,2023-01-03 04:12:05.756,Visalar
82,20,2023-01-03 04:13:07.186,Visalar
82,20,2023-01-03 04:14:06.924,Visalar
82,20,2023-01-03 04:15:00.754,Visalar
82,20,2023-01-03 04:16:06.937,Visalar
82,20,2023-01-03 04:17:06.934,Visalar
82,20,2023-01-03 04:18:06.956,Visalar
82,20,2023-01-03 04:19:06.963,Visalar
82,20,2023-01-03 04:20:06.937,Visalar
81,20,2023-01-03 04:21:06.900,Visalar
81,20,2023-01-03 04:22:06.950,Visalar
81,20,2023-01-03 04:23:06.921,Visalar
81,20,2023-01-03 04:24:06.933,Visalar
81,20,2023-01-03 04:25:00.757,Visalar
80,20,2023-01-03 04:26:06.926,Visalar
80,20,2023-01-03 04:27:06.926,Visalar
80,20,2023-01-03 04:28:06.922,Visalar
80,20,2023-01-03 04:29:05.763,Visalar
80,20,2023-01-03 04:30:07.196,Visalar
79,20,2023-01-03 04:31:06.926,Visalar
79,20,2023-01-03 04:32:06.933,Visalar
79,20,2023-01-03 04:35:15.553,Visalar
81,19,2023-01-03 04:36:06.940,Visalar
81,19,2023-01-03 04:37:06.901,Visalar
81,19,2023-01-03 04:38:05.750,Visalar
81,19,2023-01-03 04:39:08.190,Visalar
81,19,2023-01-03 04:40:07.447,Visalar
81,19,2023-01-03 04:43:10.689,Visalar
81,19,2023-01-03 04:46:10.913,Visalar
81,19,2023-01-03 04:47:06.926,Visalar
81,19,2023-01-03 04:48:06.917,Visalar
81,19,2023-01-03 04:49:06.931,Visalar
81,19,2023-01-03 04:50:05.784,Visalar
81,19,2023-01-03 04:51:07.187,Visalar
81,19,2023-01-03 04:52:06.923,Visalar
81,19,2023-01-03 04:53:06.940,Visalar
81,19,2023-01-03 04:54:06.989,Visalar
81,19,2023-01-03 04:55:00.760,Visalar
81,19,2023-01-03 04:56:06.935,Visalar
81,19,2023-01-03 04:57:06.938,Visalar
81,19,2023-01-03 04:58:06.963,Visalar
81,19,2023-01-03 04:59:05.777,Visalar
82,19,2023-01-03 05:01:07.187,Visalar
82,19,2023-01-03 05:02:05.765,Visalar
82,19,2023-01-03 05:03:06.907,Visalar
81,19,2023-01-03 05:04:06.925,Visalar
81,19,2023-01-03 05:05:00.868,Visalar
81,19,2023-01-03 05:06:06.928,Visalar
81,19,2023-01-03 05:07:06.948,Visalar
81,19,2023-01-03 05:08:06.937,Visalar
81,19,2023-01-03 05:09:06.932,Visalar
81,19,2023-01-03 05:10:06.943,Visalar
82,19,2023-01-03 05:11:06.944,Visalar
82,19,2023-01-03 05:12:00.824,Visalar
82,19,2023-01-03 05:13:07.928,Visalar
82,19,2023-01-03 05:16:11.105,Visalar
82,19,2023-01-03 05:17:06.913,Visalar
82,19,2023-01-03 05:18:06.975,Visalar
82,19,2023-01-03 05:21:10.113,Visalar
82,19,2023-01-03 05:24:10.337,Visalar
82,19,2023-01-03 05:25:10.068,Visalar
82,19,2023-01-03 05:26:00.725,Visalar
82,19,2023-01-03 05:27:07.661,Visalar
82,19,2023-01-03 05:30:10.785,Visalar
82,19,2023-01-03 05:31:00.818,Visalar
82,19,2023-01-03 05:32:00.787,Visalar
82,19,2023-01-03 05:33:06.982,Visalar
82,19,2023-01-03 05:34:06.948,Visalar
82,19,2023-01-03 05:35:06.942,Visalar
61,20,2023-01-03 05:36:00.450,Visalar
61,20,2023-01-03 05:37:00.064,Visalar
61,20,2023-01-03 05:38:00.065,Visalar
61,20,2023-01-03 05:39:00.065,Visalar
61,20,2023-01-03 05:40:00.064,Visalar
61,20,2023-01-03 05:41:00.049,Visalar
61,20,2023-01-03 05:42:00.049,Visalar
61,20,2023-01-03 05:43:00.065,Visalar
61,20,2023-01-03 05:44:00.065,Visalar
61,20,2023-01-03 05:45:00.009,Visalar
61,20,2023-01-03 05:46:00.065,Visalar
61,20,2023-01-03 05:47:00.065,Visalar
61,20,2023-01-03 05:48:00.065,Visalar
61,20,2023-01-03 05:49:00.030,Visalar
61,20,2023-01-03 05:50:00.064,Visalar
61,20,2023-01-03 05:51:00.065,Visalar
61,20,2023-01-03 05:52:00.064,Visalar
61,20,2023-01-03 05:53:00.064,Visalar
61,20,2023-01-03 05:54:00.017,Visalar
61,20,2023-01-03 05:55:00.064,Visalar
61,20,2023-01-03 05:56:00.064,Visalar
61,20,2023-01-03 05:57:00.064,Visalar
62,20,2023-01-03 05:58:00.066,Visalar
81,20,2023-01-03 05:59:07.476,Visalar
81,20,2023-01-03 06:00:00.773,Visalar
81,20,2023-01-03 06:01:06.933,Visalar
81,20,2023-01-03 06:04:10.593,Visalar
81,20,2023-01-03 06:05:00.786,Visalar
81,20,2023-01-03 06:06:00.802,Visalar
81,20,2023-01-03 06:09:09.601,Visalar
82,20,2023-01-03 06:10:00.735,Visalar
82,20,2023-01-03 06:11:06.959,Visalar
82,20,2023-01-03 06:12:00.771,Visalar
82,20,2023-01-03 06:15:10.051,Visalar
82,20,2023-01-03 06:16:06.920,Visalar
82,20,2023-01-03 06:19:09.665,Visalar
82,20,2023-01-03 06:20:07.461,Visalar
82,20,2023-01-03 06:23:11.329,Visalar
82,20,2023-01-03 06:26:11.553,Visalar
82,20,2023-01-03 06:29:09.729,Visalar
82,20,2023-01-03 06:32:09.953,Visalar
82,20,2023-01-03 06:33:08.445,Visalar
82,20,2023-01-03 06:34:05.723,Visalar
82,20,2023-01-03 06:35:00.780,Visalar
82,20,2023-01-03 06:36:06.942,Visalar
82,20,2023-01-03 06:37:06.947,Visalar
79,19,2023-01-03 06:38:06.925,Visalar
79,19,2023-01-03 06:39:05.739,Visalar
79,19,2023-01-03 06:40:07.163,Visalar
79,19,2023-01-03 06:41:00.782,Visalar
79,19,2023-01-03 06:42:06.914,Visalar
79,19,2023-01-03 06:43:06.952,Visalar
79,19,2023-01-03 06:44:06.940,Visalar
79,19,2023-01-03 06:45:00.778,Visalar
79,19,2023-01-03 06:46:09.437,Visalar
79,19,2023-01-03 06:47:07.703,Visalar
79,19,2023-01-03 06:48:06.921,Visalar
79,19,2023-01-03 06:49:06.943,Visalar
79,19,2023-01-03 06:50:06.920,Visalar
79,19,2023-01-03 06:51:06.977,Visalar
79,19,2023-01-03 06:54:15.009,Visalar
80,19,2023-01-03 06:55:00.751,Visalar
80,19,2023-01-03 06:56:05.769,Visalar
80,19,2023-01-03 06:57:07.193,Visalar
80,19,2023-01-03 06:58:06.938,Visalar
80,19,2023-01-03 06:59:06.936,Visalar
80,19,2023-01-03 07:00:06.929,Visalar
80,19,2023-01-03 07:01:06.953,Visalar
80,19,2023-01-03 07:02:06.927,Visalar
80,19,2023-01-03 07:03:06.923,Visalar
81,20,2023-01-03 07:04:00.731,Visalar
81,20,2023-01-03 07:05:07.039,Visalar
81,20,2023-01-03 07:06:00.758,Visalar
81,20,2023-01-03 07:07:06.931,Visalar
81,20,2023-01-03 07:08:06.926,Visalar
81,20,2023-01-03 07:09:06.949,Visalar
81,20,2023-01-03 07:10:05.768,Visalar
81,20,2023-01-03 07:11:07.183,Visalar
81,20,2023-01-03 07:12:00.774,Visalar
81,20,2023-01-03 07:13:06.938,Visalar
81,20,2023-01-03 07:14:05.742,Visalar
81,20,2023-01-03 07:15:00.759,Visalar
81,20,2023-01-03 07:16:00.764,Visalar
81,20,2023-01-03 07:17:00.738,Visalar
81,20,2023-01-03 07:18:00.745,Visalar
81,20,2023-01-03 07:21:10.881,Visalar
81,20,2023-01-03 07:22:00.733,Visalar
81,20,2023-01-03 07:23:00.744,Visalar
81,20,2023-01-03 07:24:00.710,Visalar
81,20,2023-01-03 07:27:09.281,Visalar
81,20,2023-01-03 07:28:05.771,Visalar
81,20,2023-01-03 07:31:15.041,Visalar
81,20,2023-01-03 07:32:03.935,Visalar
81,20,2023-01-03 07:33:06.957,Visalar
66,20,2023-01-03 07:34:06.588,Visalar
66,20,2023-01-03 07:35:00.058,Visalar
66,20,2023-01-03 07:36:00.063,Visalar
65,20,2023-01-03 07:37:00.006,Visalar
65,20,2023-01-03 07:38:00.064,Visalar
65,20,2023-01-03 07:39:00.064,Visalar
65,20,2023-01-03 07:40:00.064,Visalar
64,20,2023-01-03 07:41:00.064,Visalar
64,20,2023-01-03 07:42:00.064,Visalar
64,20,2023-01-03 07:43:00.064,Visalar
64,20,2023-01-03 07:44:00.064,Visalar
64,20,2023-01-03 07:45:00.064,Visalar
63,20,2023-01-03 07:46:00.064,Visalar
63,20,2023-01-03 07:47:00.063,Visalar
63,20,2023-01-03 07:48:00.063,Visalar
63,20,2023-01-03 07:49:00.064,Visalar
62,20,2023-01-03 07:50:00.064,Visalar
62,20,2023-01-03 07:51:00.063,Visalar
62,20,2023-01-03 07:52:00.063,Visalar
62,20,2023-01-03 07:53:00.064,Visalar
62,20,2023-01-03 07:54:00.064,Visalar
62,20,2023-01-03 07:55:00.064,Visalar
61,20,2023-01-03 07:56:00.063,Visalar
74,19,2023-01-03 07:57:00.038,Visalar
74,19,2023-01-03 07:58:00.064,Visalar
74,19,2023-01-03 07:59:00.065,Visalar
74,19,2023-01-03 08:00:00.064,Visalar
74,19,2023-01-03 08:01:00.064,Visalar
74,19,2023-01-03 08:02:00.064,Visalar
74,19,2023-01-03 08:03:00.065,Visalar
74,19,2023-01-03 08:04:00.037,Visalar
75,19,2023-01-03 08:05:00.064,Visalar
75,19,2023-01-03 08:06:00.065,Visalar
75,19,2023-01-03 08:07:00.064,Visalar
75,19,2023-01-03 08:08:00.064,Visalar
75,19,2023-01-03 08:09:00.065,Visalar
75,19,2023-01-03 08:10:00.064,Visalar
75,19,2023-01-03 08:11:00.064,Visalar
75,19,2023-01-03 08:12:00.016,Visalar
75,19,2023-01-03 08:13:00.064,Visalar
75,19,2023-01-03 08:14:00.064,Visalar
76,19,2023-01-03 08:15:00.064,Visalar
76,19,2023-01-03 08:16:00.064,Visalar
76,19,2023-01-03 08:18:00.064,Visalar
76,19,2023-01-03 08:19:00.005,Visalar
76,19,2023-01-03 08:20:00.060,Visalar
64,19,2023-01-03 08:21:00.064,Visalar
65,19,2023-01-03 08:22:00.063,Visalar
65,19,2023-01-03 08:23:00.063,Visalar
65,19,2023-01-03 08:24:00.064,Visalar
65,19,2023-01-03 08:25:00.064,Visalar
65,19,2023-01-03 08:26:00.063,Visalar
65,19,2023-01-03 08:27:00.063,Visalar
65,19,2023-01-03 08:28:00.005,Visalar
65,19,2023-01-03 08:29:00.064,Visalar
66,19,2023-01-03 08:30:00.064,Visalar
66,19,2023-01-03 08:31:00.063,Visalar
66,19,2023-01-03 08:32:00.064,Visalar
66,19,2023-01-03 08:33:00.064,Visalar
66,19,2023-01-03 08:34:00.064,Visalar
66,19,2023-01-03 08:35:00.064,Visalar
66,19,2023-01-03 08:36:00.065,Visalar
67,19,2023-01-03 08:37:00.065,Visalar
67,19,2023-01-03 08:38:00.064,Visalar
67,19,2023-01-03 08:39:00.064,Visalar
67,19,2023-01-03 08:40:00.064,Visalar
67,19,2023-01-03 08:41:00.017,Visalar
67,19,2023-01-03 08:42:00.064,Visalar
67,19,2023-01-03 08:43:00.007,Visalar
68,19,2023-01-03 08:44:00.066,Visalar
70,20,2023-01-03 08:45:00.064,Visalar
69,20,2023-01-03 08:46:00.064,Visalar
69,20,2023-01-03 08:47:00.064,Visalar
69,20,2023-01-03 08:48:00.064,Visalar
69,20,2023-01-03 08:49:00.064,Visalar
68,20,2023-01-03 08:50:00.064,Visalar
68,20,2023-01-03 08:51:00.065,Visalar
68,20,2023-01-03 08:52:00.059,Visalar
68,20,2023-01-03 08:53:00.063,Visalar
68,20,2023-01-03 08:54:00.022,Visalar
67,20,2023-01-03 08:55:00.065,Visalar
67,20,2023-01-03 08:56:00.065,Visalar
67,20,2023-01-03 08:57:00.065,Visalar
67,20,2023-01-03 08:58:00.065,Visalar
67,20,2023-01-03 08:59:00.006,Visalar
66,20,2023-01-03 09:00:00.006,Visalar
66,20,2023-01-03 09:01:00.065,Visalar
66,20,2023-01-03 09:02:00.064,Visalar
66,20,2023-01-03 09:03:00.065,Visalar
65,20,2023-01-03 09:05:00.065,Visalar
65,20,2023-01-03 09:06:00.065,Visalar
65,20,2023-01-03 09:07:00.062,Visalar
73,20,2023-01-03 09:08:00.064,Visalar
73,20,2023-01-03 09:09:00.038,Visalar
74,20,2023-01-03 09:10:00.064,Visalar
74,20,2023-01-03 09:11:00.064,Visalar
74,20,2023-01-03 09:12:00.064,Visalar
74,20,2023-01-03 09:13:00.064,Visalar
74,20,2023-01-03 09:14:00.010,Visalar
74,20,2023-01-03 09:15:00.064,Visalar
74,20,2023-01-03 09:16:00.005,Visalar
74,20,2023-01-03 09:17:00.064,Visalar
74,20,2023-01-03 09:18:00.064,Visalar
74,20,2023-01-03 09:19:00.063,Visalar
74,20,2023-01-03 09:20:00.012,Visalar
74,20,2023-01-03 09:21:00.064,Visalar
74,20,2023-01-03 09:22:00.064,Visalar
74,20,2023-01-03 09:23:00.064,Visalar
74,20,2023-01-03 09:24:00.065,Visalar
74,20,2023-01-03 09:25:00.064,Visalar
74,20,2023-01-03 09:26:00.064,Visalar
74,20,2023-01-03 09:27:00.064,Visalar
74,20,2023-01-03 09:28:00.064,Visalar
74,20,2023-01-03 09:29:00.043,Visalar
74,20,2023-01-03 09:30:00.060,Visalar
74,20,2023-01-03 09:31:00.062,Visalar
51,22,2023-01-03 09:32:00.064,Visalar
50,22,2023-01-03 09:33:00.065,Visalar
50,22,2023-01-03 09:34:00.018,Visalar
50,22,2023-01-03 09:35:00.064,Visalar
50,22,2023-01-03 09:36:00.065,Visalar
50,22,2023-01-03 09:37:00.064,Visalar
50,22,2023-01-03 09:38:00.065,Visalar
50,22,2023-01-03 09:39:00.065,Visalar
50,22,2023-01-03 09:40:00.065,Visalar
50,22,2023-01-03 09:41:00.065,Visalar
50,22,2023-01-03 09:42:00.065,Visalar
50,22,2023-01-03 09:43:00.064,Visalar
49,22,2023-01-03 09:44:00.065,Visalar
49,22,2023-01-03 09:45:00.007,Visalar
49,22,2023-01-03 09:46:00.065,Visalar
49,22,2023-01-03 09:47:00.064,Visalar
49,22,2023-01-03 09:48:00.006,Visalar
49,22,2023-01-03 09:49:00.064,Visalar
49,22,2023-01-03 09:50:00.017,Visalar
49,22,2023-01-03 09:51:00.065,Visalar
48,22,2023-01-03 09:52:00.065,Visalar
48,22,2023-01-03 09:53:00.064,Visalar
48,22,2023-01-03 09:54:00.064,Visalar
48,22,2023-01-03 09:55:00.011,Visalar
37,22,2023-01-03 09:56:00.005,Visalar
37,22,2023-01-03 09:57:00.065,Visalar
37,22,2023-01-03 09:58:00.064,Visalar
38,22,2023-01-03 09:59:00.005,Visalar
38,22,2023-01-03 10:00:00.006,Visalar
38,22,2023-01-03 10:01:00.064,Visalar
38,22,2023-01-03 10:02:00.064,Visalar
38,22,2023-01-03 10:03:00.064,Visalar
38,22,2023-01-03 10:04:00.064,Visalar
38,22,2023-01-03 10:05:00.065,Visalar
38,22,2023-01-03 10:06:00.021,Visalar
39,21,2023-01-03 10:07:00.063,Visalar
39,21,2023-01-03 10:08:00.064,Visalar
39,21,2023-01-03 10:09:00.017,Visalar
39,21,2023-01-03 10:10:00.065,Visalar
39,21,2023-01-03 10:11:00.014,Visalar
39,21,2023-01-03 10:12:00.024,Visalar
39,21,2023-01-03 10:13:00.005,Visalar
39,21,2023-01-03 10:14:00.064,Visalar
40,21,2023-01-03 10:15:00.062,Visalar
40,21,2023-01-03 10:16:00.005,Visalar
40,21,2023-01-03 10:17:00.063,Visalar
40,21,2023-01-03 10:18:00.064,Visalar
40,21,2023-01-03 10:19:00.061,Visalar
45,21,2023-01-03 10:20:00.065,Visalar
45,21,2023-01-03 10:21:00.064,Visalar
45,21,2023-01-03 10:22:00.065,Visalar
45,21,2023-01-03 10:23:00.064,Visalar
45,21,2023-01-03 10:24:00.064,Visalar
45,21,2023-01-03 10:25:00.064,Visalar
45,21,2023-01-03 10:26:00.064,Visalar
45,21,2023-01-03 10:27:00.064,Visalar
45,21,2023-01-03 10:28:00.065,Visalar
45,21,2023-01-03 10:29:00.065,Visalar
45,21,2023-01-03 10:30:00.064,Visalar
45,21,2023-01-03 10:31:00.029,Visalar
45,21,2023-01-03 10:32:00.037,Visalar
45,21,2023-01-03 10:33:00.064,Visalar
45,21,2023-01-03 10:34:00.064,Visalar
45,21,2023-01-03 10:35:00.064,Visalar
45,21,2023-01-03 10:36:00.064,Visalar
45,21,2023-01-03 10:37:00.064,Visalar
45,21,2023-01-03 10:38:00.064,Visalar
45,21,2023-01-03 10:39:00.064,Visalar
45,21,2023-01-03 10:40:00.005,Visalar
44,21,2023-01-03 10:41:00.005,Visalar
44,21,2023-01-03 10:42:00.064,Visalar
44,21,2023-01-03 10:43:00.062,Visalar
43,22,2023-01-03 10:44:00.064,Visalar
43,22,2023-01-03 10:45:00.064,Visalar
43,22,2023-01-03 10:46:00.064,Visalar
43,22,2023-01-03 10:47:00.064,Visalar
43,22,2023-01-03 10:48:00.064,Visalar
43,22,2023-01-03 10:49:00.064,Visalar
43,22,2023-01-03 10:50:00.003,Visalar
43,22,2023-01-03 10:51:00.063,Visalar
43,22,2023-01-03 10:52:00.064,Visalar
43,22,2023-01-03 10:53:00.004,Visalar
43,22,2023-01-03 10:54:00.064,Visalar
43,22,2023-01-03 10:55:00.004,Visalar
43,22,2023-01-03 10:56:00.064,Visalar
43,22,2023-01-03 10:57:00.063,Visalar
43,22,2023-01-03 10:58:00.064,Visalar
43,22,2023-01-03 10:59:00.005,Visalar
43,22,2023-01-03 11:00:00.064,Visalar
43,22,2023-01-03 11:01:00.064,Visalar
43,22,2023-01-03 11:02:00.064,Visalar
43,22,2023-01-03 11:03:00.064,Visalar
43,22,2023-01-03 11:04:00.064,Visalar
43,22,2023-01-03 11:05:00.064,Visalar
43,22,2023-01-03 11:06:00.064,Visalar
43,22,2023-01-03 11:07:00.062,Visalar
41,22,2023-01-03 11:08:00.004,Visalar
41,22,2023-01-03 11:09:00.064,Visalar
41,22,2023-01-03 11:10:00.064,Visalar
41,22,2023-01-03 11:11:00.064,Visalar
41,22,2023-01-03 11:12:00.063,Visalar
40,22,2023-01-03 11:13:00.005,Visalar
40,22,2023-01-03 11:14:00.005,Visalar
40,22,2023-01-03 11:15:00.064,Visalar
40,22,2023-01-03 11:16:00.064,Visalar
40,22,2023-01-03 11:17:00.064,Visalar
40,22,2023-01-03 11:18:00.064,Visalar
40,22,2023-01-03 11:19:00.064,Visalar
40,22,2023-01-03 11:20:00.064,Visalar
40,22,2023-01-03 11:21:00.064,Visalar
40,22,2023-01-03 11:22:00.064,Visalar
40,22,2023-01-03 11:23:00.005,Visalar
40,22,2023-01-03 11:24:00.064,Visalar
40,22,2023-01-03 11:25:00.064,Visalar
40,22,2023-01-03 11:26:00.064,Visalar
40,22,2023-01-03 11:27:00.064,Visalar
40,22,2023-01-03 11:28:00.064,Visalar
40,22,2023-01-03 11:29:00.064,Visalar
40,22,2023-01-03 11:30:00.064,Visalar
40,22,2023-01-03 11:31:00.062,Visalar
37,22,2023-01-03 11:32:00.064,Visalar
37,22,2023-01-03 11:33:00.064,Visalar
37,22,2023-01-03 11:34:00.064,Visalar
37,22,2023-01-03 11:35:00.064,Visalar
37,22,2023-01-03 11:36:00.064,Visalar
36,22,2023-01-03 11:37:00.064,Visalar
36,22,2023-01-03 11:38:00.064,Visalar
36,22,2023-01-03 11:39:00.064,Visalar
36,22,2023-01-03 11:40:00.064,Visalar
36,22,2023-01-03 11:41:00.064,Visalar
36,22,2023-01-03 11:42:00.064,Visalar
36,22,2023-01-03 11:43:00.065,Visalar
36,22,2023-01-03 11:44:00.065,Visalar
36,22,2023-01-03 11:45:00.065,Visalar
36,22,2023-01-03 11:46:00.062,Visalar
36,22,2023-01-03 11:47:00.064,Visalar
36,22,2023-01-03 11:48:00.063,Visalar
36,22,2023-01-03 11:49:00.064,Visalar
36,22,2023-01-03 11:50:00.006,Visalar
36,22,2023-01-03 11:51:00.065,Visalar
36,22,2023-01-03 11:52:00.064,Visalar
36,22,2023-01-03 11:53:00.064,Visalar
36,22,2023-01-03 11:54:00.065,Visalar
36,22,2023-01-03 11:55:00.062,Visalar
36,22,2023-01-03 11:56:00.064,Visalar
36,22,2023-01-03 11:57:00.064,Visalar
36,22,2023-01-03 11:58:00.064,Visalar
36,22,2023-01-03 11:59:00.065,Visalar
36,22,2023-01-03 12:00:00.065,Visalar
36,22,2023-01-03 12:01:00.064,Visalar
36,22,2023-01-03 12:02:00.065,Visalar
36,22,2023-01-03 12:03:00.065,Visalar
37,22,2023-01-03 12:04:00.064,Visalar
37,22,2023-01-03 12:05:00.064,Visalar
37,22,2023-01-03 12:06:00.064,Visalar
37,22,2023-01-03 12:07:00.064,Visalar
37,22,2023-01-03 12:08:00.064,Visalar
37,22,2023-01-03 12:09:00.065,Visalar
37,22,2023-01-03 12:10:00.065,Visalar
37,22,2023-01-03 12:11:00.064,Visalar
38,22,2023-01-03 12:12:00.064,Visalar
38,21,2023-01-03 12:13:00.064,Visalar
38,21,2023-01-03 12:14:00.065,Visalar
38,21,2023-01-03 12:15:00.064,Visalar
38,21,2023-01-03 12:16:00.064,Visalar
38,21,2023-01-03 12:17:00.064,Visalar
38,21,2023-01-03 12:18:00.009,Visalar
39,21,2023-01-03 12:19:00.062,Visalar
51,21,2023-01-03 12:20:00.016,Visalar
51,21,2023-01-03 12:21:00.065,Visalar
51,21,2023-01-03 12:22:00.064,Visalar
51,21,2023-01-03 12:23:00.064,Visalar
51,21,2023-01-03 12:24:00.064,Visalar
51,21,2023-01-03 12:25:00.064,Visalar
51,21,2023-01-03 12:26:00.064,Visalar
51,21,2023-01-03 12:27:00.064,Visalar
51,21,2023-01-03 12:28:00.064,Visalar
51,21,2023-01-03 12:29:00.064,Visalar
51,21,2023-01-03 12:30:00.064,Visalar
51,21,2023-01-03 12:31:00.064,Visalar
51,21,2023-01-03 12:32:00.064,Visalar
51,21,2023-01-03 12:33:00.036,Visalar
51,21,2023-01-03 12:34:00.064,Visalar
51,21,2023-01-03 12:35:00.064,Visalar
51,21,2023-01-03 12:36:00.064,Visalar
51,21,2023-01-03 12:37:00.064,Visalar
51,21,2023-01-03 12:38:00.064,Visalar
51,21,2023-01-03 12:39:00.064,Visalar
51,21,2023-01-03 12:40:00.064,Visalar
51,21,2023-01-03 12:41:00.064,Visalar
51,21,2023-01-03 12:42:00.064,Visalar
51,21,2023-01-03 12:43:00.062,Visalar
42,22,2023-01-03 12:44:00.064,Visalar
42,22,2023-01-03 12:45:00.015,Visalar
42,22,2023-01-03 12:46:00.065,Visalar
42,22,2023-01-03 12:47:00.064,Visalar
42,22,2023-01-03 12:48:00.064,Visalar
42,22,2023-01-03 12:49:00.064,Visalar
42,22,2023-01-03 12:50:00.064,Visalar
42,22,2023-01-03 12:51:00.017,Visalar
42,22,2023-01-03 12:52:00.064,Visalar
42,22,2023-01-03 12:53:00.064,Visalar
42,22,2023-01-03 12:54:00.064,Visalar
42,22,2023-01-03 12:55:00.064,Visalar
42,22,2023-01-03 12:56:00.064,Visalar
42,22,2023-01-03 12:57:00.064,Visalar
42,22,2023-01-03 12:58:00.064,Visalar
42,22,2023-01-03 12:59:00.064,Visalar
42,22,2023-01-03 13:00:00.063,Visalar
42,22,2023-01-03 13:01:00.064,Visalar
42,22,2023-01-03 13:02:00.062,Visalar
42,22,2023-01-03 13:03:00.044,Visalar
42,22,2023-01-03 13:04:00.005,Visalar
42,22,2023-01-03 13:05:00.064,Visalar
42,22,2023-01-03 13:06:00.064,Visalar
42,22,2023-01-03 13:07:00.008,Visalar
42,22,2023-01-03 13:08:00.065,Visalar
42,22,2023-01-03 13:09:00.064,Visalar
42,22,2023-01-03 13:10:00.064,Visalar
42,22,2023-01-03 13:11:00.065,Visalar
42,22,2023-01-03 13:12:00.065,Visalar
42,22,2023-01-03 13:13:00.065,Visalar
42,22,2023-01-03 13:14:00.065,Visalar
42,22,2023-01-03 13:15:00.065,Visalar
42,22,2023-01-03 13:16:00.065,Visalar
42,22,2023-01-03 13:17:00.063,Visalar
42,22,2023-01-03 13:18:00.065,Visalar
42,22,2023-01-03 13:19:00.065,Visalar
42,22,2023-01-03 13:20:00.031,Visalar
42,22,2023-01-03 13:21:00.064,Visalar
42,22,2023-01-03 13:22:00.064,Visalar
42,22,2023-01-03 13:23:00.064,Visalar
42,22,2023-01-03 13:24:00.064,Visalar
41,22,2023-01-03 13:25:00.037,Visalar
41,22,2023-01-03 13:26:00.064,Visalar
41,22,2023-01-03 13:27:00.020,Visalar
41,22,2023-01-03 13:28:00.015,Visalar
41,22,2023-01-03 13:29:00.065,Visalar
41,22,2023-01-03 13:30:00.044,Visalar
44,22,2023-01-03 13:31:00.065,Visalar
44,22,2023-01-03 13:32:00.025,Visalar
44,22,2023-01-03 13:33:00.065,Visalar
44,22,2023-01-03 13:34:00.004,Visalar
44,22,2023-01-03 13:35:00.064,Visalar
44,22,2023-01-03 13:36:00.014,Visalar
44,22,2023-01-03 13:37:00.064,Visalar
44,22,2023-01-03 13:38:00.064,Visalar
44,22,2023-01-03 13:39:00.064,Visalar
44,22,2023-01-03 13:40:00.064,Visalar
44,22,2023-01-03 13:41:00.064,Visalar
44,22,2023-01-03 13:42:00.005,Visalar
44,22,2023-01-03 13:43:00.027,Visalar
44,22,2023-01-03 13:44:00.065,Visalar
44,22,2023-01-03 13:45:00.065,Visalar
44,22,2023-01-03 13:46:00.065,Visalar
44,22,2023-01-03 13:47:00.065,Visalar
44,22,2023-01-03 13:48:00.064,Visalar
44,22,2023-01-03 13:49:00.064,Visalar
44,22,2023-01-03 13:50:00.060,Visalar
44,22,2023-01-03 13:51:00.007,Visalar
44,22,2023-01-03 13:52:00.006,Visalar
44,22,2023-01-03 13:53:00.005,Visalar
44,22,2023-01-03 13:54:00.015,Visalar
44,22,2023-01-03 13:55:00.065,Visalar
44,22,2023-01-03 13:56:00.009,Visalar
44,22,2023-01-03 13:57:00.065,Visalar
44,22,2023-01-03 13:58:00.065,Visalar
44,22,2023-01-03 13:59:00.065,Visalar
44,22,2023-01-03 14:00:00.065,Visalar
44,22,2023-01-03 14:01:00.065,Visalar
44,22,2023-01-03 14:02:00.034,Visalar
44,22,2023-01-03 14:03:00.018,Visalar
43,22,2023-01-03 14:04:00.008,Visalar
43,22,2023-01-03 14:05:00.064,Visalar
43,22,2023-01-03 14:06:00.051,Visalar
43,22,2023-01-03 14:07:00.006,Visalar
43,22,2023-01-03 14:08:00.065,Visalar
43,22,2023-01-03 14:09:00.064,Visalar
43,22,2023-01-03 14:10:00.004,Visalar
43,22,2023-01-03 14:11:00.064,Visalar
43,22,2023-01-03 14:12:00.007,Visalar
43,22,2023-01-03 14:13:00.065,Visalar
43,22,2023-01-03 14:14:00.065,Visalar
43,22,2023-01-03 14:15:00.064,Visalar
43,22,2023-01-03 14:16:00.062,Visalar
40,22,2023-01-03 14:18:00.018,Visalar
40,22,2023-01-03 14:19:00.064,Visalar
40,22,2023-01-03 14:20:00.006,Visalar
40,22,2023-01-03 14:21:00.064,Visalar
40,22,2023-01-03 14:22:00.006,Visalar
40,22,2023-01-03 14:23:00.064,Visalar
40,22,2023-01-03 14:24:00.064,Visalar
40,22,2023-01-03 14:25:00.004,Visalar
40,22,2023-01-03 14:26:00.033,Visalar
40,22,2023-01-03 14:27:00.064,Visalar
39,22,2023-01-03 14:28:00.004,Visalar
39,22,2023-01-03 14:29:00.040,Visalar
39,22,2023-01-03 14:30:00.004,Visalar
39,22,2023-01-03 14:31:00.006,Visalar
39,22,2023-01-03 14:32:00.006,Visalar
39,22,2023-01-03 14:33:00.064,Visalar
39,22,2023-01-03 14:34:00.026,Visalar
39,22,2023-01-03 14:35:00.007,Visalar
39,22,2023-01-03 14:36:00.040,Visalar
39,22,2023-01-03 14:37:00.004,Visalar
39,22,2023-01-03 14:38:00.004,Visalar
39,22,2023-01-03 14:39:00.021,Visalar
39,22,2023-01-03 14:40:00.004,Visalar
39,22,2023-01-03 14:41:00.063,Visalar
45,22,2023-01-03 14:42:00.005,Visalar
45,22,2023-01-03 14:43:00.047,Visalar
45,22,2023-01-03 14:44:00.004,Visalar
45,22,2023-01-03 14:45:00.005,Visalar
45,22,2023-01-03 14:46:00.064,Visalar
45,22,2023-01-03 14:47:00.005,Visalar
46,22,2023-01-03 14:48:00.004,Visalar
46,22,2023-01-03 14:49:00.014,Visalar
46,22,2023-01-03 14:50:00.064,Visalar
46,22,2023-01-03 14:51:00.027,Visalar
46,22,2023-01-03 14:52:00.064,Visalar
46,22,2023-01-03 14:53:00.033,Visalar
46,22,2023-01-03 14:54:00.065,Visalar
46,22,2023-01-03 14:55:00.006,Visalar
46,22,2023-01-03 14:56:00.065,Visalar
46,22,2023-01-03 14:57:00.025,Visalar
47,22,2023-01-03 14:58:00.006,Visalar
47,22,2023-01-03 14:59:00.023,Visalar
47,22,2023-01-03 15:00:00.006,Visalar
47,22,2023-01-03 15:01:00.006,Visalar
47,22,2023-01-03 15:02:00.065,Visalar
47,22,2023-01-03 15:03:00.065,Visalar
47,22,2023-01-03 15:04:00.006,Visalar
47,22,2023-01-03 15:05:00.061,Visalar
53,22,2023-01-03 15:06:00.064,Visalar
53,22,2023-01-03 15:07:00.063,Visalar
53,22,2023-01-03 15:08:00.028,Visalar
53,22,2023-01-03 15:09:00.006,Visalar
53,22,2023-01-03 15:10:00.064,Visalar
53,22,2023-01-03 15:11:00.065,Visalar
53,22,2023-01-03 15:12:00.065,Visalar
53,22,2023-01-03 15:13:00.015,Visalar
53,22,2023-01-03 15:14:00.038,Visalar
53,22,2023-01-03 15:15:00.036,Visalar
53,22,2023-01-03 15:16:00.011,Visalar
53,22,2023-01-03 15:17:00.058,Visalar
53,22,2023-01-03 15:18:00.065,Visalar
53,22,2023-01-03 15:19:00.064,Visalar
53,22,2023-01-03 15:20:00.008,Visalar
53,22,2023-01-03 15:21:00.033,Visalar
53,22,2023-01-03 15:22:00.037,Visalar
53,22,2023-01-03 15:23:00.064,Visalar
53,22,2023-01-03 15:24:00.005,Visalar
53,22,2023-01-03 15:25:00.005,Visalar
53,22,2023-01-03 15:26:00.006,Visalar
53,22,2023-01-03 15:27:00.008,Visalar
53,22,2023-01-03 15:28:00.064,Visalar
53,22,2023-01-03 15:29:00.017,Visalar
50,22,2023-01-03 15:30:00.005,Visalar
50,22,2023-01-03 15:31:00.037,Visalar
50,22,2023-01-03 15:32:00.064,Visalar
50,22,2023-01-03 15:33:00.015,Visalar
50,22,2023-01-03 15:34:00.004,Visalar
50,22,2023-01-03 15:35:00.005,Visalar
50,22,2023-01-03 15:36:00.005,Visalar
50,22,2023-01-03 15:37:00.004,Visalar
50,22,2023-01-03 15:38:00.005,Visalar
50,22,2023-01-03 15:39:00.056,Visalar
50,22,2023-01-03 15:40:00.014,Visalar
50,22,2023-01-03 15:41:00.014,Visalar
50,22,2023-01-03 15:42:00.017,Visalar
50,22,2023-01-03 15:43:00.034,Visalar
50,22,2023-01-03 15:44:00.065,Visalar
50,22,2023-01-03 15:45:00.065,Visalar
50,22,2023-01-03 15:46:00.048,Visalar
50,22,2023-01-03 15:47:00.064,Visalar
50,22,2023-01-03 15:48:00.005,Visalar
50,22,2023-01-03 15:49:00.064,Visalar
50,22,2023-01-03 15:50:00.064,Visalar
50,22,2023-01-03 15:51:00.058,Visalar
50,22,2023-01-03 15:52:00.006,Visalar
46,22,2023-01-03 15:54:00.023,Visalar
45,22,2023-01-03 15:55:00.015,Visalar
45,22,2023-01-03 15:56:00.061,Visalar
45,22,2023-01-03 15:57:00.025,Visalar
45,22,2023-01-03 15:58:00.043,Visalar
45,22,2023-01-03 15:59:00.023,Visalar
45,22,2023-01-03 16:00:00.030,Visalar
45,22,2023-01-03 16:01:00.004,Visalar
45,22,2023-01-03 16:02:00.045,Visalar
45,22,2023-01-03 16:03:00.052,Visalar
45,22,2023-01-03 16:04:00.038,Visalar
45,22,2023-01-03 16:05:00.005,Visalar
45,22,2023-01-03 16:06:00.005,Visalar
45,22,2023-01-03 16:07:00.015,Visalar
45,22,2023-01-03 16:08:00.015,Visalar
45,22,2023-01-03 16:09:00.018,Visalar
45,22,2023-01-03 16:10:00.065,Visalar
45,22,2023-01-03 16:11:00.065,Visalar
45,22,2023-01-03 16:12:00.018,Visalar
45,22,2023-01-03 16:13:00.065,Visalar
45,22,2023-01-03 16:14:00.006,Visalar
44,22,2023-01-03 16:15:00.016,Visalar
44,22,2023-01-03 16:16:00.006,Visalar
44,22,2023-01-03 16:17:00.005,Visalar
38,22,2023-01-03 16:18:00.014,Visalar
38,22,2023-01-03 16:19:00.044,Visalar
38,22,2023-01-03 16:20:00.005,Visalar
38,22,2023-01-03 16:21:00.014,Visalar
38,22,2023-01-03 16:22:00.005,Visalar
38,22,2023-01-03 16:23:00.005,Visalar
38,22,2023-01-03 16:24:00.009,Visalar
38,22,2023-01-03 16:25:00.024,Visalar
38,22,2023-01-03 16:26:00.006,Visalar
38,22,2023-01-03 16:27:00.005,Visalar
38,22,2023-01-03 16:28:00.005,Visalar
38,22,2023-01-03 16:29:00.064,Visalar
38,22,2023-01-03 16:30:00.064,Visalar
38,22,2023-01-03 16:31:00.049,Visalar
38,22,2023-01-03 16:32:00.029,Visalar
38,22,2023-01-03 16:33:00.064,Visalar
38,22,2023-01-03 16:34:00.054,Visalar
38,22,2023-01-03 16:35:00.017,Visalar
38,22,2023-01-03 16:36:00.064,Visalar
38,22,2023-01-03 16:37:00.036,Visalar
39,22,2023-01-03 16:38:00.005,Visalar
39,22,2023-01-03 16:39:00.007,Visalar
39,22,2023-01-03 16:40:00.005,Visalar
42,21,2023-01-03 16:42:00.014,Visalar
42,21,2023-01-03 16:43:00.055,Visalar
42,21,2023-01-03 16:44:00.064,Visalar
42,21,2023-01-03 16:45:00.064,Visalar
42,21,2023-01-03 16:46:00.057,Visalar
42,21,2023-01-03 16:47:00.043,Visalar
42,21,2023-01-03 16:48:00.005,Visalar
42,21,2023-01-03 16:49:00.055,Visalar
42,21,2023-01-03 16:50:00.005,Visalar
42,21,2023-01-03 16:51:00.014,Visalar
42,21,2023-01-03 16:52:00.064,Visalar
42,21,2023-01-03 16:53:00.005,Visalar
42,21,2023-01-03 16:54:00.065,Visalar
42,21,2023-01-03 16:55:00.065,Visalar
42,21,2023-01-03 16:56:00.044,Visalar
42,21,2023-01-03 16:57:00.065,Visalar
42,21,2023-01-03 16:58:00.015,Visalar
42,21,2023-01-03 16:59:00.004,Visalar
42,21,2023-01-03 17:00:00.006,Visalar
42,21,2023-01-03 17:01:00.008,Visalar
42,21,2023-01-03 17:02:00.065,Visalar
42,21,2023-01-03 17:03:00.032,Visalar
42,21,2023-01-03 17:04:00.029,Visalar
42,21,2023-01-03 17:05:00.064,Visalar
39,22,2023-01-03 17:06:00.064,Visalar
39,22,2023-01-03 17:07:00.055,Visalar
39,22,2023-01-03 17:08:00.006,Visalar
39,22,2023-01-03 17:09:00.064,Visalar
39,22,2023-01-03 17:10:00.005,Visalar
39,22,2023-01-03 17:11:00.018,Visalar
39,22,2023-01-03 17:12:00.065,Visalar
38,22,2023-01-03 17:13:00.055,Visalar
38,22,2023-01-03 17:14:00.006,Visalar
38,22,2023-01-03 17:15:00.049,Visalar
38,22,2023-01-03 17:16:00.065,Visalar
38,22,2023-01-03 17:17:00.065,Visalar
38,22,2023-01-03 17:18:00.038,Visalar
38,22,2023-01-03 17:19:00.057,Visalar
38,22,2023-01-03 17:20:00.035,Visalar
38,22,2023-01-03 17:21:00.064,Visalar
38,22,2023-01-03 17:22:00.064,Visalar
38,22,2023-01-03 17:23:00.058,Visalar
38,22,2023-01-03 17:24:00.004,Visalar
38,22,2023-01-03 17:25:00.005,Visalar
38,22,2023-01-03 17:26:00.064,Visalar
38,22,2023-01-03 17:27:00.064,Visalar
38,22,2023-01-03 17:28:00.064,Visalar
35,22,2023-01-03 17:30:00.048,Visalar
35,22,2023-01-03 17:31:00.065,Visalar
35,22,2023-01-03 17:32:00.065,Visalar
35,22,2023-01-03 17:33:00.065,Visalar
35,22,2023-01-03 17:34:00.065,Visalar
35,22,2023-01-03 17:35:00.065,Visalar
35,22,2023-01-03 17:36:00.065,Visalar
35,22,2023-01-03 17:37:00.065,Visalar
35,22,2023-01-03 17:38:00.065,Visalar
35,22,2023-01-03 17:39:00.065,Visalar
35,22,2023-01-03 17:40:00.015,Visalar
35,22,2023-01-03 17:41:00.053,Visalar
35,22,2023-01-03 17:42:00.005,Visalar
35,22,2023-01-03 17:43:00.006,Visalar
35,22,2023-01-03 17:44:00.065,Visalar
35,22,2023-01-03 17:45:00.049,Visalar
35,22,2023-01-03 17:46:00.065,Visalar
35,22,2023-01-03 17:47:00.065,Visalar
35,22,2023-01-03 17:48:00.065,Visalar
35,22,2023-01-03 17:49:00.065,Visalar
35,22,2023-01-03 17:50:00.022,Visalar
35,22,2023-01-03 17:51:00.006,Visalar
35,22,2023-01-03 17:52:00.065,Visalar
35,22,2023-01-03 17:53:00.067,Visalar
43,21,2023-01-03 17:54:00.065,Visalar
43,21,2023-01-03 17:55:00.065,Visalar
43,21,2023-01-03 17:56:00.064,Visalar
43,21,2023-01-03 17:57:00.065,Visalar
43,21,2023-01-03 17:58:00.007,Visalar
44,21,2023-01-03 17:59:00.046,Visalar
44,21,2023-01-03 18:00:00.049,Visalar
44,21,2023-01-03 18:01:00.028,Visalar
44,21,2023-01-03 18:02:00.006,Visalar
44,21,2023-01-03 18:03:00.011,Visalar
44,21,2023-01-03 18:04:00.036,Visalar
44,21,2023-01-03 18:05:00.054,Visalar
44,21,2023-01-03 18:06:00.036,Visalar
44,21,2023-01-03 18:07:00.065,Visalar
44,21,2023-01-03 18:08:00.039,Visalar
44,21,2023-01-03 18:09:00.059,Visalar
44,21,2023-01-03 18:10:00.065,Visalar
44,21,2023-01-03 18:11:00.065,Visalar
44,21,2023-01-03 18:12:00.065,Visalar
44,21,2023-01-03 18:14:00.065,Visalar
44,21,2023-01-03 18:15:00.065,Visalar
44,21,2023-01-03 18:16:00.001,Visalar
42,22,2023-01-03 18:17:00.045,Visalar
42,22,2023-01-03 18:18:00.026,Visalar
42,22,2023-01-03 18:19:00.064,Visalar
42,22,2023-01-03 18:20:00.038,Visalar
42,22,2023-01-03 18:21:00.029,Visalar
42,22,2023-01-03 18:22:00.010,Visalar
42,22,2023-01-03 18:23:00.065,Visalar
42,22,2023-01-03 18:24:00.065,Visalar
42,22,2023-01-03 18:25:00.065,Visalar
42,22,2023-01-03 18:26:00.029,Visalar
42,22,2023-01-03 18:27:00.064,Visalar
42,22,2023-01-03 18:28:00.040,Visalar
42,22,2023-01-03 18:29:00.053,Visalar
42,22,2023-01-03 18:30:00.053,Visalar
42,22,2023-01-03 18:31:00.041,Visalar
42,22,2023-01-03 18:32:00.015,Visalar
42,22,2023-01-03 18:33:00.015,Visalar
42,22,2023-01-03 18:34:00.015,Visalar
42,22,2023-01-03 18:35:00.065,Visalar
42,22,2023-01-03 18:36:00.065,Visalar
42,22,2023-01-03 18:37:00.018,Visalar
42,22,2023-01-03 18:38:00.058,Visalar
42,22,2023-01-03 18:39:00.066,Visalar
42,22,2023-01-03 18:40:00.044,Visalar
40,22,2023-01-03 18:41:00.064,Visalar
40,22,2023-01-03 18:42:00.037,Visalar
40,22,2023-01-03 18:43:00.065,Visalar
40,22,2023-01-03 18:44:00.014,Visalar
40,22,2023-01-03 18:45:00.047,Visalar
40,22,2023-01-03 18:46:00.049,Visalar
40,22,2023-01-03 18:47:00.007,Visalar
40,22,2023-01-03 18:48:00.064,Visalar
40,22,2023-01-03 18:49:00.064,Visalar
40,22,2023-01-03 18:50:00.063,Visalar
40,22,2023-01-03 18:51:00.021,Visalar
40,22,2023-01-03 18:52:00.064,Visalar
40,22,2023-01-03 18:53:00.034,Visalar
40,22,2023-01-03 18:54:00.005,Visalar
40,22,2023-01-03 18:55:00.005,Visalar
40,22,2023-01-03 18:56:00.018,Visalar
40,22,2023-01-03 18:57:00.004,Visalar
40,22,2023-01-03 18:58:00.005,Visalar
40,22,2023-01-03 18:59:00.037,Visalar
40,22,2023-01-03 19:01:00.056,Visalar
40,22,2023-01-03 19:02:00.004,Visalar
40,22,2023-01-03 19:03:00.000,Visalar
39,22,2023-01-03 19:04:00.037,Visalar
39,22,2023-01-03 19:05:00.019,Visalar
39,22,2023-01-03 19:06:00.037,Visalar
39,22,2023-01-03 19:07:00.005,Visalar
39,22,2023-01-03 19:08:00.048,Visalar
39,22,2023-01-03 19:09:00.064,Visalar
39,22,2023-01-03 19:10:00.021,Visalar
39,22,2023-01-03 19:11:00.006,Visalar
39,22,2023-01-03 19:12:00.007,Visalar
39,22,2023-01-03 19:13:00.006,Visalar
39,22,2023-01-03 19:14:00.064,Visalar
38,22,2023-01-03 19:15:00.054,Visalar
38,22,2023-01-03 19:16:00.042,Visalar
38,22,2023-01-03 19:17:00.064,Visalar
38,22,2023-01-03 19:18:00.033,Visalar
38,22,2023-01-03 19:19:00.005,Visalar
38,22,2023-01-03 19:20:00.005,Visalar
38,22,2023-01-03 19:21:00.025,Visalar
38,22,2023-01-03 19:22:00.004,Visalar
38,22,2023-01-03 19:23:00.056,Visalar
38,22,2023-01-03 19:24:00.006,Visalar
38,22,2023-01-03 19:25:00.014,Visalar
38,22,2023-01-03 19:26:00.062,Visalar
38,22,2023-01-03 19:27:00.063,Visalar
42,21,2023-01-03 19:28:00.007,Visalar
42,22,2023-01-03 19:29:00.064,Visalar
42,22,2023-01-03 19:30:00.007,Visalar
42,22,2023-01-03 19:31:00.018,Visalar
42,22,2023-01-03 19:32:00.065,Visalar
42,22,2023-01-03 19:33:00.022,Visalar
42,22,2023-01-03 19:34:00.065,Visalar
42,22,2023-01-03 19:35:00.064,Visalar
42,22,2023-01-03 19:36:00.047,Visalar
42,22,2023-01-03 19:37:00.051,Visalar
42,22,2023-01-03 19:38:00.065,Visalar
42,22,2023-01-03 19:39:00.007,Visalar
42,22,2023-01-03 19:40:00.055,Visalar
42,22,2023-01-03 19:41:00.015,Visalar
42,22,2023-01-03 19:42:00.064,Visalar
42,22,2023-01-03 19:43:00.024,Visalar
42,22,2023-01-03 19:44:00.014,Visalar
42,22,2023-01-03 19:45:00.033,Visalar
42,22,2023-01-03 19:46:00.006,Visalar
42,22,2023-01-03 19:47:00.029,Visalar
42,22,2023-01-03 19:48:00.065,Visalar
42,22,2023-01-03 19:49:00.065,Visalar
42,22,2023-01-03 19:50:00.064,Visalar
42,2,2023-01-03 19:51:00.057,Visalar
43,22,2023-01-03 19:52:00.054,Visalar
43,22,2023-01-03 19:53:00.038,Visalar
43,22,2023-01-03 19:54:00.064,Visalar
43,22,2023-01-03 19:55:00.064,Visalar
43,22,2023-01-03 19:56:00.065,Visalar
43,22,2023-01-03 19:57:00.065,Visalar
43,22,2023-01-03 19:58:00.065,Visalar
43,22,2023-01-03 19:59:00.020,Visalar
43,22,2023-01-03 20:00:00.064,Visalar
43,22,2023-01-03 20:01:00.064,Visalar
43,22,2023-01-03 20:02:00.064,Visalar
43,22,2023-01-03 20:03:00.014,Visalar
43,22,2023-01-03 20:04:00.064,Visalar
43,22,2023-01-03 20:05:00.024,Visalar
43,22,2023-01-03 20:06:00.064,Visalar
43,22,2023-01-03 20:07:00.055,Visalar
43,22,2023-01-03 20:08:00.064,Visalar
43,22,2023-01-03 20:09:00.028,Visalar
43,22,2023-01-03 20:10:00.065,Visalar
43,22,2023-01-03 20:11:00.025,Visalar
43,22,2023-01-03 20:12:00.005,Visalar
43,22,2023-01-03 20:13:00.065,Visalar
43,22,2023-01-03 20:14:00.062,Visalar
43,22,2023-01-03 20:15:00.064,Visalar
40,22,2023-01-03 20:16:00.005,Visalar
40,22,2023-01-03 20:17:00.065,Visalar
40,22,2023-01-03 20:18:00.015,Visalar
40,22,2023-01-03 20:19:00.018,Visalar
40,22,2023-01-03 20:20:00.061,Visalar
41,22,2023-01-03 20:21:00.034,Visalar
41,22,2023-01-03 20:22:00.064,Visalar
41,22,2023-01-03 20:23:00.006,Visalar
41,22,2023-01-03 20:24:00.005,Visalar
41,22,2023-01-03 20:25:00.064,Visalar
41,22,2023-01-03 20:26:00.006,Visalar
41,22,2023-01-03 20:27:00.065,Visalar
41,22,2023-01-03 20:28:00.017,Visalar
41,22,2023-01-03 20:29:00.055,Visalar
42,22,2023-01-03 20:30:00.065,Visalar
42,22,2023-01-03 20:31:00.037,Visalar
42,22,2023-01-03 20:32:00.016,Visalar
42,22,2023-01-03 20:33:00.034,Visalar
42,22,2023-01-03 20:34:00.006,Visalar
42,22,2023-01-03 20:35:00.065,Visalar
42,22,2023-01-03 20:36:00.065,Visalar
42,22,2023-01-03 20:37:00.065,Visalar
43,21,2023-01-03 20:38:00.065,Visalar
43,22,2023-01-03 20:39:00.064,Visalar
46,21,2023-01-03 20:41:00.014,Visalar
46,21,2023-01-03 20:42:00.044,Visalar
46,21,2023-01-03 20:43:00.033,Visalar
46,21,2023-01-03 20:44:00.025,Visalar
46,22,2023-01-03 20:45:00.005,Visalar
46,22,2023-01-03 20:46:00.014,Visalar
46,22,2023-01-03 20:47:00.024,Visalar
46,22,2023-01-03 20:48:00.017,Visalar
46,22,2023-01-03 20:49:00.048,Visalar
46,22,2023-01-03 20:50:00.006,Visalar
46,22,2023-01-03 20:51:00.006,Visalar
46,22,2023-01-03 20:52:00.064,Visalar
46,22,2023-01-03 20:53:00.046,Visalar
46,22,2023-01-03 20:54:00.065,Visalar
46,22,2023-01-03 20:55:00.005,Visalar
46,22,2023-01-03 20:56:00.064,Visalar
46,22,2023-01-03 20:57:00.063,Visalar
46,22,2023-01-03 20:58:00.056,Visalar
46,22,2023-01-03 20:59:00.006,Visalar
46,22,2023-01-03 21:00:00.065,Visalar
46,22,2023-01-03 21:01:00.065,Visalar
46,22,2023-01-03 21:02:00.065,Visalar
46,22,2023-01-03 21:03:00.006,Visalar
46,22,2023-01-03 21:04:00.037,Visalar
48,22,2023-01-03 21:05:00.065,Visalar
48,22,2023-01-03 21:06:00.038,Visalar
48,22,2023-01-03 21:07:00.064,Visalar
47,22,2023-01-03 21:08:00.008,Visalar
47,22,2023-01-03 21:09:00.065,Visalar
47,22,2023-01-03 21:10:00.006,Visalar
47,22,2023-01-03 21:11:00.054,Visalar
47,22,2023-01-03 21:12:00.030,Visalar
47,22,2023-01-03 21:13:00.061,Visalar
47,22,2023-01-03 21:14:00.015,Visalar
47,22,2023-01-03 21:15:00.064,Visalar
47,22,2023-01-03 21:16:00.014,Visalar
47,22,2023-01-03 21:17:00.043,Visalar
47,22,2023-01-03 21:18:00.056,Visalar
47,22,2023-01-03 21:19:00.013,Visalar
47,22,2023-01-03 21:20:00.065,Visalar
47,22,2023-01-03 21:21:00.008,Visalar
47,22,2023-01-03 21:22:00.015,Visalar
47,22,2023-01-03 21:23:00.065,Visalar
47,22,2023-01-03 21:24:00.032,Visalar
46,22,2023-01-03 21:25:00.006,Visalar
46,22,2023-01-03 21:26:00.065,Visalar
46,22,2023-01-03 21:27:00.029,Visalar
49,21,2023-01-03 21:29:00.035,Visalar
49,21,2023-01-03 21:30:00.006,Visalar
49,21,2023-01-03 21:31:00.064,Visalar
49,21,2023-01-03 21:32:00.063,Visalar
49,21,2023-01-03 21:33:00.014,Visalar
49,21,2023-01-03 21:34:00.014,Visalar
49,21,2023-01-03 21:35:00.065,Visalar
50,21,2023-01-03 21:36:00.034,Visalar
50,21,2023-01-03 21:37:00.025,Visalar
50,21,2023-01-03 21:38:00.025,Visalar
50,21,2023-01-03 21:39:00.065,Visalar
50,21,2023-01-03 21:40:00.064,Visalar
50,21,2023-01-03 21:41:00.018,Visalar
50,21,2023-01-03 21:42:00.025,Visalar
50,21,2023-01-03 21:43:00.021,Visalar
50,21,2023-01-03 21:44:00.064,Visalar
50,21,2023-01-03 21:45:00.064,Visalar
50,21,2023-01-03 21:46:00.046,Visalar
50,21,2023-01-03 21:47:00.038,Visalar
50,21,2023-01-03 21:48:00.006,Visalar
50,21,2023-01-03 21:49:00.021,Visalar
50,21,2023-01-03 21:50:00.065,Visalar
50,21,2023-01-03 21:51:00.006,Visalar
51,21,2023-01-03 21:52:00.064,Visalar
47,22,2023-01-03 21:53:00.065,Visalar
47,22,2023-01-03 21:54:00.055,Visalar
47,22,2023-01-03 21:55:00.018,Visalar
47,22,2023-01-03 21:56:00.064,Visalar
47,22,2023-01-03 21:57:00.064,Visalar
47,22,2023-01-03 21:58:00.014,Visalar
46,22,2023-01-03 21:59:00.014,Visalar
46,22,2023-01-03 22:00:00.030,Visalar
46,22,2023-01-03 22:01:00.017,Visalar
46,22,2023-01-03 22:02:00.048,Visalar
46,22,2023-01-03 22:03:00.063,Visalar
46,22,2023-01-03 22:04:00.064,Visalar
46,22,2023-01-03 22:05:00.006,Visalar
46,22,2023-01-03 22:06:00.024,Visalar
46,22,2023-01-03 22:07:00.018,Visalar
46,22,2023-01-03 22:08:00.059,Visalar
46,22,2023-01-03 22:09:00.064,Visalar
46,22,2023-01-03 22:10:00.064,Visalar
46,22,2023-01-03 22:11:00.065,Visalar
46,22,2023-01-03 22:12:00.006,Visalar
46,22,2023-01-03 22:13:00.065,Visalar
46,22,2023-01-03 22:14:00.015,Visalar
46,22,2023-01-03 22:15:00.005,Visalar
46,22,2023-01-03 22:16:00.064,Visalar
42,22,2023-01-03 22:18:00.005,Visalar
42,22,2023-01-03 22:19:00.006,Visalar
42,22,2023-01-03 22:20:00.017,Visalar
42,22,2023-01-03 22:21:00.007,Visalar
43,22,2023-01-03 22:22:00.004,Visalar
43,22,2023-01-03 22:23:00.004,Visalar
43,22,2023-01-03 22:24:00.059,Visalar
43,22,2023-01-03 22:25:00.005,Visalar
43,22,2023-01-03 22:26:00.037,Visalar
43,22,2023-01-03 22:27:00.037,Visalar
43,22,2023-01-03 22:28:00.050,Visalar
43,22,2023-01-03 22:29:00.051,Visalar
44,22,2023-01-03 22:30:00.064,Visalar
44,22,2023-01-03 22:31:00.062,Visalar
44,22,2023-01-03 22:32:00.056,Visalar
44,22,2023-01-03 22:33:00.064,Visalar
44,22,2023-01-03 22:34:00.053,Visalar
44,22,2023-01-03 22:35:00.065,Visalar
44,22,2023-01-03 22:36:00.005,Visalar
44,22,2023-01-03 22:37:00.011,Visalar
44,22,2023-01-03 22:38:00.015,Visalar
44,22,2023-01-03 22:39:00.025,Visalar
45,21,2023-01-03 22:40:00.065,Visalar
45,22,2023-01-03 22:41:00.007,Visalar
48,22,2023-01-03 22:42:00.006,Visalar
48,22,2023-01-03 22:43:00.018,Visalar
48,22,2023-01-03 22:44:00.053,Visalar
48,22,2023-01-03 22:45:00.064,Visalar
48,22,2023-01-03 22:46:00.051,Visalar
48,22,2023-01-03 22:47:00.015,Visalar
48,22,2023-01-03 22:48:00.016,Visalar
48,22,2023-01-03 22:49:00.006,Visalar
48,22,2023-01-03 22:50:00.018,Visalar
48,22,2023-01-03 22:51:00.038,Visalar
48,22,2023-01-03 22:52:00.006,Visalar
48,22,2023-01-03 22:53:00.065,Visalar
48,22,2023-01-03 22:54:00.065,Visalar
48,22,2023-01-03 22:55:00.018,Visalar
48,22,2023-01-03 22:56:00.010,Visalar
48,22,2023-01-03 22:57:00.038,Visalar
48,22,2023-01-03 22:58:00.064,Visalar
48,22,2023-01-03 22:59:00.011,Visalar
48,22,2023-01-03 23:00:00.023,Visalar
48,22,2023-01-03 23:01:00.065,Visalar
48,22,2023-01-03 23:03:00.050,Visalar
48,22,2023-01-03 23:04:00.006,Visalar
48,22,2023-01-03 23:05:00.060,Visalar
43,22,2023-01-03 23:06:00.064,Visalar
43,22,2023-01-03 23:07:00.065,Visalar
42,22,2023-01-03 23:08:00.065,Visalar
42,22,2023-01-03 23:09:00.065,Visalar
42,22,2023-01-03 23:10:00.006,Visalar
42,22,2023-01-03 23:11:00.007,Visalar
42,22,2023-01-03 23:12:00.010,Visalar
42,22,2023-01-03 23:13:00.064,Visalar
42,22,2023-01-03 23:14:00.005,Visalar
42,22,2023-01-03 23:15:00.015,Visalar
42,22,2023-01-03 23:16:00.065,Visalar
42,22,2023-01-03 23:17:00.018,Visalar
42,22,2023-01-03 23:18:00.061,Visalar
42,22,2023-01-03 23:19:00.050,Visalar
42,22,2023-01-03 23:20:00.053,Visalar
42,22,2023-01-03 23:21:00.041,Visalar
42,22,2023-01-03 23:22:00.006,Visalar
42,22,2023-01-03 23:23:00.064,Visalar
41,22,2023-01-03 23:24:00.065,Visalar
41,22,2023-01-03 23:25:00.007,Visalar
41,22,2023-01-03 23:26:00.065,Visalar
41,22,2023-01-03 23:27:00.065,Visalar
41,22,2023-01-03 23:28:00.062,Visalar
41,22,2023-01-03 23:29:00.028,Visalar
46,21,2023-01-03 23:30:00.054,Visalar
46,21,2023-01-03 23:31:00.064,Visalar
46,21,2023-01-03 23:32:00.015,Visalar
46,21,2023-01-03 23:33:00.040,Visalar
46,21,2023-01-03 23:34:00.057,Visalar
46,21,2023-01-03 23:35:00.065,Visalar
46,21,2023-01-03 23:36:00.006,Visalar
46,21,2023-01-03 23:37:00.055,Visalar
47,21,2023-01-03 23:38:00.041,Visalar
47,21,2023-01-03 23:39:00.025,Visalar
47,21,2023-01-03 23:40:00.005,Visalar
47,21,2023-01-03 23:41:00.015,Visalar
47,21,2023-01-03 23:42:00.065,Visalar
47,21,2023-01-03 23:43:00.015,Visalar
47,21,2023-01-03 23:44:00.056,Visalar
47,21,2023-01-03 23:45:00.065,Visalar
47,21,2023-01-03 23:46:00.018,Visalar
47,21,2023-01-03 23:47:00.005,Visalar
47,21,2023-01-03 23:48:00.040,Visalar
47,21,2023-01-03 23:49:00.006,Visalar
47,21,2023-01-03 23:50:00.064,Visalar
47,21,2023-01-03 23:51:00.037,Visalar
47,21,2023-01-03 23:52:00.006,Visalar
47,21,2023-01-03 23:53:00.015,Visalar
45,22,2023-01-03 23:54:00.061,Visalar
45,22,2023-01-03 23:55:00.065,Visalar
45,22,2023-01-03 23:56:00.015,Visalar
45,22,2023-01-03 23:57:00.064,Visalar
45,22,2023-01-03 23:58:00.058,Visalar
45,22,2023-01-03 23:59:00.018,Visalar
